ONA 15 1
result pair: 
48140.0 11.12 15
[2898, 3174, 5340, 5886, 9135, 10690, 12394, 15077, 16040, 21390, 26740, 32090, 37440, 42790, 48140]
[1.0, 1.0, 1.0, 1.0, 1.0, 1.0, 1.0, 1.0, 1.0, 1.0, 0.83, 0.29, 0.0, 0.0, 0.0]


makespan sorted
48140.0


qualities sorted
11.12

