ONA 14 1
result pair: 
42790.0 11.12 14
[2988, 5340, 5886, 8794, 10690, 11702, 14375, 16040, 17058, 21390, 26740, 32090, 37440, 42790]
[1.0, 1.0, 1.0, 1.0, 1.0, 1.0, 1.0, 1.0, 1.0, 1.0, 0.83, 0.29, 0.0, 0.0]


makespan sorted
42790.0


qualities sorted
11.12

