ONA 13 1
result pair: 
6204.0 5.0 5
8388.0 6.0 6
10287.0 7.0 7
12322.0 8.0 8
16195.0 9.0 9
21875.0 10.0 10
27225.0 10.78 11
32555.0 11.04 12
[2898, 2955, 6129, 6147, 6204]
[1.0, 1.0, 1.0, 1.0, 1.0]
[2649, 2898, 3042, 6147, 7989, 8388]
[1.0, 1.0, 1.0, 1.0, 1.0, 1.0]
[2289, 3093, 3174, 4782, 5991, 8145, 10287]
[1.0, 1.0, 1.0, 1.0, 1.0, 1.0, 1.0]
[2988, 3042, 5340, 5986, 8884, 10690, 12133, 12322]
[1.0, 1.0, 1.0, 1.0, 1.0, 1.0, 1.0, 1.0]
[2898, 2955, 5340, 5886, 8979, 10690, 12082, 14113, 16195]
[1.0, 1.0, 1.0, 1.0, 1.0, 1.0, 1.0, 1.0, 1.0]
[3174, 3249, 5340, 6147, 9396, 10845, 12294, 14535, 16360, 21875]
[1.0, 1.0, 1.0, 1.0, 1.0, 1.0, 1.0, 1.0, 1.0, 1.0]
[2898, 3042, 5505, 5874, 5991, 9240, 11020, 12499, 16535, 21875, 27225]
[1.0, 1.0, 1.0, 1.0, 1.0, 1.0, 1.0, 1.0, 1.0, 1.0, 0.78]
[2832, 3093, 5340, 6081, 8979, 10690, 12228, 14259, 16195, 21535, 27040, 32555]
[1.0, 1.0, 1.0, 1.0, 1.0, 1.0, 1.0, 1.0, 1.0, 1.0, 0.8, 0.24]


makespan sorted
6204.0
8388.0
10287.0
12322.0
16195.0
21875.0
27225.0
32555.0


qualities sorted
5.0
6.0
7.0
8.0
9.0
10.0
10.78
11.04

