ONA 11 1
result pair: 
26740.0 10.83 11
[2832, 3249, 5340, 5674, 6508, 9406, 10690, 12394, 16040, 21390, 26740]
[1.0, 1.0, 1.0, 1.0, 1.0, 1.0, 1.0, 1.0, 1.0, 1.0, 0.83]


makespan sorted
26740.0


qualities sorted
10.83

