ONA 13 1
result pair: 
37440.0 11.12 13
[3093, 3174, 5340, 6196, 9184, 10690, 12433, 14464, 16040, 21390, 26740, 32090, 37440]
[1.0, 1.0, 1.0, 1.0, 1.0, 1.0, 1.0, 1.0, 1.0, 1.0, 0.83, 0.29, 0.0]


makespan sorted
37440.0


qualities sorted
11.12

