ONA 10 1
result pair: 
21390.0 10.0 10
[2955, 2988, 5340, 5886, 5997, 8979, 10690, 12228, 16040, 21390]
[1.0, 1.0, 1.0, 1.0, 1.0, 1.0, 1.0, 1.0, 1.0, 1.0]


makespan sorted
21390.0


qualities sorted
10.0

