ONA 8 1
result pair: 
2898.0 3.0 3
3361.0 4.0 4
4939.0 5.0 5
5806.0 6.0 6
8853.0 7.0 7
12228.0 8.0 8
[1842, 2832, 2898]
[1.0, 1.0, 1.0]
[2097, 3042, 3093, 3361]
[1.0, 1.0, 1.0, 1.0]
[2097, 2832, 2898, 4204, 4939]
[1.0, 1.0, 1.0, 1.0, 1.0]
[2097, 2898, 3042, 4386, 5640, 5806]
[1.0, 1.0, 1.0, 1.0, 1.0, 1.0]
[2832, 2898, 5886, 6006, 6204, 8784, 8853]
[1.0, 1.0, 1.0, 1.0, 1.0, 1.0, 1.0]
[2832, 2988, 5505, 6237, 9330, 10845, 12109, 12228]
[1.0, 1.0, 1.0, 1.0, 1.0, 1.0, 1.0, 1.0]


makespan sorted
2898.0
3361.0
4939.0
5806.0
8853.0
12228.0


qualities sorted
3.0
4.0
5.0
6.0
7.0
8.0

