%!PS-Adobe-3.0 EPSF-3.0
%%Creator: (MATLAB, The Mathworks, Inc. Version 9.1.0.441655 \(R2016b\). Operating System: Mac OS X)
%%Title: /Users/ZS-MAC/Desktop/safire/executionTime.eps
%%CreationDate: 2018-11-07T14:49:23
%%Pages: (atend)
%%BoundingBox: 0 0 425 185
%%LanguageLevel: 3
%%EndComments
%%BeginProlog
%%BeginResource: procset (Apache XML Graphics Std ProcSet) 1.2 0
%%Version: 1.2 0
%%Copyright: (Copyright 2001-2003,2010 The Apache Software Foundation. License terms: http://www.apache.org/licenses/LICENSE-2.0)
/bd{bind def}bind def
/ld{load def}bd
/GR/grestore ld
/M/moveto ld
/LJ/setlinejoin ld
/C/curveto ld
/f/fill ld
/LW/setlinewidth ld
/GC/setgray ld
/t/show ld
/N/newpath ld
/CT/concat ld
/cp/closepath ld
/S/stroke ld
/L/lineto ld
/CC/setcmykcolor ld
/A/ashow ld
/GS/gsave ld
/RC/setrgbcolor ld
/RM/rmoveto ld
/ML/setmiterlimit ld
/re {4 2 roll M
1 index 0 rlineto
0 exch rlineto
neg 0 rlineto
cp } bd
/_ctm matrix def
/_tm matrix def
/BT { _ctm currentmatrix pop matrix _tm copy pop 0 0 moveto } bd
/ET { _ctm setmatrix } bd
/iTm { _ctm setmatrix _tm concat } bd
/Tm { _tm astore pop iTm 0 0 moveto } bd
/ux 0.0 def
/uy 0.0 def
/F {
  /Tp exch def
  /Tf exch def
  Tf findfont Tp scalefont setfont
  /cf Tf def  /cs Tp def
} bd
/ULS {currentpoint /uy exch def /ux exch def} bd
/ULE {
  /Tcx currentpoint pop def
  gsave
  newpath
  cf findfont cs scalefont dup
  /FontMatrix get 0 get /Ts exch def /FontInfo get dup
  /UnderlinePosition get Ts mul /To exch def
  /UnderlineThickness get Ts mul /Tt exch def
  ux uy To add moveto  Tcx uy To add lineto
  Tt setlinewidth stroke
  grestore
} bd
/OLE {
  /Tcx currentpoint pop def
  gsave
  newpath
  cf findfont cs scalefont dup
  /FontMatrix get 0 get /Ts exch def /FontInfo get dup
  /UnderlinePosition get Ts mul /To exch def
  /UnderlineThickness get Ts mul /Tt exch def
  ux uy To add cs add moveto Tcx uy To add cs add lineto
  Tt setlinewidth stroke
  grestore
} bd
/SOE {
  /Tcx currentpoint pop def
  gsave
  newpath
  cf findfont cs scalefont dup
  /FontMatrix get 0 get /Ts exch def /FontInfo get dup
  /UnderlinePosition get Ts mul /To exch def
  /UnderlineThickness get Ts mul /Tt exch def
  ux uy To add cs 10 mul 26 idiv add moveto Tcx uy To add cs 10 mul 26 idiv add lineto
  Tt setlinewidth stroke
  grestore
} bd
/QT {
/Y22 exch store
/X22 exch store
/Y21 exch store
/X21 exch store
currentpoint
/Y21 load 2 mul add 3 div exch
/X21 load 2 mul add 3 div exch
/X21 load 2 mul /X22 load add 3 div
/Y21 load 2 mul /Y22 load add 3 div
/X22 load /Y22 load curveto
} bd
/SSPD {
dup length /d exch dict def
{
/v exch def
/k exch def
currentpagedevice k known {
/cpdv currentpagedevice k get def
v cpdv ne {
/upd false def
/nullv v type /nulltype eq def
/nullcpdv cpdv type /nulltype eq def
nullv nullcpdv or
{
/upd true def
} {
/sametype v type cpdv type eq def
sametype {
v type /arraytype eq {
/vlen v length def
/cpdvlen cpdv length def
vlen cpdvlen eq {
0 1 vlen 1 sub {
/i exch def
/obj v i get def
/cpdobj cpdv i get def
obj cpdobj ne {
/upd true def
exit
} if
} for
} {
/upd true def
} ifelse
} {
v type /dicttype eq {
v {
/dv exch def
/dk exch def
/cpddv cpdv dk get def
dv cpddv ne {
/upd true def
exit
} if
} forall
} {
/upd true def
} ifelse
} ifelse
} if
} ifelse
upd true eq {
d k v put
} if
} if
} if
} forall
d length 0 gt {
d setpagedevice
} if
} bd
/RE { % /NewFontName [NewEncodingArray] /FontName RE -
  findfont dup length dict begin
  {
    1 index /FID ne
    {def} {pop pop} ifelse
  } forall
  /Encoding exch def
  /FontName 1 index def
  currentdict definefont pop
  end
} bind def
%%EndResource
%%BeginResource: procset (Apache XML Graphics EPS ProcSet) 1.0 0
%%Version: 1.0 0
%%Copyright: (Copyright 2002-2003 The Apache Software Foundation. License terms: http://www.apache.org/licenses/LICENSE-2.0)
/BeginEPSF { %def
/b4_Inc_state save def         % Save state for cleanup
/dict_count countdictstack def % Count objects on dict stack
/op_count count 1 sub def      % Count objects on operand stack
userdict begin                 % Push userdict on dict stack
/showpage { } def              % Redefine showpage, { } = null proc
0 setgray 0 setlinecap         % Prepare graphics state
1 setlinewidth 0 setlinejoin
10 setmiterlimit [ ] 0 setdash newpath
/languagelevel where           % If level not equal to 1 then
{pop languagelevel             % set strokeadjust and
1 ne                           % overprint to their defaults.
{false setstrokeadjust false setoverprint
} if
} if
} bd
/EndEPSF { %def
count op_count sub {pop} repeat            % Clean up stacks
countdictstack dict_count sub {end} repeat
b4_Inc_state restore
} bd
%%EndResource
%FOPBeginFontDict
%%IncludeResource: font Courier-Bold
%%IncludeResource: font Helvetica
%%IncludeResource: font Courier-BoldOblique
%%IncludeResource: font Courier-Oblique
%%IncludeResource: font Times-Roman
%%IncludeResource: font Helvetica-BoldOblique
%%IncludeResource: font Helvetica-Bold
%%IncludeResource: font Helvetica-Oblique
%%IncludeResource: font Times-BoldItalic
%%IncludeResource: font Courier
%%IncludeResource: font Times-Italic
%%IncludeResource: font Times-Bold
%%IncludeResource: font Symbol
%%IncludeResource: font ZapfDingbats
%FOPEndFontDict
%%BeginResource: encoding WinAnsiEncoding
/WinAnsiEncoding [
/.notdef /.notdef /.notdef /.notdef /.notdef
/.notdef /.notdef /.notdef /.notdef /.notdef
/.notdef /.notdef /.notdef /.notdef /.notdef
/.notdef /.notdef /.notdef /.notdef /.notdef
/.notdef /.notdef /.notdef /.notdef /.notdef
/.notdef /.notdef /.notdef /.notdef /.notdef
/.notdef /.notdef /space /exclam /quotedbl
/numbersign /dollar /percent /ampersand /quotesingle
/parenleft /parenright /asterisk /plus /comma
/hyphen /period /slash /zero /one
/two /three /four /five /six
/seven /eight /nine /colon /semicolon
/less /equal /greater /question /at
/A /B /C /D /E
/F /G /H /I /J
/K /L /M /N /O
/P /Q /R /S /T
/U /V /W /X /Y
/Z /bracketleft /backslash /bracketright /asciicircum
/underscore /quoteleft /a /b /c
/d /e /f /g /h
/i /j /k /l /m
/n /o /p /q /r
/s /t /u /v /w
/x /y /z /braceleft /bar
/braceright /asciitilde /bullet /Euro /bullet
/quotesinglbase /florin /quotedblbase /ellipsis /dagger
/daggerdbl /circumflex /perthousand /Scaron /guilsinglleft
/OE /bullet /Zcaron /bullet /bullet
/quoteleft /quoteright /quotedblleft /quotedblright /bullet
/endash /emdash /asciitilde /trademark /scaron
/guilsinglright /oe /bullet /zcaron /Ydieresis
/space /exclamdown /cent /sterling /currency
/yen /brokenbar /section /dieresis /copyright
/ordfeminine /guillemotleft /logicalnot /sfthyphen /registered
/macron /degree /plusminus /twosuperior /threesuperior
/acute /mu /paragraph /middot /cedilla
/onesuperior /ordmasculine /guillemotright /onequarter /onehalf
/threequarters /questiondown /Agrave /Aacute /Acircumflex
/Atilde /Adieresis /Aring /AE /Ccedilla
/Egrave /Eacute /Ecircumflex /Edieresis /Igrave
/Iacute /Icircumflex /Idieresis /Eth /Ntilde
/Ograve /Oacute /Ocircumflex /Otilde /Odieresis
/multiply /Oslash /Ugrave /Uacute /Ucircumflex
/Udieresis /Yacute /Thorn /germandbls /agrave
/aacute /acircumflex /atilde /adieresis /aring
/ae /ccedilla /egrave /eacute /ecircumflex
/edieresis /igrave /iacute /icircumflex /idieresis
/eth /ntilde /ograve /oacute /ocircumflex
/otilde /odieresis /divide /oslash /ugrave
/uacute /ucircumflex /udieresis /yacute /thorn
/ydieresis
] def
%%EndResource
%FOPBeginFontReencode
/Courier-Bold findfont
dup length dict begin
  {1 index /FID ne {def} {pop pop} ifelse} forall
  /Encoding WinAnsiEncoding def
  currentdict
end
/Courier-Bold exch definefont pop
/Helvetica findfont
dup length dict begin
  {1 index /FID ne {def} {pop pop} ifelse} forall
  /Encoding WinAnsiEncoding def
  currentdict
end
/Helvetica exch definefont pop
/Courier-BoldOblique findfont
dup length dict begin
  {1 index /FID ne {def} {pop pop} ifelse} forall
  /Encoding WinAnsiEncoding def
  currentdict
end
/Courier-BoldOblique exch definefont pop
/Courier-Oblique findfont
dup length dict begin
  {1 index /FID ne {def} {pop pop} ifelse} forall
  /Encoding WinAnsiEncoding def
  currentdict
end
/Courier-Oblique exch definefont pop
/Times-Roman findfont
dup length dict begin
  {1 index /FID ne {def} {pop pop} ifelse} forall
  /Encoding WinAnsiEncoding def
  currentdict
end
/Times-Roman exch definefont pop
/Helvetica-BoldOblique findfont
dup length dict begin
  {1 index /FID ne {def} {pop pop} ifelse} forall
  /Encoding WinAnsiEncoding def
  currentdict
end
/Helvetica-BoldOblique exch definefont pop
/Helvetica-Bold findfont
dup length dict begin
  {1 index /FID ne {def} {pop pop} ifelse} forall
  /Encoding WinAnsiEncoding def
  currentdict
end
/Helvetica-Bold exch definefont pop
/Helvetica-Oblique findfont
dup length dict begin
  {1 index /FID ne {def} {pop pop} ifelse} forall
  /Encoding WinAnsiEncoding def
  currentdict
end
/Helvetica-Oblique exch definefont pop
/Times-BoldItalic findfont
dup length dict begin
  {1 index /FID ne {def} {pop pop} ifelse} forall
  /Encoding WinAnsiEncoding def
  currentdict
end
/Times-BoldItalic exch definefont pop
/Courier findfont
dup length dict begin
  {1 index /FID ne {def} {pop pop} ifelse} forall
  /Encoding WinAnsiEncoding def
  currentdict
end
/Courier exch definefont pop
/Times-Italic findfont
dup length dict begin
  {1 index /FID ne {def} {pop pop} ifelse} forall
  /Encoding WinAnsiEncoding def
  currentdict
end
/Times-Italic exch definefont pop
/Times-Bold findfont
dup length dict begin
  {1 index /FID ne {def} {pop pop} ifelse} forall
  /Encoding WinAnsiEncoding def
  currentdict
end
/Times-Bold exch definefont pop
%FOPEndFontReencode
%%EndProlog
%%Page: 1 1
%%PageBoundingBox: 0 0 425 185
%%BeginPageSetup
[1 0 0 -1 0 185] CT
%%EndPageSetup
GS
1 GC
N
0 0 425 185 re
f
GR
GS
1 GC
N
0 0 425 185 re
f
GR
GS
1 GC
N
55 152 M
385 152 L
385 16 L
55 16 L
cp
f
GR
GS
0.873 GC
[8 3 2 3] 0 setdash
2 LJ
0.5 LW
N
71.5 152 M
71.5 16 L
S
GR
GS
0.873 GC
[8 3 2 3] 0 setdash
2 LJ
0.5 LW
N
104.5 152 M
104.5 16 L
S
GR
GS
0.873 GC
[8 3 2 3] 0 setdash
2 LJ
0.5 LW
N
137.5 152 M
137.5 16 L
S
GR
GS
0.873 GC
[8 3 2 3] 0 setdash
2 LJ
0.5 LW
N
170.5 152 M
170.5 16 L
S
GR
GS
0.873 GC
[8 3 2 3] 0 setdash
2 LJ
0.5 LW
N
203.5 152 M
203.5 16 L
S
GR
GS
0.873 GC
[8 3 2 3] 0 setdash
2 LJ
0.5 LW
N
236.5 152 M
236.5 16 L
S
GR
GS
0.873 GC
[8 3 2 3] 0 setdash
2 LJ
0.5 LW
N
269.5 152 M
269.5 16 L
S
GR
GS
0.873 GC
[8 3 2 3] 0 setdash
2 LJ
0.5 LW
N
302.5 152 M
302.5 16 L
S
GR
GS
0.873 GC
[8 3 2 3] 0 setdash
2 LJ
0.5 LW
N
335.5 152 M
335.5 16 L
S
GR
GS
0.873 GC
[8 3 2 3] 0 setdash
2 LJ
0.5 LW
N
368.5 152 M
368.5 16 L
S
GR
GS
0.873 GC
[8 3 2 3] 0 setdash
2 LJ
0.5 LW
N
385 152 M
55 152 L
S
GR
GS
0.873 GC
[8 3 2 3] 0 setdash
2 LJ
0.5 LW
N
385 129.333 M
55 129.333 L
S
GR
GS
0.873 GC
[8 3 2 3] 0 setdash
2 LJ
0.5 LW
N
385 106.667 M
55 106.667 L
S
GR
GS
0.873 GC
[8 3 2 3] 0 setdash
2 LJ
0.5 LW
N
385 84 M
55 84 L
S
GR
GS
0.873 GC
[8 3 2 3] 0 setdash
2 LJ
0.5 LW
N
385 61.333 M
55 61.333 L
S
GR
GS
0.873 GC
[8 3 2 3] 0 setdash
2 LJ
0.5 LW
N
385 38.667 M
55 38.667 L
S
GR
GS
0.873 GC
[8 3 2 3] 0 setdash
2 LJ
0.5 LW
N
385 16 M
55 16 L
S
GR
GS
0.149 GC
1 LJ
0.5 LW
N
55 152 M
385 152 L
S
GR
GS
1 1 0 RC
N
63.014 152 M
70.557 152 L
70.557 151.75 L
63.014 151.75 L
cp
f
GR
GS
1 1 0 RC
N
96.014 152 M
103.557 152 L
103.557 150.887 L
96.014 150.887 L
cp
f
GR
GS
1 1 0 RC
N
129.014 152 M
136.557 152 L
136.557 148.959 L
129.014 148.959 L
cp
f
GR
GS
1 1 0 RC
N
162.014 152 M
169.557 152 L
169.557 146.045 L
162.014 146.045 L
cp
f
GR
GS
1 1 0 RC
N
195.014 152 M
202.557 152 L
202.557 141.053 L
195.014 141.053 L
cp
f
GR
GS
1 1 0 RC
N
228.014 152 M
235.557 152 L
235.557 133.809 L
228.014 133.809 L
cp
f
GR
GS
1 1 0 RC
N
261.014 152 M
268.557 152 L
268.557 118.202 L
261.014 118.202 L
cp
f
GR
GS
1 1 0 RC
N
294.014 152 M
301.557 152 L
301.557 95.506 L
294.014 95.506 L
cp
f
GR
GS
1 1 0 RC
N
327.014 152 M
334.557 152 L
334.557 68.59 L
327.014 68.59 L
cp
f
GR
GS
1 1 0 RC
N
360.014 152 M
367.557 152 L
367.557 42.016 L
360.014 42.016 L
cp
f
GR
GS
10.0 ML
0.5 LW
N
63.014 152 M
63.014 151.75 L
70.557 151.75 L
70.557 152 L
cp
S
GR
GS
10.0 ML
0.5 LW
N
96.014 152 M
96.014 150.887 L
103.557 150.887 L
103.557 152 L
cp
S
GR
GS
10.0 ML
0.5 LW
N
129.014 152 M
129.014 148.959 L
136.557 148.959 L
136.557 152 L
cp
S
GR
GS
10.0 ML
0.5 LW
N
162.014 152 M
162.014 146.045 L
169.557 146.045 L
169.557 152 L
cp
S
GR
GS
10.0 ML
0.5 LW
N
195.014 152 M
195.014 141.053 L
202.557 141.053 L
202.557 152 L
cp
S
GR
GS
10.0 ML
0.5 LW
N
228.014 152 M
228.014 133.809 L
235.557 133.809 L
235.557 152 L
cp
S
GR
GS
10.0 ML
0.5 LW
N
261.014 152 M
261.014 118.202 L
268.557 118.202 L
268.557 152 L
cp
S
GR
GS
10.0 ML
0.5 LW
N
294.014 152 M
294.014 95.506 L
301.557 95.506 L
301.557 152 L
cp
S
GR
GS
10.0 ML
0.5 LW
N
327.014 152 M
327.014 68.59 L
334.557 68.59 L
334.557 152 L
cp
S
GR
GS
10.0 ML
0.5 LW
N
360.014 152 M
360.014 42.016 L
367.557 42.016 L
367.557 152 L
cp
S
GR
GS
0.576 0.439 0.859 RC
N
72.443 152 M
79.986 152 L
79.986 151.76 L
72.443 151.76 L
cp
f
GR
GS
0.576 0.439 0.859 RC
N
105.443 152 M
112.986 152 L
112.986 150.942 L
105.443 150.942 L
cp
f
GR
GS
0.576 0.439 0.859 RC
N
138.443 152 M
145.986 152 L
145.986 149.025 L
138.443 149.025 L
cp
f
GR
GS
0.576 0.439 0.859 RC
N
171.443 152 M
178.986 152 L
178.986 146.064 L
171.443 146.064 L
cp
f
GR
GS
0.576 0.439 0.859 RC
N
204.443 152 M
211.986 152 L
211.986 140.123 L
204.443 140.123 L
cp
f
GR
GS
0.576 0.439 0.859 RC
N
237.443 152 M
244.986 152 L
244.986 132.818 L
237.443 132.818 L
cp
f
GR
GS
0.576 0.439 0.859 RC
N
270.443 152 M
277.986 152 L
277.986 118.906 L
270.443 118.906 L
cp
f
GR
GS
0.576 0.439 0.859 RC
N
303.443 152 M
310.986 152 L
310.986 95.085 L
303.443 95.085 L
cp
f
GR
GS
0.576 0.439 0.859 RC
N
336.443 152 M
343.986 152 L
343.986 65.947 L
336.443 65.947 L
cp
f
GR
GS
0.576 0.439 0.859 RC
N
369.443 152 M
376.986 152 L
376.986 38.158 L
369.443 38.158 L
cp
f
GR
GS
10.0 ML
0.5 LW
N
72.443 152 M
72.443 151.76 L
79.986 151.76 L
79.986 152 L
cp
S
GR
GS
10.0 ML
0.5 LW
N
105.443 152 M
105.443 150.942 L
112.986 150.942 L
112.986 152 L
cp
S
GR
GS
10.0 ML
0.5 LW
N
138.443 152 M
138.443 149.025 L
145.986 149.025 L
145.986 152 L
cp
S
GR
GS
10.0 ML
0.5 LW
N
171.443 152 M
171.443 146.064 L
178.986 146.064 L
178.986 152 L
cp
S
GR
GS
10.0 ML
0.5 LW
N
204.443 152 M
204.443 140.123 L
211.986 140.123 L
211.986 152 L
cp
S
GR
GS
10.0 ML
0.5 LW
N
237.443 152 M
237.443 132.818 L
244.986 132.818 L
244.986 152 L
cp
S
GR
GS
10.0 ML
0.5 LW
N
270.443 152 M
270.443 118.906 L
277.986 118.906 L
277.986 152 L
cp
S
GR
GS
10.0 ML
0.5 LW
N
303.443 152 M
303.443 95.085 L
310.986 95.085 L
310.986 152 L
cp
S
GR
GS
10.0 ML
0.5 LW
N
336.443 152 M
336.443 65.947 L
343.986 65.947 L
343.986 152 L
cp
S
GR
GS
10.0 ML
0.5 LW
N
369.443 152 M
369.443 38.158 L
376.986 38.158 L
376.986 152 L
cp
S
GR
GS
0.149 GC
2 setlinecap
1 LJ
0.5 LW
N
55 152 M
385 152 L
S
GR
GS
0.149 GC
2 setlinecap
1 LJ
0.5 LW
N
55 16 M
385 16 L
S
GR
GS
0.149 GC
2 setlinecap
1 LJ
0.5 LW
N
71.5 152 M
71.5 148.7 L
S
GR
GS
0.149 GC
2 setlinecap
1 LJ
0.5 LW
N
104.5 152 M
104.5 148.7 L
S
GR
GS
0.149 GC
2 setlinecap
1 LJ
0.5 LW
N
137.5 152 M
137.5 148.7 L
S
GR
GS
0.149 GC
2 setlinecap
1 LJ
0.5 LW
N
170.5 152 M
170.5 148.7 L
S
GR
GS
0.149 GC
2 setlinecap
1 LJ
0.5 LW
N
203.5 152 M
203.5 148.7 L
S
GR
GS
0.149 GC
2 setlinecap
1 LJ
0.5 LW
N
236.5 152 M
236.5 148.7 L
S
GR
GS
0.149 GC
2 setlinecap
1 LJ
0.5 LW
N
269.5 152 M
269.5 148.7 L
S
GR
GS
0.149 GC
2 setlinecap
1 LJ
0.5 LW
N
302.5 152 M
302.5 148.7 L
S
GR
GS
0.149 GC
2 setlinecap
1 LJ
0.5 LW
N
335.5 152 M
335.5 148.7 L
S
GR
GS
0.149 GC
2 setlinecap
1 LJ
0.5 LW
N
368.5 152 M
368.5 148.7 L
S
GR
GS
0.149 GC
2 setlinecap
1 LJ
0.5 LW
N
71.5 16 M
71.5 19.3 L
S
GR
GS
0.149 GC
2 setlinecap
1 LJ
0.5 LW
N
104.5 16 M
104.5 19.3 L
S
GR
GS
0.149 GC
2 setlinecap
1 LJ
0.5 LW
N
137.5 16 M
137.5 19.3 L
S
GR
GS
0.149 GC
2 setlinecap
1 LJ
0.5 LW
N
170.5 16 M
170.5 19.3 L
S
GR
GS
0.149 GC
2 setlinecap
1 LJ
0.5 LW
N
203.5 16 M
203.5 19.3 L
S
GR
GS
0.149 GC
2 setlinecap
1 LJ
0.5 LW
N
236.5 16 M
236.5 19.3 L
S
GR
GS
0.149 GC
2 setlinecap
1 LJ
0.5 LW
N
269.5 16 M
269.5 19.3 L
S
GR
GS
0.149 GC
2 setlinecap
1 LJ
0.5 LW
N
302.5 16 M
302.5 19.3 L
S
GR
GS
0.149 GC
2 setlinecap
1 LJ
0.5 LW
N
335.5 16 M
335.5 19.3 L
S
GR
GS
0.149 GC
2 setlinecap
1 LJ
0.5 LW
N
368.5 16 M
368.5 19.3 L
S
GR
GS
[1 0 0 1 71.5 156] CT
0.149 GC
/Helvetica 10 F
GS
[1 0 0 1 0 0] CT
-3 10 moveto 
1 -1 scale
(1) t 
GR
GR
GS
[1 0 0 1 104.5 156] CT
0.149 GC
/Helvetica 10 F
GS
[1 0 0 1 0 0] CT
-3 10 moveto 
1 -1 scale
(2) t 
GR
GR
GS
[1 0 0 1 137.5 156] CT
0.149 GC
/Helvetica 10 F
GS
[1 0 0 1 0 0] CT
-3 10 moveto 
1 -1 scale
(3) t 
GR
GR
GS
[1 0 0 1 170.5 156] CT
0.149 GC
/Helvetica 10 F
GS
[1 0 0 1 0 0] CT
-3 10 moveto 
1 -1 scale
(4) t 
GR
GR
GS
[1 0 0 1 203.5 156] CT
0.149 GC
/Helvetica 10 F
GS
[1 0 0 1 0 0] CT
-3 10 moveto 
1 -1 scale
(5) t 
GR
GR
GS
[1 0 0 1 236.5 156] CT
0.149 GC
/Helvetica 10 F
GS
[1 0 0 1 0 0] CT
-3 10 moveto 
1 -1 scale
(6) t 
GR
GR
GS
[1 0 0 1 269.5 156] CT
0.149 GC
/Helvetica 10 F
GS
[1 0 0 1 0 0] CT
-3 10 moveto 
1 -1 scale
(7) t 
GR
GR
GS
[1 0 0 1 302.5 156] CT
0.149 GC
/Helvetica 10 F
GS
[1 0 0 1 0 0] CT
-3 10 moveto 
1 -1 scale
(8) t 
GR
GR
GS
[1 0 0 1 335.5 156] CT
0.149 GC
/Helvetica 10 F
GS
[1 0 0 1 0 0] CT
-3 10 moveto 
1 -1 scale
(9) t 
GR
GR
GS
[1 0 0 1 368.5 156] CT
0.149 GC
/Helvetica 10 F
GS
[1 0 0 1 0 0] CT
-6 10 moveto 
1 -1 scale
(10) t 
GR
GR
GS
[1 0 0 1 220.00015 171] CT
0.149 GC
N
-35.268 10.252 M
-35.268 7.455 L
-35.268 7.361 -35.159 7.361 QT
-35.018 7.361 L
-34.971 7.361 -34.948 7.385 QT
-34.924 7.408 -34.924 7.455 QT
-34.924 8.627 -34.19 9.275 QT
-33.456 9.924 -32.284 9.924 QT
-31.862 9.924 -31.51 9.682 QT
-31.159 9.439 -30.963 9.049 QT
-30.768 8.658 -30.768 8.252 QT
-30.768 7.877 -30.917 7.533 QT
-31.065 7.189 -31.338 6.939 QT
-31.612 6.689 -31.956 6.611 QT
-33.518 6.236 L
-34.284 6.017 -34.776 5.385 QT
-35.268 4.752 -35.268 3.955 QT
-35.268 3.346 -34.948 2.799 QT
-34.628 2.252 -34.096 1.932 QT
-33.565 1.611 -32.94 1.611 QT
-31.737 1.611 -31.034 2.439 QT
-30.534 1.658 L
-30.503 1.611 -30.456 1.611 QT
-30.378 1.611 L
-30.331 1.611 -30.299 1.642 QT
-30.268 1.674 -30.268 1.721 QT
-30.268 4.502 L
-30.268 4.611 -30.378 4.611 QT
-30.518 4.611 L
-30.628 4.611 -30.628 4.502 QT
-30.628 4.189 -30.729 3.83 QT
-30.831 3.471 -31.01 3.135 QT
-31.19 2.799 -31.409 2.596 QT
-31.987 2.002 -32.94 2.002 QT
-33.346 2.002 -33.69 2.213 QT
-34.034 2.424 -34.245 2.783 QT
-34.456 3.142 -34.456 3.533 QT
-34.456 4.049 -34.135 4.463 QT
-33.815 4.877 -33.299 5.017 QT
-31.737 5.392 L
-31.346 5.486 -31.003 5.728 QT
-30.659 5.971 -30.432 6.299 QT
-30.206 6.627 -30.081 7.017 QT
-29.956 7.408 -29.956 7.83 QT
-29.956 8.486 -30.253 9.064 QT
-30.549 9.642 -31.088 9.994 QT
-31.628 10.346 -32.284 10.346 QT
-32.674 10.346 -33.088 10.26 QT
-33.503 10.174 -33.854 9.986 QT
-34.206 9.799 -34.503 9.517 QT
-35.003 10.314 L
-35.034 10.346 -35.096 10.346 QT
-35.159 10.346 L
-35.268 10.346 -35.268 10.252 QT
cp
f
GR
GS
[1 0 0 1 220.00015 171] CT
0.149 GC
N
-26.289 10.221 M
-27.008 10.221 -27.601 9.838 QT
-28.195 9.455 -28.531 8.83 QT
-28.867 8.205 -28.867 7.486 QT
-28.867 6.783 -28.531 6.135 QT
-28.195 5.486 -27.601 5.096 QT
-27.008 4.705 -26.289 4.705 QT
-25.586 4.705 -25.008 4.978 QT
-24.43 5.252 -24.43 5.877 QT
-24.43 6.111 -24.594 6.283 QT
-24.758 6.455 -25.008 6.455 QT
-25.242 6.455 -25.406 6.283 QT
-25.57 6.111 -25.57 5.877 QT
-25.57 5.674 -25.437 5.517 QT
-25.305 5.361 -25.101 5.314 QT
-25.523 5.049 -26.273 5.049 QT
-26.851 5.049 -27.203 5.432 QT
-27.555 5.814 -27.695 6.377 QT
-27.836 6.939 -27.836 7.486 QT
-27.836 8.064 -27.664 8.611 QT
-27.492 9.158 -27.101 9.51 QT
-26.711 9.861 -26.133 9.861 QT
-25.57 9.861 -25.172 9.51 QT
-24.773 9.158 -24.633 8.596 QT
-24.633 8.533 -24.539 8.533 QT
-24.383 8.533 L
-24.351 8.533 -24.32 8.564 QT
-24.289 8.596 -24.289 8.642 QT
-24.289 8.674 L
-24.476 9.377 -25.016 9.799 QT
-25.555 10.221 -26.289 10.221 QT
cp
f
GR
GS
[1 0 0 1 220.00015 171] CT
0.149 GC
N
-23.456 8.908 M
-23.456 8.189 -22.893 7.736 QT
-22.331 7.283 -21.542 7.103 QT
-20.753 6.924 -20.049 6.924 QT
-20.049 6.424 L
-20.049 6.08 -20.198 5.76 QT
-20.346 5.439 -20.635 5.228 QT
-20.924 5.017 -21.268 5.017 QT
-22.065 5.017 -22.487 5.377 QT
-22.253 5.377 -22.104 5.549 QT
-21.956 5.721 -21.956 5.955 QT
-21.956 6.189 -22.128 6.361 QT
-22.299 6.533 -22.534 6.533 QT
-22.768 6.533 -22.94 6.361 QT
-23.112 6.189 -23.112 5.955 QT
-23.112 5.314 -22.542 5.01 QT
-21.971 4.705 -21.268 4.705 QT
-20.784 4.705 -20.292 4.908 QT
-19.799 5.111 -19.487 5.502 QT
-19.174 5.892 -19.174 6.408 QT
-19.174 9.111 L
-19.174 9.346 -19.073 9.541 QT
-18.971 9.736 -18.768 9.736 QT
-18.565 9.736 -18.471 9.533 QT
-18.378 9.33 -18.378 9.111 QT
-18.378 8.346 L
-18.018 8.346 L
-18.018 9.111 L
-18.018 9.377 -18.159 9.619 QT
-18.299 9.861 -18.542 10.01 QT
-18.784 10.158 -19.049 10.158 QT
-19.409 10.158 -19.659 9.885 QT
-19.909 9.611 -19.94 9.236 QT
-20.159 9.674 -20.596 9.947 QT
-21.034 10.221 -21.518 10.221 QT
-21.987 10.221 -22.424 10.08 QT
-22.862 9.939 -23.159 9.65 QT
-23.456 9.361 -23.456 8.908 QT
cp
-22.487 8.908 M
-22.487 9.33 -22.174 9.611 QT
-21.862 9.892 -21.44 9.892 QT
-21.049 9.892 -20.737 9.705 QT
-20.424 9.517 -20.237 9.182 QT
-20.049 8.846 -20.049 8.471 QT
-20.049 7.221 L
-20.596 7.221 -21.167 7.4 QT
-21.737 7.58 -22.112 7.963 QT
-22.487 8.346 -22.487 8.908 QT
cp
f
GR
GS
[1 0 0 1 220.00015 171] CT
0.149 GC
N
-17.565 10.08 M
-17.565 9.658 L
-17.159 9.658 -16.893 9.596 QT
-16.627 9.533 -16.627 9.283 QT
-16.627 2.971 L
-16.627 2.658 -16.729 2.51 QT
-16.831 2.361 -17.01 2.33 QT
-17.19 2.299 -17.565 2.299 QT
-17.565 1.877 L
-15.784 1.752 L
-15.784 9.283 L
-15.784 9.533 -15.526 9.596 QT
-15.268 9.658 -14.862 9.658 QT
-14.862 10.08 L
-17.565 10.08 L
cp
f
GR
GS
[1 0 0 1 220.00015 171] CT
0.149 GC
N
-11.622 10.221 M
-12.357 10.221 -12.966 9.83 QT
-13.575 9.439 -13.927 8.799 QT
-14.279 8.158 -14.279 7.455 QT
-14.279 6.752 -13.958 6.119 QT
-13.638 5.486 -13.068 5.096 QT
-12.497 4.705 -11.794 4.705 QT
-11.232 4.705 -10.825 4.885 QT
-10.419 5.064 -10.154 5.392 QT
-9.888 5.721 -9.755 6.166 QT
-9.622 6.611 -9.622 7.142 QT
-9.622 7.314 -9.747 7.314 QT
-13.216 7.314 L
-13.216 7.439 L
-13.216 8.439 -12.818 9.15 QT
-12.419 9.861 -11.513 9.861 QT
-11.138 9.861 -10.825 9.697 QT
-10.513 9.533 -10.286 9.244 QT
-10.06 8.955 -9.966 8.611 QT
-9.966 8.58 -9.927 8.541 QT
-9.888 8.502 -9.857 8.502 QT
-9.747 8.502 L
-9.622 8.502 -9.622 8.658 QT
-9.794 9.346 -10.357 9.783 QT
-10.919 10.221 -11.622 10.221 QT
cp
-13.216 7.002 M
-10.482 7.002 L
-10.482 6.564 -10.607 6.096 QT
-10.732 5.627 -11.021 5.322 QT
-11.31 5.017 -11.794 5.017 QT
-12.466 5.017 -12.841 5.65 QT
-13.216 6.283 -13.216 7.002 QT
cp
f
GR
GS
[1 0 0 1 220.00015 171] CT
0.149 GC
N
-4.898 10.08 M
-4.898 9.658 L
-3.664 9.658 -3.664 9.283 QT
-3.664 2.689 L
-3.664 2.299 -4.898 2.299 QT
-4.898 1.877 L
1.711 1.877 L
2.039 4.627 L
1.695 4.627 L
1.617 3.877 1.477 3.439 QT
1.336 3.002 1.078 2.752 QT
0.82 2.502 0.375 2.4 QT
-0.07 2.299 -0.836 2.299 QT
-1.945 2.299 L
-2.148 2.299 -2.273 2.322 QT
-2.398 2.346 -2.476 2.424 QT
-2.555 2.502 -2.555 2.689 QT
-2.555 5.767 L
-1.695 5.767 L
-1.086 5.767 -0.797 5.658 QT
-0.508 5.549 -0.398 5.267 QT
-0.289 4.986 -0.289 4.361 QT
0.055 4.361 L
0.055 7.596 L
-0.289 7.596 L
-0.289 6.986 -0.398 6.697 QT
-0.508 6.408 -0.797 6.299 QT
-1.086 6.189 -1.695 6.189 QT
-2.555 6.189 L
-2.555 9.283 L
-2.555 9.658 -1.008 9.658 QT
-1.008 10.08 L
-4.898 10.08 L
cp
f
GR
GS
[1 0 0 1 220.00015 171] CT
0.149 GC
N
2.044 8.908 M
2.044 8.189 2.607 7.736 QT
3.169 7.283 3.958 7.103 QT
4.748 6.924 5.451 6.924 QT
5.451 6.424 L
5.451 6.08 5.302 5.76 QT
5.154 5.439 4.865 5.228 QT
4.576 5.017 4.232 5.017 QT
3.435 5.017 3.013 5.377 QT
3.248 5.377 3.396 5.549 QT
3.544 5.721 3.544 5.955 QT
3.544 6.189 3.373 6.361 QT
3.201 6.533 2.966 6.533 QT
2.732 6.533 2.56 6.361 QT
2.388 6.189 2.388 5.955 QT
2.388 5.314 2.958 5.01 QT
3.529 4.705 4.232 4.705 QT
4.716 4.705 5.208 4.908 QT
5.701 5.111 6.013 5.502 QT
6.326 5.892 6.326 6.408 QT
6.326 9.111 L
6.326 9.346 6.427 9.541 QT
6.529 9.736 6.732 9.736 QT
6.935 9.736 7.029 9.533 QT
7.123 9.33 7.123 9.111 QT
7.123 8.346 L
7.482 8.346 L
7.482 9.111 L
7.482 9.377 7.341 9.619 QT
7.201 9.861 6.958 10.01 QT
6.716 10.158 6.451 10.158 QT
6.091 10.158 5.841 9.885 QT
5.591 9.611 5.56 9.236 QT
5.341 9.674 4.904 9.947 QT
4.466 10.221 3.982 10.221 QT
3.513 10.221 3.076 10.08 QT
2.638 9.939 2.341 9.65 QT
2.044 9.361 2.044 8.908 QT
cp
3.013 8.908 M
3.013 9.33 3.326 9.611 QT
3.638 9.892 4.06 9.892 QT
4.451 9.892 4.763 9.705 QT
5.076 9.517 5.263 9.182 QT
5.451 8.846 5.451 8.471 QT
5.451 7.221 L
4.904 7.221 4.333 7.4 QT
3.763 7.58 3.388 7.963 QT
3.013 8.346 3.013 8.908 QT
cp
f
GR
GS
[1 0 0 1 220.00015 171] CT
0.149 GC
N
10.544 10.221 M
9.826 10.221 9.232 9.838 QT
8.638 9.455 8.302 8.83 QT
7.966 8.205 7.966 7.486 QT
7.966 6.783 8.302 6.135 QT
8.638 5.486 9.232 5.096 QT
9.826 4.705 10.544 4.705 QT
11.248 4.705 11.826 4.978 QT
12.404 5.252 12.404 5.877 QT
12.404 6.111 12.24 6.283 QT
12.076 6.455 11.826 6.455 QT
11.591 6.455 11.427 6.283 QT
11.263 6.111 11.263 5.877 QT
11.263 5.674 11.396 5.517 QT
11.529 5.361 11.732 5.314 QT
11.31 5.049 10.56 5.049 QT
9.982 5.049 9.63 5.432 QT
9.279 5.814 9.138 6.377 QT
8.998 6.939 8.998 7.486 QT
8.998 8.064 9.169 8.611 QT
9.341 9.158 9.732 9.51 QT
10.123 9.861 10.701 9.861 QT
11.263 9.861 11.662 9.51 QT
12.06 9.158 12.201 8.596 QT
12.201 8.533 12.294 8.533 QT
12.451 8.533 L
12.482 8.533 12.513 8.564 QT
12.544 8.596 12.544 8.642 QT
12.544 8.674 L
12.357 9.377 11.818 9.799 QT
11.279 10.221 10.544 10.221 QT
cp
f
GR
GS
[1 0 0 1 220.00015 171] CT
0.149 GC
N
14.112 8.642 M
14.112 5.33 L
13.128 5.33 L
13.128 5.017 L
13.909 5.017 14.276 4.283 QT
14.643 3.549 14.643 2.689 QT
14.987 2.689 L
14.987 4.908 L
16.69 4.908 L
16.69 5.33 L
14.987 5.33 L
14.987 8.611 L
14.987 9.111 15.159 9.486 QT
15.331 9.861 15.753 9.861 QT
16.175 9.861 16.354 9.463 QT
16.534 9.064 16.534 8.611 QT
16.534 7.908 L
16.878 7.908 L
16.878 8.642 L
16.878 9.017 16.737 9.385 QT
16.596 9.752 16.331 9.986 QT
16.065 10.221 15.675 10.221 QT
14.956 10.221 14.534 9.783 QT
14.112 9.346 14.112 8.642 QT
cp
f
GR
GS
[1 0 0 1 220.00015 171] CT
0.149 GC
N
20.56 10.221 M
19.841 10.221 19.224 9.853 QT
18.607 9.486 18.248 8.869 QT
17.888 8.252 17.888 7.517 QT
17.888 6.971 18.091 6.463 QT
18.294 5.955 18.654 5.557 QT
19.013 5.158 19.505 4.932 QT
19.998 4.705 20.56 4.705 QT
21.294 4.705 21.904 5.096 QT
22.513 5.486 22.865 6.135 QT
23.216 6.783 23.216 7.517 QT
23.216 8.252 22.857 8.869 QT
22.498 9.486 21.888 9.853 QT
21.279 10.221 20.56 10.221 QT
cp
20.56 9.861 M
21.529 9.861 21.849 9.166 QT
22.169 8.471 22.169 7.392 QT
22.169 6.783 22.107 6.392 QT
22.044 6.002 21.826 5.674 QT
21.685 5.471 21.474 5.322 QT
21.263 5.174 21.037 5.096 QT
20.81 5.017 20.56 5.017 QT
20.185 5.017 19.849 5.189 QT
19.513 5.361 19.294 5.674 QT
19.06 6.017 19.005 6.424 QT
18.951 6.83 18.951 7.392 QT
18.951 8.064 19.068 8.603 QT
19.185 9.142 19.537 9.502 QT
19.888 9.861 20.56 9.861 QT
cp
f
GR
GS
[1 0 0 1 220.00015 171] CT
0.149 GC
N
23.873 10.08 M
23.873 9.658 L
24.279 9.658 24.544 9.596 QT
24.81 9.533 24.81 9.283 QT
24.81 6.002 L
24.81 5.674 24.716 5.533 QT
24.623 5.392 24.435 5.361 QT
24.248 5.33 23.873 5.33 QT
23.873 4.908 L
25.591 4.783 L
25.591 5.955 L
25.779 5.424 26.138 5.103 QT
26.498 4.783 27.013 4.783 QT
27.357 4.783 27.638 4.994 QT
27.919 5.205 27.919 5.549 QT
27.919 5.767 27.771 5.924 QT
27.623 6.08 27.388 6.08 QT
27.169 6.08 27.005 5.924 QT
26.841 5.767 26.841 5.549 QT
26.841 5.221 27.076 5.08 QT
27.013 5.08 L
26.513 5.08 26.209 5.432 QT
25.904 5.783 25.779 6.307 QT
25.654 6.83 25.654 7.314 QT
25.654 9.283 L
25.654 9.658 26.81 9.658 QT
26.81 10.08 L
23.873 10.08 L
cp
f
GR
GS
[1 0 0 1 220.00015 171] CT
0.149 GC
N
33.791 9.236 M
33.791 8.955 33.869 8.752 QT
34.823 6.158 L
34.994 5.705 34.994 5.392 QT
34.994 5.08 34.776 5.08 QT
34.026 5.08 33.651 6.674 QT
33.604 6.752 33.541 6.752 QT
33.323 6.752 L
33.229 6.752 33.229 6.627 QT
33.229 6.596 L
33.432 5.877 33.807 5.33 QT
34.182 4.783 34.791 4.783 QT
35.198 4.783 35.455 5.057 QT
35.713 5.33 35.713 5.752 QT
35.713 5.971 35.635 6.236 QT
34.682 8.814 L
34.51 9.283 34.51 9.58 QT
34.51 9.892 34.729 9.892 QT
35.463 9.892 35.854 8.314 QT
35.869 8.252 35.948 8.252 QT
36.166 8.252 L
36.213 8.252 36.244 8.283 QT
36.276 8.314 36.276 8.346 QT
36.276 8.361 36.26 8.392 QT
36.151 8.799 35.955 9.221 QT
35.76 9.642 35.44 9.932 QT
35.119 10.221 34.713 10.221 QT
34.307 10.221 34.049 9.939 QT
33.791 9.658 33.791 9.236 QT
cp
35.151 2.814 M
35.151 2.58 35.346 2.392 QT
35.541 2.205 35.776 2.205 QT
35.963 2.205 36.08 2.322 QT
36.198 2.439 36.198 2.611 QT
36.198 2.767 36.112 2.908 QT
36.026 3.049 35.877 3.142 QT
35.729 3.236 35.573 3.236 QT
35.401 3.236 35.276 3.111 QT
35.151 2.986 35.151 2.814 QT
cp
f
GR
GS
0.149 GC
2 setlinecap
1 LJ
0.5 LW
N
55 152 M
55 16 L
S
GR
GS
0.149 GC
2 setlinecap
1 LJ
0.5 LW
N
385 152 M
385 16 L
S
GR
GS
0.149 GC
2 setlinecap
1 LJ
0.5 LW
N
55 152 M
58.3 152 L
S
GR
GS
0.149 GC
2 setlinecap
1 LJ
0.5 LW
N
55 129.333 M
58.3 129.333 L
S
GR
GS
0.149 GC
2 setlinecap
1 LJ
0.5 LW
N
55 106.667 M
58.3 106.667 L
S
GR
GS
0.149 GC
2 setlinecap
1 LJ
0.5 LW
N
55 84 M
58.3 84 L
S
GR
GS
0.149 GC
2 setlinecap
1 LJ
0.5 LW
N
55 61.333 M
58.3 61.333 L
S
GR
GS
0.149 GC
2 setlinecap
1 LJ
0.5 LW
N
55 38.667 M
58.3 38.667 L
S
GR
GS
0.149 GC
2 setlinecap
1 LJ
0.5 LW
N
55 16 M
58.3 16 L
S
GR
GS
0.149 GC
2 setlinecap
1 LJ
0.5 LW
N
385 152 M
381.7 152 L
S
GR
GS
0.149 GC
2 setlinecap
1 LJ
0.5 LW
N
385 129.333 M
381.7 129.333 L
S
GR
GS
0.149 GC
2 setlinecap
1 LJ
0.5 LW
N
385 106.667 M
381.7 106.667 L
S
GR
GS
0.149 GC
2 setlinecap
1 LJ
0.5 LW
N
385 84 M
381.7 84 L
S
GR
GS
0.149 GC
2 setlinecap
1 LJ
0.5 LW
N
385 61.333 M
381.7 61.333 L
S
GR
GS
0.149 GC
2 setlinecap
1 LJ
0.5 LW
N
385 38.667 M
381.7 38.667 L
S
GR
GS
0.149 GC
2 setlinecap
1 LJ
0.5 LW
N
385 16 M
381.7 16 L
S
GR
GS
[1 0 0 1 51 152] CT
0.149 GC
/Helvetica 10 F
GS
[1 0 0 1 0 0] CT
-6 3.5 moveto 
1 -1 scale
(0) t 
GR
GR
GS
[1 0 0 1 51 129.33333] CT
0.149 GC
/Helvetica 10 F
GS
[1 0 0 1 0 0] CT
-6 3.5 moveto 
1 -1 scale
(2) t 
GR
GR
GS
[1 0 0 1 51 106.66666] CT
0.149 GC
/Helvetica 10 F
GS
[1 0 0 1 0 0] CT
-6 3.5 moveto 
1 -1 scale
(4) t 
GR
GR
GS
[1 0 0 1 51 84] CT
0.149 GC
/Helvetica 10 F
GS
[1 0 0 1 0 0] CT
-6 3.5 moveto 
1 -1 scale
(6) t 
GR
GR
GS
[1 0 0 1 51 61.33333] CT
0.149 GC
/Helvetica 10 F
GS
[1 0 0 1 0 0] CT
-6 3.5 moveto 
1 -1 scale
(8) t 
GR
GR
GS
[1 0 0 1 51 38.66667] CT
0.149 GC
/Helvetica 10 F
GS
[1 0 0 1 0 0] CT
-12 3.5 moveto 
1 -1 scale
(10) t 
GR
GR
GS
[1 0 0 1 51 16] CT
0.149 GC
/Helvetica 10 F
GS
[1 0 0 1 0 0] CT
-12 3.5 moveto 
1 -1 scale
(12) t 
GR
GR
GS
[0 -1 1 0 36 83.99993] CT
0.149 GC
/Helvetica 10 F
GS
[1 0 0 1 0 0] CT
-41 -3 moveto 
1 -1 scale
(Execution Time \(s\)) t 
GR
GR
GS
[1 0 0 1 55 13] CT
0.149 GC
N
1.469 -0.281 M
1.469 -0.359 1.516 -0.438 QT
3.594 -2.5 L
1.516 -4.578 L
1.469 -4.625 1.469 -4.719 QT
1.469 -4.781 1.531 -4.844 QT
1.594 -4.906 1.672 -4.906 QT
1.734 -4.906 1.828 -4.844 QT
3.891 -2.781 L
5.953 -4.844 L
6.031 -4.906 6.094 -4.906 QT
6.188 -4.906 6.242 -4.852 QT
6.297 -4.797 6.297 -4.719 QT
6.297 -4.625 6.25 -4.578 QT
4.172 -2.5 L
6.25 -0.438 L
6.297 -0.359 6.297 -0.281 QT
6.297 -0.203 6.242 -0.148 QT
6.188 -0.094 6.094 -0.094 QT
6.031 -0.094 5.953 -0.156 QT
3.891 -2.219 L
1.828 -0.156 L
1.75 -0.094 1.672 -0.094 QT
1.594 -0.094 1.531 -0.156 QT
1.469 -0.219 1.469 -0.281 QT
cp
f
GR
GS
[1 0 0 1 63 13] CT
0.149 GC
/Helvetica 10 F
GS
[1 0 0 1 0 0] CT
0 0 moveto 
1 -1 scale
(10) t 
GR
GR
GS
[1 0 0 1 75 8] CT
0.149 GC
/Helvetica 8 F
GS
[1 0 0 1 0 0] CT
0 0 moveto 
1 -1 scale
(4) t 
GR
GR
GS
1 GC
N
255 48 M
255 22 L
347 22 L
347 48 L
cp
f
GR
GS
[1 0 0 1 292 29.35849] CT
/Helvetica 9 F
GS
[1 0 0 1 0 0] CT
0 3.5 moveto 
1 -1 scale
(MOEA/D) t 
GR
GR
GS
1 1 0 RC
N
259 33.43 M
259 25.287 L
289 25.287 L
289 33.43 L
cp
f
GR
GS
10.0 ML
0.5 LW
N
259 33.43 M
259 25.287 L
289 25.287 L
289 33.43 L
cp
S
GR
GS
[1 0 0 1 292 40.64151] CT
/Helvetica 9 F
GS
[1 0 0 1 0 0] CT
0 3.5 moveto 
1 -1 scale
(MOEA/D-RS) t 
GR
GR
GS
0.576 0.439 0.859 RC
N
259 44.713 M
259 36.57 L
289 36.57 L
289 44.713 L
cp
f
GR
GS
10.0 ML
0.5 LW
N
259 44.713 M
259 36.57 L
289 36.57 L
289 44.713 L
cp
S
GR
GS
0.149 GC
10.0 ML
0.5 LW
N
255 48 M
255 22 L
347 22 L
347 48 L
cp
S
GR
%%Trailer
%%Pages: 1
%%EOF
