

Test Crossover begin

Mixers available: 11 (of 11)

results/OE 2 G 100 P 100 F 0.30 M 0.80 corssover: true mutation: false improve: false Elitism: false
[90, 168, 206]
now 10 generations
now 20 generations
now 30 generations
now 40 generations
now 50 generations
now 60 generations
now 70 generations
now 80 generations
now 90 generations
Optmisation took: 835.926 seconds
#front: 204 : uk.ac.york.safire.optimisation.ia.TestIAObjectiveFunction.testMOEAD_RS(TestIAObjectiveFunction.java:420)
results/OE 2 G 100 P 100 F 0.30 M 0.80 corssover: true mutation: false improve: false Elitism: false
855.0 100 130 124 104
1260.0 50 110 96 80
990.0 65 150 128 56
1230.0 145 140 120 8
900.0 115 105 92 80
1170.0 80 135 100 74
1290.0 80 135 148 50
1200.0 105 120 68 122
930.0 85 135 128 68
1140.0 135 120 76 44
1200.0 165 150 68 26
945.0 115 125 76 50
1200.0 120 65 128 62
960.0 140 160 96 32
1140.0 145 125 92 38
1050.0 145 80 100 68
1140.0 150 145 84 32
1020.0 85 125 84 98
930.0 145 135 60 44
1110.0 80 80 124 92
1200.0 160 135 100 20
900.0 160 125 80 68
840.0 160 115 108 68
900.0 130 110 116 50
1140.0 145 145 140 14
990.0 65 155 108 74
900.0 135 90 92 80
1020.0 200 115 136 20
855.0 135 110 100 68
1140.0 155 140 96 26
1020.0 100 120 92 74
1380.0 125 110 72 56
1080.0 165 110 84 26
1080.0 170 65 112 74
990.0 100 95 152 56
1170.0 90 120 72 74
1080.0 70 110 124 104
1260.0 130 115 80 44
1290.0 90 130 96 56
1350.0 105 130 84 56
1170.0 150 65 100 50
1080.0 165 60 132 92
1170.0 70 100 112 98
1020.0 90 140 84 80
1020.0 90 115 124 74
1560.0 165 85 116 14
1050.0 120 120 60 86
1020.0 105 155 96 32
1200.0 190 125 148 8
1110.0 175 65 116 26
1080.0 105 85 120 80
1020.0 155 80 92 68
1020.0 150 160 92 26
810.0 125 140 28 86
1050.0 150 170 44 62
885.0 115 120 104 74
1080.0 120 105 88 56
1080.0 125 110 52 80
1020.0 95 95 132 62
1230.0 100 130 144 20
1260.0 140 85 96 56
1290.0 120 130 84 26
990.0 125 125 56 68
1170.0 205 70 108 32
1170.0 85 115 120 74
1200.0 120 135 92 26
1140.0 80 150 76 62
1290.0 155 130 32 86
930.0 135 140 124 32
1080.0 90 100 96 68
1410.0 115 165 84 32
930.0 110 125 92 86
960.0 80 110 100 86
1020.0 215 185 60 38
1080.0 150 115 76 50
900.0 160 65 116 38
1260.0 95 115 120 32
1110.0 150 90 72 56
1020.0 160 130 156 20
1020.0 80 120 112 74
1050.0 135 110 48 86
1140.0 105 125 96 50
1230.0 145 65 124 86
990.0 135 75 84 74
930.0 115 120 128 50
960.0 155 110 132 26
1080.0 95 95 108 68
1020.0 150 140 80 38
1020.0 110 155 76 50
1110.0 100 75 120 80
1110.0 80 125 92 104
990.0 85 90 88 80
1020.0 125 195 72 44
1170.0 140 80 108 56
1200.0 140 85 124 20
1200.0 145 85 104 56
1170.0 120 165 48 86
1050.0 140 105 88 44
1020.0 145 170 84 32
900.0 120 90 96 68
1080.0 100 135 76 92
1080.0 165 165 44 50
1080.0 165 70 96 56
930.0 130 130 92 44
990.0 110 85 76 62
1350.0 145 105 72 50
1080.0 140 120 48 68
990.0 75 185 88 110
1320.0 105 105 84 92
1140.0 150 80 96 50
960.0 105 170 48 56
1170.0 140 95 84 56
1140.0 95 160 116 26
990.0 120 135 72 56
1020.0 110 100 64 116
990.0 125 165 100 26
1170.0 90 95 116 56
900.0 195 125 72 56
960.0 170 60 100 86
1065.0 145 70 124 92
930.0 155 85 64 32
1170.0 65 140 128 56
930.0 130 90 80 122
960.0 70 125 128 74
900.0 70 105 136 74
930.0 150 70 104 74
1050.0 185 80 104 50
930.0 125 120 76 98
1050.0 175 85 56 32
1110.0 95 75 108 98
1170.0 185 50 120 62
1020.0 130 140 132 32
1080.0 150 160 52 62
1200.0 115 100 56 74
960.0 95 130 88 38
975.0 105 115 120 68
1080.0 85 145 96 68
1080.0 145 165 88 26
1170.0 105 120 96 50
1020.0 165 110 60 56
1410.0 155 125 96 26
930.0 125 105 120 62
1095.0 60 175 156 56
1110.0 125 160 120 20
1260.0 75 145 120 56
1170.0 110 110 112 44
840.0 100 135 80 56
1050.0 105 160 68 104
1260.0 90 100 112 50
1320.0 80 100 96 74
1230.0 135 160 84 38
1080.0 115 155 84 44
885.0 75 145 100 104
900.0 125 115 88 56
1020.0 150 75 124 56
1200.0 100 75 88 110
930.0 100 100 104 92
1260.0 135 105 84 50
840.0 135 110 80 92
1080.0 110 115 92 56
900.0 120 140 140 50
990.0 110 135 64 62
960.0 70 135 120 74
1140.0 160 45 140 62
1260.0 130 80 132 38
900.0 115 95 92 86
1080.0 130 130 100 26
1080.0 110 70 68 68
1590.0 90 145 92 50
1230.0 80 120 128 68
1020.0 135 90 100 44
840.0 105 105 92 92
930.0 115 165 68 86
1065.0 150 110 124 26
930.0 105 150 76 62
1320.0 100 115 72 98
840.0 115 100 108 80
1110.0 105 120 104 56
930.0 135 125 76 50
1260.0 130 90 96 56
1140.0 125 130 88 32
1260.0 135 100 52 86
960.0 130 105 92 50
1200.0 165 165 76 20
960.0 120 60 108 116
1110.0 175 125 108 20
1170.0 115 95 100 56
990.0 90 120 108 38
1050.0 80 125 116 56
1125.0 115 110 144 38
1110.0 130 65 92 110
1230.0 165 140 136 2
990.0 120 100 108 56
1170.0 135 115 52 62
930.0 115 75 92 86
900.0 130 105 104 56
1380.0 110 115 76 38
1080.0 145 80 120 44
900.0 85 170 64 56
915.0 95 170 116 32
900.0 115 130 72 74
870.0 160 95 88 74
1170.0 220 65 68 116
1170.0 135 115 88 50


Average: 1076.25 Min: 810.00 Max: 1590.00
Average: 123.33 Min: 50.00 Max: 220.00
Average: 116.05 Min: 45.00 Max: 195.00
Average: 96.18 Min: 28.00 Max: 156.00
Average: 59.53 Min: 2.00 Max: 122.00
Average: 395.09 Min: 316.00 Max: 498.00 SUM.
Test prove MOEAD success! 

Mixers available: 11 (of 11)

results/OE 1 G 100 P 100 F 0.30 M 0.80
now 10 generations
now 20 generations
now 30 generations
now 40 generations
now 50 generations
now 60 generations
now 70 generations
now 80 generations
now 90 generations
Optmisation took: 820.393 seconds
#front: 198 : uk.ac.york.safire.optimisation.ia.TestIAObjectiveFunction.testMOEAD(TestIAObjectiveFunction.java:327)
results/OE 1 G 100 P 100 F 0.30 M 0.80
1050.0 130 100 56 92
1110.0 165 95 64 80
1020.0 85 75 80 116
870.0 160 110 92 56
870.0 110 125 96 50
1380.0 175 70 104 56
1170.0 165 80 80 74
1410.0 110 155 76 38
1410.0 120 110 56 98
1020.0 135 75 100 44
1020.0 135 145 124 26
960.0 195 105 92 50
990.0 165 60 64 104
900.0 115 45 120 92
960.0 195 95 80 56
1380.0 115 90 84 86
1080.0 160 130 76 38
1170.0 155 100 144 26
990.0 110 145 44 116
1050.0 125 70 120 50
1095.0 175 120 84 38
1290.0 130 65 112 56
960.0 190 180 52 62
1110.0 140 45 92 74
990.0 145 135 88 32
1020.0 155 100 72 62
1170.0 135 70 112 80
960.0 165 70 112 50
1530.0 90 80 148 62
1350.0 115 100 76 74
1080.0 175 110 88 38
1290.0 75 155 104 44
990.0 145 95 92 50
960.0 115 105 100 62
1410.0 115 105 96 44
1035.0 175 115 112 26
960.0 180 65 68 92
1350.0 125 90 80 98
1710.0 135 60 148 56
930.0 75 120 92 56
1170.0 160 90 84 74
1170.0 105 105 80 74
1110.0 165 90 96 56
1230.0 125 130 96 38
1065.0 180 55 88 50
1080.0 120 65 84 98
1260.0 135 80 88 86
990.0 160 90 88 80
1020.0 150 160 96 26
1230.0 170 105 76 56
900.0 80 115 100 104
1020.0 180 115 92 38
1140.0 140 40 104 92
1020.0 175 165 40 68
1110.0 55 100 128 104
960.0 95 75 92 110
1290.0 150 110 120 26
900.0 140 125 52 86
900.0 150 75 104 50
930.0 115 145 64 74
900.0 165 130 84 62
870.0 110 145 68 68
900.0 155 80 68 110
915.0 70 105 84 68
1440.0 170 60 80 68
1020.0 155 120 96 38
930.0 165 155 72 44
960.0 75 90 120 50
1080.0 110 95 88 68
960.0 75 130 64 86
1470.0 135 70 100 80
1170.0 125 160 124 14
960.0 110 155 56 86
1290.0 130 75 56 32
930.0 135 60 96 104
990.0 140 130 56 62
1140.0 140 100 60 80
900.0 90 110 88 86
1140.0 130 95 64 80
1080.0 140 180 116 20
870.0 190 85 56 80
990.0 95 105 100 38
1020.0 205 115 120 32
870.0 95 85 116 86
1200.0 160 85 128 32
915.0 140 125 100 38
1020.0 145 80 88 74
1110.0 225 100 56 74
1140.0 95 120 152 26
1050.0 105 70 80 104
1200.0 95 70 128 98
1170.0 115 115 52 80
1140.0 105 95 92 56
1155.0 175 90 112 14
930.0 185 140 72 68
960.0 165 90 96 68
930.0 150 90 92 86
990.0 120 60 96 86
1350.0 165 65 80 86
1080.0 165 95 80 56
1020.0 160 110 48 74
1290.0 155 115 112 20
1050.0 150 135 112 20
960.0 130 105 64 62
1260.0 140 80 88 62
1560.0 120 120 104 32
990.0 135 125 92 38
990.0 225 65 104 80
990.0 165 90 68 68
1140.0 140 145 104 20
840.0 135 135 72 80
990.0 160 125 84 26
885.0 130 125 92 56
960.0 100 40 116 62
1080.0 110 130 108 32
990.0 190 95 92 44
960.0 155 145 92 26
1230.0 65 175 152 50
1080.0 155 90 92 62
1620.0 150 140 48 50
990.0 150 185 124 14
1020.0 155 140 144 8
990.0 60 75 92 68
960.0 95 100 104 56
1050.0 95 145 48 68
990.0 85 120 96 44
1050.0 55 110 76 56
960.0 100 110 60 44
1110.0 110 125 112 26
1020.0 115 115 52 92
1500.0 170 115 132 8
1170.0 185 105 84 44
1200.0 170 80 60 86
1080.0 115 95 80 86
1260.0 135 65 76 104
1005.0 190 75 132 44
930.0 100 150 100 26
1050.0 120 80 164 50
1020.0 120 95 100 56
1200.0 140 165 36 62
1140.0 165 85 88 62
1470.0 115 60 104 80
1080.0 110 105 76 104
1350.0 125 105 72 62
930.0 170 120 56 80
945.0 135 100 100 56
930.0 110 100 84 98
1110.0 125 110 48 56
990.0 140 70 76 86
1200.0 135 170 108 20
1110.0 115 40 112 92
1290.0 100 100 80 104
960.0 110 90 88 116
1200.0 150 140 72 8
900.0 130 90 68 92
1110.0 140 100 92 56
1230.0 110 125 56 68
1020.0 125 155 56 56
1170.0 105 95 68 116
1140.0 140 85 64 92
1290.0 155 125 124 2
1170.0 160 55 88 80
900.0 80 125 140 86
1320.0 190 115 144 8
900.0 140 135 80 62
1410.0 150 160 40 110
1590.0 175 100 84 26
1170.0 105 75 144 50
1080.0 185 115 116 20
1080.0 115 100 100 38
1230.0 110 135 96 20
1140.0 150 85 72 86
930.0 135 75 124 50
930.0 155 55 120 68
1050.0 140 70 100 68
840.0 95 100 88 68
1230.0 95 105 76 110
915.0 135 70 112 110
1035.0 120 130 112 26
1140.0 140 105 80 56
1110.0 145 120 76 14
1140.0 80 100 88 80
1350.0 150 135 44 98
930.0 140 80 104 98
1020.0 175 65 80 98
1080.0 135 115 132 20
1020.0 165 100 44 80
900.0 105 85 104 38
1290.0 120 70 104 80
1020.0 135 150 64 32
1110.0 110 120 152 26
870.0 160 165 80 62
1260.0 155 90 76 50
915.0 155 140 100 26
900.0 115 105 60 80
990.0 130 145 80 38
1050.0 125 145 100 32
1170.0 165 100 120 26


Average: 1090.00 Min: 840.00 Max: 1710.00
Average: 135.53 Min: 55.00 Max: 225.00
Average: 104.92 Min: 40.00 Max: 185.00
Average: 90.51 Min: 36.00 Max: 164.00
Average: 61.18 Min: 2.00 Max: 116.00
Average: 392.14 Min: 293.00 Max: 484.00 SUM.
Test prove MOEAD success! 
Test Crossover ends
Test Mutation begin

Mixers available: 11 (of 11)

results/OE 2 G 100 P 100 F 0.30 M 0.80 corssover: false mutation: true improve: false Elitism: false
[90, 168, 206]
now 10 generations
now 20 generations
now 30 generations
now 40 generations
now 50 generations
now 60 generations
now 70 generations
now 80 generations
now 90 generations
Optmisation took: 808.393 seconds
#front: 122 : uk.ac.york.safire.optimisation.ia.TestIAObjectiveFunction.testMOEAD_RS(TestIAObjectiveFunction.java:420)
results/OE 2 G 100 P 100 F 0.30 M 0.80 corssover: false mutation: true improve: false Elitism: false
690.0 20 10 44 2
570.0 20 40 0 8
510.0 40 65 0 20
600.0 50 35 0 50
540.0 10 55 0 14
600.0 15 65 20 2
585.0 0 70 24 2
480.0 65 20 0 50
570.0 10 35 28 2
690.0 20 5 0 68
600.0 10 40 0 44
465.0 0 105 20 8
615.0 30 15 40 2
480.0 20 15 24 8
810.0 45 0 44 8
630.0 15 25 12 8
570.0 25 0 28 20
570.0 55 5 32 8
525.0 70 15 16 2
480.0 60 35 8 26
720.0 0 55 32 2
750.0 5 0 16 26
840.0 35 15 4 8
540.0 65 0 32 26
510.0 10 10 8 14
870.0 30 15 0 8
690.0 30 20 32 2
450.0 35 10 20 14
555.0 80 10 28 2
780.0 0 10 24 14
465.0 10 30 24 26
570.0 35 50 8 2
570.0 0 25 24 38
570.0 65 0 28 8
600.0 0 5 32 32
480.0 45 15 0 160
660.0 50 10 40 2
465.0 40 15 16 38
495.0 30 0 8 32
660.0 20 5 44 8
900.0 80 0 8 26
540.0 5 10 60 50
525.0 55 40 4 2
600.0 95 5 12 20
480.0 50 15 12 44
570.0 55 10 4 2
630.0 60 5 24 8
555.0 55 15 0 44
570.0 5 70 60 2
585.0 85 0 16 14
630.0 45 25 0 56
690.0 45 10 24 8
540.0 5 15 16 8
630.0 45 30 8 8
720.0 90 0 8 14
840.0 35 5 44 2
570.0 80 20 0 2
585.0 25 30 4 26
570.0 40 15 24 2
510.0 50 45 16 2
540.0 5 15 4 32
585.0 5 75 8 14
495.0 5 20 24 20
675.0 35 10 28 8
510.0 10 0 40 20
630.0 0 20 20 26
495.0 45 20 4 14
540.0 50 40 0 56
525.0 30 5 4 44
540.0 0 50 24 8
900.0 0 50 4 8
570.0 95 0 16 26
570.0 30 35 4 20
810.0 40 20 4 20
630.0 5 40 8 2
540.0 45 5 52 2
480.0 15 40 20 14
630.0 35 20 20 2
480.0 10 45 12 74
750.0 40 20 0 38
660.0 35 35 4 2
660.0 35 0 20 20
990.0 40 0 44 8
525.0 0 70 4 44
690.0 25 15 36 2
510.0 25 30 4 50
540.0 0 15 28 8
525.0 15 50 32 2
480.0 30 20 16 50
510.0 10 5 16 14
690.0 5 0 48 68
660.0 40 5 40 8
510.0 55 0 36 14
750.0 0 85 8 38
750.0 40 0 40 14
495.0 10 15 40 8
600.0 55 10 0 8
495.0 70 0 20 20
495.0 10 30 16 8
600.0 20 0 48 2
450.0 0 35 16 20
510.0 20 20 36 2
660.0 10 0 60 8
480.0 5 30 40 44
480.0 10 70 0 2
690.0 20 20 12 8
675.0 0 50 12 20
510.0 50 25 20 8
840.0 0 45 12 2
525.0 25 40 4 20
465.0 75 25 4 8
600.0 0 30 36 2
510.0 45 50 12 8
600.0 20 65 16 2
675.0 0 0 68 38
540.0 65 10 28 8
930.0 35 25 16 2
525.0 25 45 12 2
750.0 5 15 52 2
495.0 5 45 16 8
630.0 20 0 28 44
510.0 60 15 0 44


Average: 599.51 Min: 450.00 Max: 990.00
Average: 30.20 Min: 0.00 Max: 95.00
Average: 23.73 Min: 0.00 Max: 105.00
Average: 19.67 Min: 0.00 Max: 68.00
Average: 18.79 Min: 2.00 Max: 160.00
Average: 92.39 Min: 42.00 Max: 220.00 SUM.
Test prove MOEAD success! 

Mixers available: 11 (of 11)

results/OE 1 G 100 P 100 F 0.30 M 0.80
now 10 generations
now 20 generations
now 30 generations
now 40 generations
now 50 generations
now 60 generations
now 70 generations
now 80 generations
now 90 generations
Optmisation took: 878.208 seconds
#front: 203 : uk.ac.york.safire.optimisation.ia.TestIAObjectiveFunction.testMOEAD(TestIAObjectiveFunction.java:327)
results/OE 1 G 100 P 100 F 0.30 M 0.80
1050.0 130 100 56 92
1110.0 165 95 64 80
1020.0 85 75 80 116
870.0 160 110 92 56
870.0 110 125 96 50
1380.0 175 70 104 56
1170.0 165 80 80 74
1410.0 110 155 76 38
1410.0 120 110 56 98
1020.0 135 75 100 44
1020.0 135 145 124 26
960.0 195 105 92 50
990.0 165 60 64 104
900.0 115 45 120 92
960.0 195 95 80 56
1380.0 115 90 84 86
1080.0 160 130 76 38
1170.0 155 100 144 26
990.0 110 145 44 116
1050.0 125 70 120 50
1095.0 175 120 84 38
1290.0 130 65 112 56
960.0 190 180 52 62
1110.0 140 45 92 74
990.0 145 135 88 32
1020.0 155 100 72 62
1170.0 135 70 112 80
960.0 165 70 112 50
1530.0 90 80 148 62
1350.0 115 100 76 74
1080.0 175 110 88 38
1290.0 75 155 104 44
990.0 145 95 92 50
960.0 115 105 100 62
1410.0 115 105 96 44
1035.0 175 115 112 26
960.0 180 65 68 92
1350.0 125 90 80 98
1710.0 135 60 148 56
930.0 75 120 92 56
1170.0 160 90 84 74
1170.0 105 105 80 74
1110.0 165 90 96 56
1230.0 125 130 96 38
1065.0 180 55 88 50
1080.0 120 65 84 98
1260.0 135 80 88 86
990.0 160 90 88 80
1020.0 150 160 96 26
1230.0 170 105 76 56
900.0 80 115 100 104
1020.0 180 115 92 38
1140.0 140 40 104 92
1020.0 175 165 40 68
1110.0 55 100 128 104
960.0 95 75 92 110
1290.0 150 110 120 26
900.0 140 125 52 86
900.0 150 75 104 50
930.0 115 145 64 74
900.0 165 130 84 62
870.0 110 145 68 68
900.0 155 80 68 110
915.0 70 105 84 68
1440.0 170 60 80 68
1020.0 155 120 96 38
930.0 165 155 72 44
960.0 75 90 120 50
1080.0 110 95 88 68
960.0 75 130 64 86
1470.0 135 70 100 80
1170.0 125 160 124 14
960.0 110 155 56 86
1290.0 130 75 56 32
930.0 135 60 96 104
990.0 140 130 56 62
1140.0 140 100 60 80
900.0 90 110 88 86
1140.0 130 95 64 80
1080.0 140 180 116 20
870.0 190 85 56 80
990.0 95 105 100 38
1020.0 205 115 120 32
870.0 95 85 116 86
1200.0 160 85 128 32
915.0 140 125 100 38
1020.0 145 80 88 74
1110.0 225 100 56 74
1140.0 95 120 152 26
1050.0 105 70 80 104
1200.0 95 70 128 98
1260.0 170 110 92 32
1290.0 125 90 84 92
1170.0 115 115 52 80
1140.0 105 95 92 56
1155.0 175 90 112 14
930.0 185 140 72 68
960.0 165 90 96 68
885.0 135 95 112 92
930.0 150 90 92 86
990.0 120 60 96 86
1350.0 165 65 80 86
1080.0 165 95 80 56
1020.0 160 110 48 74
1290.0 155 115 112 20
1050.0 150 135 112 20
960.0 130 105 64 62
1260.0 140 80 88 62
1560.0 120 120 104 32
990.0 135 125 92 38
990.0 225 65 104 80
990.0 165 90 68 68
1140.0 140 145 104 20
840.0 135 135 72 80
990.0 160 125 84 26
885.0 130 125 92 56
960.0 100 40 116 62
1080.0 110 130 108 32
990.0 190 95 92 44
960.0 155 145 92 26
1230.0 65 175 152 50
1080.0 155 90 92 62
1620.0 150 140 48 50
990.0 150 185 124 14
1020.0 155 140 144 8
990.0 60 75 92 68
960.0 95 100 104 56
1050.0 95 145 48 68
990.0 85 120 96 44
1050.0 55 110 76 56
960.0 100 110 60 44
1110.0 110 125 112 26
1020.0 115 115 52 92
1500.0 170 115 132 8
1170.0 185 105 84 44
1200.0 170 80 60 86
1080.0 115 95 80 86
1260.0 135 65 76 104
1005.0 190 75 132 44
930.0 100 150 100 26
1050.0 120 80 164 50
1020.0 120 95 100 56
1200.0 140 165 36 62
1140.0 165 85 88 62
1470.0 115 60 104 80
1080.0 110 105 76 104
1350.0 125 105 72 62
930.0 170 120 56 80
945.0 135 100 100 56
930.0 110 100 84 98
1110.0 125 110 48 56
990.0 140 70 76 86
1200.0 135 170 108 20
1110.0 115 40 112 92
1290.0 100 100 80 104
960.0 110 90 88 116
1200.0 150 140 72 8
900.0 130 90 68 92
1110.0 140 100 92 56
1230.0 110 125 56 68
1020.0 125 155 56 56
1170.0 105 95 68 116
1140.0 140 85 64 92
1290.0 155 125 124 2
1170.0 160 55 88 80
900.0 80 125 140 86
1320.0 190 115 144 8
900.0 140 135 80 62
1410.0 150 160 40 110
1590.0 175 100 84 26
1170.0 105 75 144 50
1080.0 185 115 116 20
1080.0 115 100 100 38
1230.0 110 135 96 20
1140.0 150 85 72 86
930.0 135 75 124 50
930.0 155 55 120 68
1050.0 140 70 100 68
840.0 95 100 88 68
1230.0 95 105 76 110
915.0 135 70 112 110
1035.0 120 130 112 26
1140.0 140 105 80 56
1110.0 145 120 76 14
1140.0 80 100 88 80
1350.0 150 135 44 98
930.0 140 80 104 98
1020.0 175 65 80 98
1080.0 135 115 132 20
1020.0 165 100 44 80
960.0 215 65 112 68
1200.0 185 130 64 38
900.0 105 85 104 38
1290.0 120 70 104 80
1020.0 135 150 64 32
1110.0 110 120 152 26
870.0 160 165 80 62
1260.0 155 90 76 50
915.0 155 140 100 26
900.0 115 105 60 80
990.0 130 145 80 38
1050.0 125 145 100 32
1170.0 165 100 120 26


Average: 1090.71 Min: 840.00 Max: 1710.00
Average: 136.28 Min: 55.00 Max: 225.00
Average: 104.75 Min: 40.00 Max: 185.00
Average: 90.56 Min: 36.00 Max: 164.00
Average: 61.26 Min: 2.00 Max: 116.00
Average: 392.86 Min: 293.00 Max: 484.00 SUM.
Test prove MOEAD success! 
Test Mutation ends
Test improve begin

Mixers available: 11 (of 11)

results/OE 2 G 100 P 100 F 0.30 M 0.80 corssover: false mutation: false improve: true Elitism: false
[90, 168, 206]
now 10 generations
now 20 generations
now 30 generations
now 40 generations
now 50 generations
now 60 generations
now 70 generations
now 80 generations
now 90 generations
Optmisation took: 39917.416 seconds
#front: 162 : uk.ac.york.safire.optimisation.ia.TestIAObjectiveFunction.testMOEAD_RS(TestIAObjectiveFunction.java:420)
results/OE 2 G 100 P 100 F 0.30 M 0.80 corssover: false mutation: false improve: true Elitism: false
1110.0 120 145 140 14
840.0 110 130 100 44
930.0 90 85 104 116
960.0 180 105 72 50
1170.0 165 50 112 98
960.0 210 145 36 62
1170.0 35 135 124 92
1290.0 130 155 124 8
930.0 95 120 76 74
870.0 170 90 72 92
930.0 155 75 80 44
930.0 200 105 68 50
930.0 95 85 100 68
930.0 115 75 96 74
1080.0 100 100 112 56
930.0 120 115 56 56
960.0 100 105 104 62
840.0 125 115 84 38
1050.0 85 140 88 80
1080.0 120 140 88 20
900.0 110 125 112 32
960.0 120 145 84 26
1080.0 120 75 100 44
1110.0 165 125 76 20
930.0 95 140 72 86
1170.0 140 130 84 26
990.0 80 110 132 92
1005.0 95 130 152 44
1080.0 145 155 52 50
930.0 60 160 112 68
1110.0 160 150 112 8
1080.0 165 55 104 92
1080.0 95 150 92 50
1230.0 180 75 64 74
930.0 170 110 80 26
900.0 155 105 104 50
930.0 105 120 116 38
1110.0 165 50 120 74
1110.0 95 135 96 62
960.0 95 145 112 38
915.0 160 120 80 26
1020.0 100 155 136 20
960.0 85 105 120 86
960.0 130 65 92 74
930.0 100 70 128 74
1170.0 110 170 84 20
780.0 90 90 80 74
900.0 130 110 72 68
990.0 50 155 104 104
930.0 85 130 132 50
1050.0 170 105 132 8
870.0 105 80 104 74
1020.0 75 125 60 110
930.0 115 115 64 50
900.0 150 90 72 80
1020.0 80 185 76 74
1320.0 175 165 108 8
870.0 115 155 76 32
930.0 85 110 100 134
930.0 215 130 104 14
1200.0 95 165 68 92
1170.0 105 50 128 98
900.0 110 140 64 62
1170.0 190 70 104 50
960.0 180 190 116 14
975.0 170 65 108 68
930.0 190 80 116 14
975.0 110 150 112 14
840.0 95 80 104 110
960.0 95 135 136 26
795.0 155 120 68 56
840.0 205 80 56 98
1020.0 80 90 124 98
1080.0 115 105 52 74
1020.0 70 105 104 80
1260.0 80 120 92 62
810.0 115 60 112 38
870.0 140 115 72 56
840.0 115 145 64 50
780.0 165 90 108 44
960.0 110 110 132 20
840.0 135 110 76 68
840.0 145 85 108 68
1020.0 140 50 124 104
1200.0 180 65 104 68
900.0 80 115 128 62
1290.0 90 165 124 44
1350.0 110 100 136 50
870.0 110 70 104 62
855.0 150 70 84 104
810.0 185 100 76 56
1380.0 150 50 112 68
750.0 175 100 40 86
1020.0 150 105 88 32
900.0 100 140 104 26
900.0 105 85 112 62
960.0 90 105 108 56
1260.0 130 65 84 74
1050.0 215 45 108 80
1200.0 75 130 76 98
870.0 120 75 76 62
1170.0 85 95 108 62
840.0 70 115 112 68
870.0 110 85 100 74
990.0 170 95 76 56
1140.0 90 175 72 104
840.0 180 90 88 56
1290.0 115 100 56 74
810.0 100 155 108 56
1200.0 65 115 92 92
1020.0 125 55 128 74
840.0 145 105 84 68
960.0 145 80 104 50
930.0 115 80 80 74
1200.0 185 95 156 8
1260.0 70 110 100 56
960.0 100 110 56 32
930.0 60 125 112 110
990.0 90 135 100 62
1200.0 95 170 88 68
870.0 100 125 92 44
930.0 160 130 32 92
1140.0 55 140 104 92
900.0 135 135 72 38
900.0 150 70 80 80
930.0 115 85 92 20
750.0 125 100 44 110
780.0 105 110 48 74
1050.0 135 90 72 68
990.0 180 85 68 50
990.0 105 90 96 62
1110.0 85 95 136 74
840.0 50 195 68 86
840.0 130 135 64 44
900.0 65 125 92 68
930.0 160 140 44 50
930.0 110 110 124 44
1320.0 160 55 112 86
900.0 100 115 72 56
1020.0 210 60 108 56
840.0 135 95 108 68
900.0 65 115 132 92
930.0 140 85 44 62
1230.0 185 95 48 38
870.0 185 75 56 62
810.0 140 135 72 62
825.0 105 70 112 92
1110.0 80 100 116 80
1110.0 180 40 124 44
900.0 135 70 88 86
945.0 125 135 68 26
930.0 80 155 112 50
1260.0 95 185 72 74
1200.0 175 70 96 44
1260.0 95 135 84 56
840.0 165 95 84 44
1080.0 140 125 128 14
1050.0 110 90 80 62
1170.0 140 95 64 50
900.0 55 145 124 86
960.0 135 90 64 92
1020.0 150 120 116 14


Average: 994.44 Min: 750.00 Max: 1380.00
Average: 123.77 Min: 35.00 Max: 215.00
Average: 109.44 Min: 40.00 Max: 195.00
Average: 93.70 Min: 32.00 Max: 156.00
Average: 60.30 Min: 8.00 Max: 134.00
Average: 387.21 Min: 298.00 Max: 500.00 SUM.
Test prove MOEAD success! 

Mixers available: 11 (of 11)

results/OE 1 G 100 P 100 F 0.30 M 0.80
now 10 generations
now 20 generations
now 30 generations
now 40 generations
now 50 generations
now 60 generations
now 70 generations
now 80 generations
now 90 generations
Optmisation took: 852.171 seconds
#front: 207 : uk.ac.york.safire.optimisation.ia.TestIAObjectiveFunction.testMOEAD(TestIAObjectiveFunction.java:327)
results/OE 1 G 100 P 100 F 0.30 M 0.80
1050.0 130 100 56 92
1110.0 165 95 64 80
1020.0 85 75 80 116
870.0 160 110 92 56
870.0 110 125 96 50
1380.0 175 70 104 56
1170.0 165 80 80 74
1410.0 110 155 76 38
1410.0 120 110 56 98
1020.0 135 75 100 44
1020.0 135 145 124 26
960.0 195 105 92 50
990.0 165 60 64 104
900.0 115 45 120 92
960.0 195 95 80 56
1380.0 115 90 84 86
1080.0 160 130 76 38
1170.0 155 100 144 26
990.0 110 145 44 116
1050.0 125 70 120 50
1095.0 175 120 84 38
1290.0 130 65 112 56
960.0 190 180 52 62
1110.0 140 45 92 74
990.0 145 135 88 32
1020.0 155 100 72 62
1170.0 135 70 112 80
960.0 165 70 112 50
1530.0 90 80 148 62
1350.0 115 100 76 74
1080.0 175 110 88 38
1290.0 75 155 104 44
990.0 145 95 92 50
960.0 115 105 100 62
1410.0 115 105 96 44
1035.0 175 115 112 26
960.0 180 65 68 92
1350.0 125 90 80 98
1710.0 135 60 148 56
930.0 75 120 92 56
1170.0 160 90 84 74
1170.0 105 105 80 74
1110.0 165 90 96 56
1230.0 125 130 96 38
1065.0 180 55 88 50
1080.0 120 65 84 98
1260.0 135 80 88 86
990.0 160 90 88 80
1020.0 150 160 96 26
1230.0 170 105 76 56
900.0 80 115 100 104
1020.0 180 115 92 38
1140.0 140 40 104 92
1020.0 175 165 40 68
1110.0 55 100 128 104
960.0 95 75 92 110
1290.0 150 110 120 26
900.0 140 125 52 86
900.0 150 75 104 50
930.0 115 145 64 74
900.0 165 130 84 62
1050.0 155 120 112 32
870.0 110 145 68 68
900.0 155 80 68 110
915.0 70 105 84 68
1440.0 170 60 80 68
1020.0 155 120 96 38
930.0 165 155 72 44
960.0 75 90 120 50
1080.0 110 95 88 68
960.0 75 130 64 86
1470.0 135 70 100 80
1170.0 125 160 124 14
960.0 110 155 56 86
1290.0 130 75 56 32
930.0 135 60 96 104
990.0 140 130 56 62
1140.0 140 100 60 80
900.0 90 110 88 86
1140.0 130 95 64 80
1080.0 140 180 116 20
870.0 190 85 56 80
990.0 95 105 100 38
1020.0 205 115 120 32
870.0 95 85 116 86
1200.0 160 85 128 32
915.0 140 125 100 38
1020.0 145 80 88 74
1110.0 225 100 56 74
1140.0 95 120 152 26
1050.0 105 70 80 104
1200.0 95 70 128 98
1260.0 170 110 92 32
1290.0 125 90 84 92
1170.0 115 115 52 80
1140.0 105 95 92 56
1155.0 175 90 112 14
930.0 185 140 72 68
960.0 165 90 96 68
885.0 135 95 112 92
930.0 150 90 92 86
1500.0 130 70 92 74
1140.0 150 105 84 50
990.0 120 60 96 86
1350.0 165 65 80 86
1080.0 165 95 80 56
1020.0 160 110 48 74
1290.0 155 115 112 20
1050.0 150 135 112 20
960.0 130 105 64 62
1260.0 140 80 88 62
1560.0 120 120 104 32
990.0 135 125 92 38
990.0 225 65 104 80
990.0 165 90 68 68
1140.0 140 145 104 20
840.0 135 135 72 80
990.0 160 125 84 26
885.0 130 125 92 56
960.0 100 40 116 62
1080.0 110 130 108 32
990.0 190 95 92 44
960.0 155 145 92 26
1230.0 65 175 152 50
1080.0 155 90 92 62
1620.0 150 140 48 50
990.0 150 185 124 14
1020.0 155 140 144 8
990.0 60 75 92 68
960.0 95 100 104 56
1050.0 95 145 48 68
990.0 85 120 96 44
1050.0 55 110 76 56
960.0 100 110 60 44
1110.0 110 125 112 26
1020.0 115 115 52 92
1500.0 170 115 132 8
1170.0 185 105 84 44
1200.0 170 80 60 86
1080.0 115 95 80 86
1260.0 135 65 76 104
1005.0 190 75 132 44
930.0 100 150 100 26
1050.0 120 80 164 50
1020.0 120 95 100 56
1200.0 140 165 36 62
1140.0 165 85 88 62
1470.0 115 60 104 80
1080.0 110 105 76 104
1350.0 125 105 72 62
930.0 170 120 56 80
945.0 135 100 100 56
930.0 110 100 84 98
1110.0 125 110 48 56
990.0 140 70 76 86
1200.0 135 170 108 20
1110.0 115 40 112 92
1290.0 100 100 80 104
960.0 110 90 88 116
1200.0 150 140 72 8
900.0 130 90 68 92
1110.0 140 100 92 56
1230.0 110 125 56 68
1020.0 125 155 56 56
1170.0 105 95 68 116
1140.0 140 85 64 92
1290.0 155 125 124 2
1170.0 160 55 88 80
900.0 80 125 140 86
1320.0 190 115 144 8
900.0 140 135 80 62
1410.0 150 160 40 110
1590.0 175 100 84 26
1170.0 105 75 144 50
1080.0 185 115 116 20
1080.0 115 100 100 38
1230.0 110 135 96 20
1140.0 150 85 72 86
930.0 135 75 124 50
930.0 155 55 120 68
1050.0 140 70 100 68
840.0 95 100 88 68
1230.0 95 105 76 110
915.0 135 70 112 110
1035.0 120 130 112 26
1140.0 140 105 80 56
1110.0 145 120 76 14
1140.0 80 100 88 80
1350.0 150 135 44 98
930.0 140 80 104 98
1020.0 175 65 80 98
1080.0 135 115 132 20
1020.0 165 100 44 80
960.0 215 65 112 68
1200.0 185 130 64 38
1080.0 70 85 128 62
900.0 105 85 104 38
1290.0 120 70 104 80
1020.0 135 150 64 32
1110.0 110 120 152 26
870.0 160 165 80 62
1260.0 155 90 76 50
915.0 155 140 100 26
900.0 115 105 60 80
990.0 130 145 80 38
1050.0 125 145 100 32
1170.0 165 100 120 26


Average: 1092.68 Min: 840.00 Max: 1710.00
Average: 136.09 Min: 55.00 Max: 225.00
Average: 104.57 Min: 40.00 Max: 185.00
Average: 90.82 Min: 36.00 Max: 164.00
Average: 61.13 Min: 2.00 Max: 116.00
Average: 392.60 Min: 293.00 Max: 484.00 SUM.
Test prove MOEAD success! 
Test improve ends
Test Elitism begin

Mixers available: 11 (of 11)

results/OE 2 G 100 P 100 F 0.30 M 0.80 corssover: false mutation: false improve: false Elitism: true
[90, 168, 206]
now 10 generations
now 20 generations
now 30 generations
now 40 generations
now 50 generations
now 60 generations
now 70 generations
now 80 generations
now 90 generations
Optmisation took: 861.449 seconds
#front: 5 : uk.ac.york.safire.optimisation.ia.TestIAObjectiveFunction.testMOEAD_RS(TestIAObjectiveFunction.java:420)
results/OE 2 G 100 P 100 F 0.30 M 0.80 corssover: false mutation: false improve: false Elitism: true
810.0 150 100 92 68
840.0 50 60 48 20
825.0 60 125 136 62
870.0 50 40 32 8
900.0 50 40 32 2


Average: 849.00 Min: 810.00 Max: 900.00
Average: 72.00 Min: 50.00 Max: 150.00
Average: 73.00 Min: 40.00 Max: 125.00
Average: 68.00 Min: 32.00 Max: 136.00
Average: 32.00 Min: 2.00 Max: 68.00
Average: 245.00 Min: 124.00 Max: 410.00 SUM.
Test prove MOEAD success! 

Mixers available: 11 (of 11)

results/OE 1 G 100 P 100 F 0.30 M 0.80
now 10 generations
now 20 generations
now 30 generations
now 40 generations
now 50 generations
now 60 generations
now 70 generations
now 80 generations
now 90 generations
Optmisation took: 850.534 seconds
#front: 208 : uk.ac.york.safire.optimisation.ia.TestIAObjectiveFunction.testMOEAD(TestIAObjectiveFunction.java:327)
results/OE 1 G 100 P 100 F 0.30 M 0.80
1050.0 130 100 56 92
1110.0 165 95 64 80
1020.0 85 75 80 116
870.0 160 110 92 56
870.0 110 125 96 50
1380.0 175 70 104 56
1170.0 165 80 80 74
1410.0 110 155 76 38
1410.0 120 110 56 98
1020.0 135 75 100 44
1020.0 135 145 124 26
960.0 195 105 92 50
990.0 165 60 64 104
900.0 115 45 120 92
960.0 195 95 80 56
1380.0 115 90 84 86
1080.0 160 130 76 38
1170.0 155 100 144 26
990.0 110 145 44 116
1050.0 125 70 120 50
1095.0 175 120 84 38
1290.0 130 65 112 56
960.0 190 180 52 62
1110.0 140 45 92 74
990.0 145 135 88 32
1020.0 155 100 72 62
1170.0 135 70 112 80
960.0 165 70 112 50
1530.0 90 80 148 62
1350.0 115 100 76 74
1080.0 175 110 88 38
1290.0 75 155 104 44
990.0 145 95 92 50
960.0 115 105 100 62
1410.0 115 105 96 44
1035.0 175 115 112 26
960.0 180 65 68 92
1350.0 125 90 80 98
1710.0 135 60 148 56
930.0 75 120 92 56
1170.0 160 90 84 74
1170.0 105 105 80 74
1110.0 165 90 96 56
1230.0 125 130 96 38
1065.0 180 55 88 50
1080.0 120 65 84 98
1260.0 135 80 88 86
990.0 160 90 88 80
1020.0 150 160 96 26
1230.0 170 105 76 56
900.0 80 115 100 104
1020.0 180 115 92 38
1140.0 140 40 104 92
1020.0 175 165 40 68
1110.0 55 100 128 104
960.0 95 75 92 110
1290.0 150 110 120 26
900.0 140 125 52 86
900.0 150 75 104 50
930.0 115 145 64 74
900.0 165 130 84 62
1050.0 155 120 112 32
870.0 110 145 68 68
900.0 155 80 68 110
915.0 70 105 84 68
1440.0 170 60 80 68
1020.0 155 120 96 38
930.0 165 155 72 44
960.0 75 90 120 50
1080.0 110 95 88 68
960.0 75 130 64 86
1470.0 135 70 100 80
1170.0 125 160 124 14
960.0 110 155 56 86
1290.0 130 75 56 32
930.0 135 60 96 104
990.0 140 130 56 62
1140.0 140 100 60 80
900.0 90 110 88 86
1140.0 130 95 64 80
1080.0 140 180 116 20
870.0 190 85 56 80
990.0 95 105 100 38
1020.0 205 115 120 32
870.0 95 85 116 86
1200.0 160 85 128 32
915.0 140 125 100 38
1020.0 145 80 88 74
1110.0 225 100 56 74
1140.0 95 120 152 26
1050.0 105 70 80 104
1200.0 95 70 128 98
1260.0 170 110 92 32
1290.0 125 90 84 92
1170.0 115 115 52 80
1140.0 105 95 92 56
1155.0 175 90 112 14
930.0 185 140 72 68
960.0 165 90 96 68
885.0 135 95 112 92
930.0 150 90 92 86
1500.0 130 70 92 74
1140.0 150 105 84 50
990.0 120 60 96 86
1350.0 165 65 80 86
1080.0 165 95 80 56
1020.0 160 110 48 74
1290.0 155 115 112 20
1050.0 150 135 112 20
960.0 130 105 64 62
1260.0 140 80 88 62
1560.0 120 120 104 32
990.0 135 125 92 38
990.0 225 65 104 80
990.0 165 90 68 68
1140.0 140 145 104 20
840.0 135 135 72 80
990.0 160 125 84 26
885.0 130 125 92 56
960.0 100 40 116 62
1080.0 110 130 108 32
990.0 190 95 92 44
960.0 155 145 92 26
1230.0 65 175 152 50
1080.0 155 90 92 62
1620.0 150 140 48 50
990.0 150 185 124 14
1020.0 155 140 144 8
990.0 60 75 92 68
960.0 95 100 104 56
1050.0 95 145 48 68
990.0 85 120 96 44
1050.0 55 110 76 56
960.0 100 110 60 44
1110.0 110 125 112 26
1020.0 115 115 52 92
1500.0 170 115 132 8
1170.0 185 105 84 44
1200.0 170 80 60 86
1080.0 115 95 80 86
1260.0 135 65 76 104
1005.0 190 75 132 44
930.0 100 150 100 26
1050.0 120 80 164 50
1020.0 120 95 100 56
1200.0 140 165 36 62
1140.0 165 85 88 62
1470.0 115 60 104 80
1080.0 110 105 76 104
1350.0 125 105 72 62
930.0 170 120 56 80
945.0 135 100 100 56
930.0 110 100 84 98
1110.0 125 110 48 56
990.0 140 70 76 86
1200.0 135 170 108 20
1110.0 115 40 112 92
1290.0 100 100 80 104
960.0 110 90 88 116
1200.0 150 140 72 8
900.0 130 90 68 92
1110.0 140 100 92 56
1230.0 110 125 56 68
1020.0 125 155 56 56
1170.0 105 95 68 116
1140.0 140 85 64 92
1290.0 155 125 124 2
1170.0 160 55 88 80
900.0 80 125 140 86
1320.0 190 115 144 8
900.0 140 135 80 62
1410.0 150 160 40 110
1590.0 175 100 84 26
1170.0 105 75 144 50
1080.0 185 115 116 20
1080.0 115 100 100 38
1230.0 110 135 96 20
1140.0 150 85 72 86
930.0 135 75 124 50
930.0 155 55 120 68
1050.0 140 70 100 68
840.0 95 100 88 68
1230.0 95 105 76 110
915.0 135 70 112 110
1035.0 120 130 112 26
1140.0 140 105 80 56
1110.0 145 120 76 14
1140.0 80 100 88 80
1350.0 150 135 44 98
930.0 140 80 104 98
1020.0 175 65 80 98
1080.0 135 115 132 20
1020.0 165 100 44 80
960.0 215 65 112 68
1200.0 185 130 64 38
1080.0 70 85 128 62
1080.0 175 115 92 32
900.0 105 85 104 38
1290.0 120 70 104 80
1020.0 135 150 64 32
1110.0 110 120 152 26
870.0 160 165 80 62
1260.0 155 90 76 50
915.0 155 140 100 26
900.0 115 105 60 80
990.0 130 145 80 38
1050.0 125 145 100 32
1170.0 165 100 120 26


Average: 1092.62 Min: 840.00 Max: 1710.00
Average: 136.27 Min: 55.00 Max: 225.00
Average: 104.62 Min: 40.00 Max: 185.00
Average: 90.83 Min: 36.00 Max: 164.00
Average: 60.99 Min: 2.00 Max: 116.00
Average: 392.71 Min: 293.00 Max: 484.00 SUM.
Test prove MOEAD success! 
Test Elitism ends
