

Test Crossover begin

Mixers available: 21 (of 21)

results/OE 2 G 100 P 100 F 0.30 M 0.80 corssover: true mutation: false improve: false Elitism: false
[48, 88, 108]
now 10 generations
now 20 generations
now 30 generations
now 40 generations
now 50 generations
now 60 generations
now 70 generations
now 80 generations
now 90 generations
Optmisation took: 266.651 seconds
#front: 161 : uk.ac.york.safire.optimisation.ia.TestIAObjectiveFunction.testMOEAD_RS(TestIAObjectiveFunction.java:420)
results/OE 2 G 100 P 100 F 0.30 M 0.80 corssover: true mutation: false improve: false Elitism: false
330.0 85 65 62 16
420.0 110 100 54 10
480.0 150 30 66 52
420.0 130 45 78 34
390.0 105 75 42 64
540.0 130 45 54 34
480.0 70 40 86 52
480.0 85 85 42 28
450.0 80 60 42 58
540.0 120 50 46 52
390.0 75 65 66 34
570.0 100 45 50 52
390.0 125 65 42 58
420.0 120 85 34 52
390.0 75 75 62 34
480.0 100 25 82 64
450.0 55 70 62 64
345.0 105 80 46 46
450.0 85 60 42 46
570.0 110 65 74 10
360.0 75 90 62 40
840.0 90 30 74 64
360.0 75 75 70 40
480.0 95 70 74 10
480.0 35 100 94 52
600.0 90 85 46 20
690.0 80 75 42 34
360.0 120 100 58 22
390.0 105 70 38 76
480.0 70 110 70 10
390.0 65 80 62 28
390.0 65 50 50 40
390.0 95 75 82 10
510.0 45 60 70 52
660.0 100 55 38 70
540.0 60 70 66 34
330.0 110 55 54 58
480.0 120 50 46 64
420.0 50 90 46 34
390.0 135 55 98 22
660.0 60 70 58 46
450.0 95 90 34 46
330.0 45 55 82 58
450.0 85 100 42 10
360.0 70 95 74 46
810.0 60 75 54 52
600.0 105 30 66 52
450.0 130 45 58 40
390.0 60 65 66 52
480.0 70 45 50 64
390.0 110 95 50 28
360.0 105 100 26 64
450.0 70 70 66 22
510.0 70 75 62 34
330.0 85 105 50 52
450.0 80 100 74 10
450.0 60 70 66 40
450.0 60 95 58 28
570.0 100 45 62 34
390.0 120 80 70 4
510.0 100 50 58 34
600.0 50 80 66 64
390.0 90 35 62 46
360.0 85 80 38 34
345.0 75 55 66 70
300.0 65 70 58 52
330.0 85 60 54 34
420.0 90 60 42 70
420.0 110 45 50 52
390.0 110 30 74 76
480.0 80 80 58 28
300.0 75 55 70 64
420.0 75 120 42 64
330.0 115 50 78 28
375.0 80 40 90 64
330.0 100 80 42 58
330.0 75 80 46 70
600.0 115 55 38 40
480.0 95 75 34 64
600.0 75 90 38 40
630.0 100 55 42 64
450.0 65 60 46 52
480.0 85 105 34 52
390.0 55 85 70 28
540.0 115 80 30 58
360.0 75 80 58 46
390.0 50 95 74 40
360.0 120 75 46 76
300.0 80 80 54 40
630.0 75 70 26 52
420.0 120 55 42 64
450.0 75 100 42 34
315.0 55 105 66 58
510.0 110 85 62 10
570.0 105 60 82 10
570.0 70 65 38 58
405.0 90 95 46 28
420.0 65 95 66 22
420.0 85 80 34 58
450.0 110 40 58 52
540.0 115 90 70 4
420.0 95 55 46 16
360.0 110 70 50 58
390.0 60 80 50 46
390.0 125 60 70 10
510.0 105 105 34 40
330.0 135 55 54 40
450.0 140 30 66 70
330.0 100 95 46 52
510.0 120 100 26 52
480.0 125 75 26 46
450.0 130 50 46 40
405.0 50 85 78 64
405.0 75 45 82 28
390.0 135 45 50 40
390.0 95 50 70 34
480.0 80 35 66 52
480.0 55 60 66 58
420.0 130 35 54 52
720.0 80 55 42 76
450.0 100 65 42 28
420.0 60 50 74 16
390.0 100 80 34 58
450.0 90 45 58 46
540.0 120 75 42 22
630.0 110 30 38 52
480.0 60 65 58 52
480.0 125 25 74 52
600.0 100 80 34 40
420.0 130 50 58 34
570.0 120 120 18 58
420.0 70 60 46 64
750.0 110 95 22 40
390.0 115 50 70 28
375.0 95 70 54 16
480.0 120 45 62 40
390.0 115 90 34 40
750.0 80 100 70 4
540.0 100 45 74 34
360.0 80 50 86 52
570.0 75 90 38 52
360.0 90 85 74 10
450.0 110 75 74 4
420.0 110 85 38 28
360.0 120 40 54 64
420.0 120 60 38 70
390.0 115 95 30 52
390.0 95 45 70 40
480.0 85 35 50 64
360.0 90 50 58 40
435.0 130 35 86 28
480.0 115 95 66 4
630.0 40 90 74 64
450.0 90 45 42 76
420.0 95 30 74 40
630.0 100 95 62 10
480.0 100 60 34 52
360.0 110 75 50 46
390.0 65 75 46 64
420.0 75 40 74 64
390.0 110 65 46 34


Average: 454.94 Min: 300.00 Max: 840.00
Average: 92.45 Min: 35.00 Max: 150.00
Average: 68.11 Min: 25.00 Max: 120.00
Average: 55.76 Min: 18.00 Max: 98.00
Average: 43.08 Min: 4.00 Max: 76.00
Average: 259.40 Min: 200.00 Max: 317.00 SUM.
Test prove MOEAD success! 

Mixers available: 21 (of 21)

results/OE 1 G 100 P 100 F 0.30 M 0.80
now 10 generations
now 20 generations
now 30 generations
now 40 generations
now 50 generations
now 60 generations
now 70 generations
now 80 generations
now 90 generations
Optmisation took: 260.5 seconds
#front: 161 : uk.ac.york.safire.optimisation.ia.TestIAObjectiveFunction.testMOEAD(TestIAObjectiveFunction.java:327)
results/OE 1 G 100 P 100 F 0.30 M 0.80
420.0 75 80 50 76
420.0 120 100 42 34
390.0 85 75 62 22
390.0 85 60 50 40
360.0 60 90 62 46
345.0 80 85 50 28
315.0 90 70 66 52
390.0 65 70 78 40
420.0 65 95 58 22
390.0 55 95 70 40
420.0 110 65 54 28
360.0 105 45 58 52
315.0 85 85 62 46
330.0 100 60 70 34
570.0 90 70 66 10
450.0 130 85 70 10
480.0 85 50 74 40
450.0 115 85 54 22
510.0 40 85 82 52
390.0 50 100 54 58
480.0 115 95 62 4
420.0 105 40 82 40
450.0 115 60 54 28
660.0 75 70 46 46
420.0 130 65 54 22
510.0 60 60 66 46
345.0 85 110 46 28
420.0 75 90 46 52
360.0 115 35 82 52
450.0 80 65 82 22
510.0 80 55 46 46
480.0 130 45 58 40
345.0 110 60 78 22
345.0 110 80 66 22
330.0 75 85 70 46
390.0 110 110 42 34
360.0 110 60 50 64
330.0 90 70 70 40
420.0 80 45 74 70
360.0 80 70 42 40
510.0 70 65 58 46
480.0 130 55 62 4
390.0 90 40 50 52
330.0 100 90 50 52
420.0 120 50 42 64
660.0 65 75 54 34
360.0 75 80 66 28
750.0 60 80 50 46
510.0 95 85 82 4
510.0 35 75 70 64
360.0 95 95 66 22
360.0 75 55 58 34
390.0 75 50 70 46
510.0 65 65 98 40
405.0 60 70 78 52
510.0 85 65 70 22
360.0 110 65 46 40
300.0 90 65 34 58
390.0 110 35 66 46
390.0 105 35 50 64
360.0 60 60 66 64
510.0 55 75 70 52
345.0 100 75 66 40
390.0 65 95 42 70
420.0 130 50 90 22
360.0 95 50 66 28
450.0 60 25 42 52
480.0 95 95 58 16
450.0 50 60 78 52
420.0 110 110 22 70
450.0 95 75 54 28
420.0 70 85 54 58
420.0 50 90 90 34
390.0 45 80 62 52
480.0 110 60 90 16
390.0 55 65 90 46
510.0 105 50 58 34
345.0 115 55 70 46
360.0 100 60 58 22
390.0 80 80 66 22
390.0 55 60 66 58
450.0 110 30 74 22
450.0 85 85 26 64
420.0 90 50 86 40
420.0 55 55 78 46
690.0 120 120 34 16
450.0 90 50 78 40
510.0 70 90 26 58
450.0 105 90 22 76
510.0 80 80 42 34
390.0 80 85 34 76
465.0 110 65 50 34
360.0 65 80 54 64
480.0 95 40 66 28
450.0 75 90 90 4
570.0 100 30 86 46
630.0 100 55 42 40
510.0 80 65 54 40
360.0 95 80 30 40
540.0 80 65 50 40
390.0 100 90 54 16
510.0 95 60 38 10
480.0 70 75 54 46
480.0 65 80 74 16
630.0 130 30 58 46
780.0 65 60 98 28
600.0 75 75 46 10
420.0 115 55 50 34
510.0 75 75 78 28
330.0 95 45 58 58
420.0 115 40 58 46
450.0 65 85 34 34
540.0 75 70 82 22
330.0 120 70 54 40
390.0 125 85 30 28
480.0 100 90 66 10
540.0 70 65 78 34
375.0 120 50 50 46
450.0 70 100 62 16
570.0 55 80 78 40
450.0 110 90 86 10
300.0 70 75 62 52
330.0 70 100 46 64
480.0 120 60 78 16
480.0 110 90 78 4
600.0 60 115 98 28
420.0 80 80 38 52
390.0 75 80 54 46
390.0 55 80 86 46
390.0 90 65 66 16
570.0 100 55 82 16
405.0 95 70 50 34
630.0 40 80 66 40
390.0 110 90 46 16
390.0 60 95 74 34
390.0 50 90 58 76
510.0 90 85 18 64
570.0 85 110 46 10
510.0 95 55 38 58
480.0 85 85 70 16
390.0 120 50 46 76
390.0 115 70 54 34
510.0 60 90 62 34
480.0 110 45 62 40
390.0 75 105 46 58
420.0 70 70 90 16
420.0 80 55 58 28
330.0 95 75 54 46
510.0 85 70 70 10
570.0 35 85 62 46
480.0 90 60 46 34
390.0 80 105 46 28
390.0 105 60 34 40
660.0 90 80 66 4
390.0 70 85 66 22
390.0 115 95 58 10
420.0 65 70 66 52
420.0 75 70 54 64
390.0 70 55 62 46
480.0 90 80 22 52
510.0 90 75 46 28


Average: 442.92 Min: 300.00 Max: 780.00
Average: 86.65 Min: 35.00 Max: 130.00
Average: 71.77 Min: 25.00 Max: 120.00
Average: 59.99 Min: 18.00 Max: 98.00
Average: 37.88 Min: 4.00 Max: 76.00
Average: 256.28 Min: 179.00 Max: 312.00 SUM.
Test prove MOEAD success! 
Test Crossover ends
Test Mutation begin

Mixers available: 21 (of 21)

results/OE 2 G 100 P 100 F 0.30 M 0.80 corssover: false mutation: true improve: false Elitism: false
[48, 88, 108]
now 10 generations
now 20 generations
now 30 generations
now 40 generations
now 50 generations
now 60 generations
now 70 generations
now 80 generations
now 90 generations
Optmisation took: 245.149 seconds
#front: 26 : uk.ac.york.safire.optimisation.ia.TestIAObjectiveFunction.testMOEAD_RS(TestIAObjectiveFunction.java:420)
results/OE 2 G 100 P 100 F 0.30 M 0.80 corssover: false mutation: true improve: false Elitism: false
210.0 15 0 2 4
210.0 10 15 2 4
180.0 0 5 6 4
225.0 0 30 2 4
150.0 0 30 14 20
180.0 20 0 2 20
210.0 0 0 10 10
165.0 5 5 10 20
240.0 5 0 2 4
165.0 20 10 6 22
180.0 5 25 2 4
180.0 0 10 2 10
120.0 25 25 180 28
150.0 0 20 2 80
195.0 15 5 2 16
150.0 25 15 10 80
180.0 0 0 2 34
165.0 10 150 6 4
210.0 10 0 2 16
225.0 0 0 54 4
180.0 15 0 6 22
240.0 0 0 2 28
210.0 5 5 2 28
300.0 0 5 2 10
165.0 25 0 2 4
210.0 5 0 14 4


Average: 192.12 Min: 120.00 Max: 300.00
Average: 8.27 Min: 0.00 Max: 25.00
Average: 13.65 Min: 0.00 Max: 150.00
Average: 13.31 Min: 2.00 Max: 180.00
Average: 18.62 Min: 4.00 Max: 80.00
Average: 53.85 Min: 11.00 Max: 258.00 SUM.
Test prove MOEAD success! 

Mixers available: 21 (of 21)

results/OE 1 G 100 P 100 F 0.30 M 0.80
now 10 generations
now 20 generations
now 30 generations
now 40 generations
now 50 generations
now 60 generations
now 70 generations
now 80 generations
now 90 generations
Optmisation took: 282.605 seconds
#front: 162 : uk.ac.york.safire.optimisation.ia.TestIAObjectiveFunction.testMOEAD(TestIAObjectiveFunction.java:327)
results/OE 1 G 100 P 100 F 0.30 M 0.80
420.0 75 80 50 76
420.0 120 100 42 34
390.0 85 75 62 22
390.0 85 60 50 40
360.0 60 90 62 46
345.0 80 85 50 28
315.0 90 70 66 52
390.0 65 70 78 40
420.0 65 95 58 22
390.0 55 95 70 40
420.0 110 65 54 28
360.0 105 45 58 52
315.0 85 85 62 46
330.0 100 60 70 34
570.0 90 70 66 10
450.0 130 85 70 10
480.0 85 50 74 40
450.0 115 85 54 22
510.0 40 85 82 52
390.0 50 100 54 58
480.0 115 95 62 4
420.0 105 40 82 40
450.0 115 60 54 28
660.0 75 70 46 46
420.0 130 65 54 22
510.0 60 60 66 46
345.0 85 110 46 28
420.0 75 90 46 52
360.0 115 35 82 52
450.0 80 65 82 22
510.0 80 55 46 46
480.0 130 45 58 40
345.0 110 60 78 22
345.0 110 80 66 22
330.0 75 85 70 46
390.0 110 110 42 34
360.0 110 60 50 64
330.0 90 70 70 40
420.0 80 45 74 70
360.0 80 70 42 40
510.0 70 65 58 46
480.0 130 55 62 4
390.0 90 40 50 52
330.0 100 90 50 52
420.0 120 50 42 64
660.0 65 75 54 34
360.0 75 80 66 28
750.0 60 80 50 46
510.0 95 85 82 4
510.0 35 75 70 64
360.0 95 95 66 22
360.0 75 55 58 34
390.0 75 50 70 46
510.0 65 65 98 40
405.0 60 70 78 52
510.0 85 65 70 22
360.0 110 65 46 40
300.0 90 65 34 58
390.0 110 35 66 46
390.0 105 35 50 64
360.0 60 60 66 64
510.0 55 75 70 52
345.0 100 75 66 40
390.0 65 95 42 70
420.0 130 50 90 22
360.0 95 50 66 28
450.0 60 25 42 52
480.0 95 95 58 16
450.0 50 60 78 52
420.0 110 110 22 70
450.0 95 75 54 28
420.0 70 85 54 58
420.0 50 90 90 34
390.0 45 80 62 52
480.0 110 60 90 16
390.0 55 65 90 46
510.0 105 50 58 34
345.0 115 55 70 46
360.0 100 60 58 22
390.0 80 80 66 22
390.0 55 60 66 58
450.0 110 30 74 22
450.0 85 85 26 64
420.0 90 50 86 40
420.0 55 55 78 46
690.0 120 120 34 16
450.0 90 50 78 40
510.0 70 90 26 58
450.0 105 90 22 76
510.0 80 80 42 34
390.0 80 85 34 76
465.0 110 65 50 34
360.0 65 80 54 64
480.0 95 40 66 28
450.0 75 90 90 4
570.0 100 30 86 46
630.0 100 55 42 40
510.0 80 65 54 40
360.0 95 80 30 40
540.0 80 65 50 40
390.0 100 90 54 16
510.0 95 60 38 10
480.0 70 75 54 46
480.0 65 80 74 16
630.0 130 30 58 46
780.0 65 60 98 28
600.0 75 75 46 10
420.0 115 55 50 34
510.0 75 75 78 28
330.0 95 45 58 58
420.0 115 40 58 46
450.0 65 85 34 34
540.0 75 70 82 22
330.0 120 70 54 40
390.0 125 85 30 28
480.0 100 90 66 10
540.0 70 65 78 34
375.0 120 50 50 46
450.0 70 100 62 16
570.0 55 80 78 40
450.0 110 90 86 10
300.0 70 75 62 52
330.0 70 100 46 64
480.0 120 60 78 16
480.0 110 90 78 4
600.0 60 115 98 28
420.0 80 80 38 52
390.0 75 80 54 46
390.0 55 80 86 46
390.0 90 65 66 16
570.0 100 55 82 16
405.0 95 70 50 34
630.0 40 80 66 40
390.0 110 90 46 16
390.0 60 95 74 34
390.0 50 90 58 76
510.0 90 85 18 64
570.0 85 110 46 10
510.0 95 55 38 58
480.0 85 85 70 16
390.0 120 50 46 76
390.0 115 70 54 34
510.0 60 90 62 34
480.0 110 45 62 40
390.0 75 105 46 58
420.0 70 70 90 16
420.0 80 55 58 28
600.0 120 45 46 34
330.0 95 75 54 46
510.0 85 70 70 10
570.0 35 85 62 46
480.0 90 60 46 34
390.0 80 105 46 28
390.0 105 60 34 40
660.0 90 80 66 4
390.0 70 85 66 22
390.0 115 95 58 10
420.0 65 70 66 52
420.0 75 70 54 64
390.0 70 55 62 46
480.0 90 80 22 52
510.0 90 75 46 28


Average: 443.89 Min: 300.00 Max: 780.00
Average: 86.85 Min: 35.00 Max: 130.00
Average: 71.60 Min: 25.00 Max: 120.00
Average: 59.90 Min: 18.00 Max: 98.00
Average: 37.85 Min: 4.00 Max: 76.00
Average: 256.21 Min: 179.00 Max: 312.00 SUM.
Test prove MOEAD success! 
Test Mutation ends
Test improve begin

Mixers available: 21 (of 21)

results/OE 2 G 100 P 100 F 0.30 M 0.80 corssover: false mutation: false improve: true Elitism: false
[48, 88, 108]
now 10 generations
now 20 generations
now 30 generations
now 40 generations
now 50 generations
now 60 generations
now 70 generations
now 80 generations
now 90 generations
Optmisation took: 13269.796 seconds
#front: 154 : uk.ac.york.safire.optimisation.ia.TestIAObjectiveFunction.testMOEAD_RS(TestIAObjectiveFunction.java:420)
results/OE 2 G 100 P 100 F 0.30 M 0.80 corssover: false mutation: false improve: true Elitism: false
330.0 55 80 78 40
420.0 110 35 74 58
390.0 105 45 74 10
360.0 115 45 74 46
390.0 85 50 74 46
360.0 105 55 82 28
510.0 65 80 62 40
390.0 95 70 46 46
510.0 105 25 82 52
360.0 85 75 54 34
345.0 115 50 50 58
390.0 115 110 54 16
360.0 65 75 54 52
330.0 50 85 74 16
300.0 70 90 86 52
300.0 95 110 54 28
315.0 100 80 50 52
450.0 90 40 58 64
345.0 120 30 82 40
300.0 105 90 46 70
390.0 115 60 38 58
480.0 65 80 90 28
330.0 60 75 70 34
450.0 75 85 46 34
330.0 45 100 74 40
420.0 95 95 26 52
270.0 130 55 38 52
420.0 115 60 54 34
450.0 95 60 46 46
360.0 105 55 34 64
360.0 110 60 42 46
300.0 120 105 54 28
450.0 115 25 90 58
360.0 65 80 62 46
420.0 130 70 50 10
420.0 120 65 34 52
390.0 90 105 30 46
510.0 80 80 54 16
360.0 85 55 54 46
390.0 100 65 78 4
330.0 125 105 14 76
420.0 80 50 50 64
330.0 65 85 66 52
510.0 115 100 54 10
390.0 100 35 78 34
345.0 70 45 74 58
315.0 85 50 58 58
390.0 75 55 42 52
420.0 75 80 86 16
405.0 65 55 62 46
420.0 60 90 58 46
360.0 100 60 42 64
360.0 60 95 46 28
420.0 105 30 90 76
480.0 115 100 62 10
390.0 95 50 58 40
450.0 50 75 94 22
360.0 45 65 82 52
360.0 55 55 78 64
300.0 120 65 78 28
345.0 105 65 54 34
330.0 95 80 46 34
330.0 45 60 62 64
330.0 80 55 46 52
390.0 60 85 54 52
360.0 110 35 58 64
540.0 125 75 50 16
360.0 80 80 34 22
330.0 75 80 54 40
300.0 110 70 70 22
540.0 55 80 74 10
345.0 55 100 58 64
390.0 120 50 70 34
315.0 125 100 46 28
390.0 125 50 50 46
390.0 105 50 42 64
345.0 70 90 42 34
480.0 115 60 54 28
510.0 105 45 38 70
360.0 90 50 82 40
300.0 80 60 62 58
330.0 70 85 54 58
330.0 80 75 42 52
345.0 130 40 50 46
390.0 130 45 62 40
300.0 60 95 62 34
330.0 135 40 30 40
780.0 40 90 54 76
360.0 110 45 50 58
300.0 75 65 66 46
300.0 70 45 62 64
480.0 90 20 86 58
315.0 100 60 66 10
390.0 65 65 58 76
315.0 95 75 54 52
375.0 130 60 54 40
420.0 120 65 42 40
330.0 70 55 62 40
480.0 100 30 70 52
360.0 105 70 34 52
330.0 100 70 42 22
360.0 75 50 46 76
390.0 100 85 30 28
270.0 65 75 50 64
390.0 65 85 62 34
360.0 80 70 54 40
450.0 120 55 18 34
420.0 80 40 66 28
360.0 65 40 62 52
300.0 95 80 62 40
330.0 105 55 42 76
420.0 65 70 50 46
360.0 35 115 82 52
360.0 55 70 70 34
420.0 95 85 30 64
300.0 110 75 30 52
330.0 100 35 74 76
405.0 135 25 90 52
420.0 60 65 70 58
300.0 70 50 66 58
285.0 115 50 62 40
480.0 125 100 70 4
390.0 110 30 82 58
360.0 150 55 66 22
510.0 90 35 66 76
300.0 85 85 50 40
600.0 115 70 38 46
360.0 80 80 62 16
345.0 90 50 82 52
330.0 100 50 58 52
330.0 120 100 34 46
420.0 105 65 50 28
360.0 75 50 58 64
360.0 120 105 26 20
420.0 55 115 66 40
420.0 130 35 74 52
420.0 50 80 74 58
360.0 120 75 54 10
360.0 135 35 74 34
420.0 100 55 54 40
480.0 105 105 58 16
300.0 105 70 58 52
360.0 75 55 46 52
600.0 70 85 50 28
630.0 100 65 38 40
540.0 55 50 82 52
390.0 95 55 58 22
315.0 110 50 82 28
360.0 125 50 86 22
480.0 90 100 26 28
390.0 115 50 50 52
315.0 70 60 58 22
375.0 100 45 74 40
450.0 150 90 66 4


Average: 385.52 Min: 270.00 Max: 780.00
Average: 92.47 Min: 35.00 Max: 150.00
Average: 66.17 Min: 20.00 Max: 115.00
Average: 58.29 Min: 14.00 Max: 94.00
Average: 42.79 Min: 4.00 Max: 76.00
Average: 259.71 Min: 210.00 Max: 320.00 SUM.
Test prove MOEAD success! 

Mixers available: 21 (of 21)

results/OE 1 G 100 P 100 F 0.30 M 0.80
now 10 generations
now 20 generations
now 30 generations
now 40 generations
now 50 generations
now 60 generations
now 70 generations
now 80 generations
now 90 generations
Optmisation took: 259.607 seconds
#front: 166 : uk.ac.york.safire.optimisation.ia.TestIAObjectiveFunction.testMOEAD(TestIAObjectiveFunction.java:327)
results/OE 1 G 100 P 100 F 0.30 M 0.80
420.0 75 80 50 76
420.0 120 100 42 34
390.0 85 75 62 22
390.0 85 60 50 40
360.0 60 90 62 46
345.0 80 85 50 28
315.0 90 70 66 52
390.0 65 70 78 40
420.0 65 95 58 22
390.0 55 95 70 40
420.0 110 65 54 28
360.0 105 45 58 52
315.0 85 85 62 46
330.0 100 60 70 34
570.0 90 70 66 10
450.0 130 85 70 10
480.0 85 50 74 40
450.0 115 85 54 22
510.0 40 85 82 52
390.0 50 100 54 58
480.0 115 95 62 4
420.0 105 40 82 40
450.0 115 60 54 28
660.0 75 70 46 46
420.0 130 65 54 22
510.0 60 60 66 46
345.0 85 110 46 28
420.0 75 90 46 52
360.0 115 35 82 52
450.0 80 65 82 22
510.0 80 55 46 46
480.0 130 45 58 40
345.0 110 60 78 22
345.0 110 80 66 22
330.0 75 85 70 46
390.0 110 110 42 34
360.0 110 60 50 64
330.0 90 70 70 40
420.0 80 45 74 70
360.0 80 70 42 40
510.0 70 65 58 46
480.0 130 55 62 4
390.0 90 40 50 52
330.0 100 90 50 52
420.0 120 50 42 64
660.0 65 75 54 34
360.0 75 80 66 28
750.0 60 80 50 46
510.0 95 85 82 4
510.0 35 75 70 64
360.0 95 95 66 22
360.0 75 55 58 34
390.0 75 50 70 46
510.0 65 65 98 40
405.0 60 70 78 52
510.0 85 65 70 22
360.0 110 65 46 40
300.0 90 65 34 58
390.0 110 35 66 46
390.0 105 35 50 64
360.0 60 60 66 64
510.0 55 75 70 52
345.0 100 75 66 40
390.0 65 95 42 70
420.0 130 50 90 22
360.0 95 50 66 28
450.0 60 25 42 52
480.0 95 95 58 16
450.0 50 60 78 52
420.0 110 110 22 70
450.0 95 75 54 28
420.0 70 85 54 58
420.0 50 90 90 34
390.0 45 80 62 52
480.0 110 60 90 16
390.0 55 65 90 46
510.0 105 50 58 34
345.0 115 55 70 46
360.0 100 60 58 22
390.0 80 80 66 22
390.0 55 60 66 58
450.0 110 30 74 22
450.0 85 85 26 64
420.0 90 50 86 40
420.0 55 55 78 46
690.0 120 120 34 16
450.0 90 50 78 40
510.0 70 90 26 58
450.0 105 90 22 76
510.0 80 80 42 34
390.0 80 85 34 76
465.0 110 65 50 34
360.0 65 80 54 64
480.0 95 40 66 28
450.0 75 90 90 4
570.0 100 30 86 46
630.0 100 55 42 40
510.0 80 65 54 40
360.0 95 80 30 40
540.0 80 65 50 40
390.0 100 90 54 16
510.0 95 60 38 10
480.0 70 75 54 46
480.0 65 80 74 16
630.0 130 30 58 46
780.0 65 60 98 28
600.0 75 75 46 10
420.0 115 55 50 34
510.0 75 75 78 28
330.0 95 45 58 58
420.0 115 40 58 46
450.0 65 85 34 34
540.0 75 70 82 22
330.0 120 70 54 40
390.0 125 85 30 28
480.0 100 90 66 10
540.0 70 65 78 34
375.0 120 50 50 46
450.0 70 100 62 16
570.0 55 80 78 40
450.0 110 90 86 10
300.0 70 75 62 52
330.0 70 100 46 64
480.0 120 60 78 16
480.0 110 90 78 4
600.0 60 115 98 28
420.0 80 80 38 52
390.0 75 80 54 46
390.0 55 80 86 46
390.0 90 65 66 16
570.0 100 55 82 16
405.0 95 70 50 34
630.0 40 80 66 40
390.0 110 90 46 16
390.0 60 95 74 34
390.0 50 90 58 76
510.0 90 85 18 64
570.0 85 110 46 10
510.0 95 55 38 58
480.0 85 85 70 16
390.0 120 50 46 76
390.0 115 70 54 34
510.0 60 90 62 34
480.0 110 45 62 40
390.0 75 105 46 58
420.0 70 70 90 16
420.0 80 55 58 28
600.0 120 45 46 34
420.0 75 85 50 40
330.0 95 75 54 46
450.0 55 95 50 52
510.0 85 70 70 10
360.0 65 75 74 52
570.0 35 85 62 46
405.0 135 30 74 40
480.0 90 60 46 34
390.0 80 105 46 28
390.0 105 60 34 40
660.0 90 80 66 4
390.0 70 85 66 22
390.0 115 95 58 10
420.0 65 70 66 52
420.0 75 70 54 64
390.0 70 55 62 46
480.0 90 80 22 52
510.0 90 75 46 28


Average: 443.04 Min: 300.00 Max: 780.00
Average: 86.75 Min: 35.00 Max: 135.00
Average: 71.60 Min: 25.00 Max: 120.00
Average: 59.95 Min: 18.00 Max: 98.00
Average: 38.05 Min: 4.00 Max: 76.00
Average: 256.34 Min: 179.00 Max: 312.00 SUM.
Test prove MOEAD success! 
Test improve ends
Test Elitism begin

Mixers available: 21 (of 21)

results/OE 2 G 100 P 100 F 0.30 M 0.80 corssover: false mutation: false improve: false Elitism: true
[48, 88, 108]
now 10 generations
now 20 generations
now 30 generations
now 40 generations
now 50 generations
now 60 generations
now 70 generations
now 80 generations
now 90 generations
Optmisation took: 258.645 seconds
#front: 5 : uk.ac.york.safire.optimisation.ia.TestIAObjectiveFunction.testMOEAD_RS(TestIAObjectiveFunction.java:420)
results/OE 2 G 100 P 100 F 0.30 M 0.80 corssover: false mutation: false improve: false Elitism: true
330.0 45 35 30 10
300.0 85 80 62 28
315.0 110 80 46 34
300.0 110 65 62 28
390.0 35 20 14 4


Average: 327.00 Min: 300.00 Max: 390.00
Average: 77.00 Min: 35.00 Max: 110.00
Average: 56.00 Min: 20.00 Max: 80.00
Average: 42.80 Min: 14.00 Max: 62.00
Average: 20.80 Min: 4.00 Max: 34.00
Average: 196.60 Min: 73.00 Max: 270.00 SUM.
Test prove MOEAD success! 

Mixers available: 21 (of 21)

results/OE 1 G 100 P 100 F 0.30 M 0.80
now 10 generations
now 20 generations
now 30 generations
now 40 generations
now 50 generations
now 60 generations
now 70 generations
now 80 generations
now 90 generations
Optmisation took: 258.376 seconds
#front: 166 : uk.ac.york.safire.optimisation.ia.TestIAObjectiveFunction.testMOEAD(TestIAObjectiveFunction.java:327)
results/OE 1 G 100 P 100 F 0.30 M 0.80
420.0 75 80 50 76
420.0 120 100 42 34
390.0 85 75 62 22
390.0 85 60 50 40
360.0 60 90 62 46
345.0 80 85 50 28
315.0 90 70 66 52
390.0 65 70 78 40
420.0 65 95 58 22
390.0 55 95 70 40
420.0 110 65 54 28
360.0 105 45 58 52
315.0 85 85 62 46
330.0 100 60 70 34
570.0 90 70 66 10
450.0 130 85 70 10
480.0 85 50 74 40
450.0 115 85 54 22
510.0 40 85 82 52
390.0 50 100 54 58
480.0 115 95 62 4
420.0 105 40 82 40
450.0 115 60 54 28
660.0 75 70 46 46
420.0 130 65 54 22
510.0 60 60 66 46
345.0 85 110 46 28
420.0 75 90 46 52
360.0 115 35 82 52
450.0 80 65 82 22
510.0 80 55 46 46
480.0 130 45 58 40
345.0 110 60 78 22
345.0 110 80 66 22
330.0 75 85 70 46
390.0 110 110 42 34
360.0 110 60 50 64
330.0 90 70 70 40
420.0 80 45 74 70
360.0 80 70 42 40
510.0 70 65 58 46
480.0 130 55 62 4
390.0 90 40 50 52
330.0 100 90 50 52
420.0 120 50 42 64
660.0 65 75 54 34
360.0 75 80 66 28
750.0 60 80 50 46
510.0 95 85 82 4
510.0 35 75 70 64
360.0 95 95 66 22
360.0 75 55 58 34
390.0 75 50 70 46
510.0 65 65 98 40
405.0 60 70 78 52
510.0 85 65 70 22
360.0 110 65 46 40
300.0 90 65 34 58
390.0 110 35 66 46
390.0 105 35 50 64
360.0 60 60 66 64
510.0 55 75 70 52
345.0 100 75 66 40
390.0 65 95 42 70
420.0 130 50 90 22
360.0 95 50 66 28
450.0 60 25 42 52
480.0 95 95 58 16
450.0 50 60 78 52
420.0 110 110 22 70
450.0 95 75 54 28
420.0 70 85 54 58
420.0 50 90 90 34
390.0 45 80 62 52
480.0 110 60 90 16
390.0 55 65 90 46
510.0 105 50 58 34
345.0 115 55 70 46
360.0 100 60 58 22
390.0 80 80 66 22
390.0 55 60 66 58
450.0 110 30 74 22
450.0 85 85 26 64
420.0 90 50 86 40
420.0 55 55 78 46
690.0 120 120 34 16
450.0 90 50 78 40
510.0 70 90 26 58
450.0 105 90 22 76
510.0 80 80 42 34
390.0 80 85 34 76
465.0 110 65 50 34
360.0 65 80 54 64
480.0 95 40 66 28
450.0 75 90 90 4
570.0 100 30 86 46
630.0 100 55 42 40
510.0 80 65 54 40
360.0 95 80 30 40
540.0 80 65 50 40
390.0 100 90 54 16
510.0 95 60 38 10
480.0 70 75 54 46
480.0 65 80 74 16
630.0 130 30 58 46
780.0 65 60 98 28
600.0 75 75 46 10
420.0 115 55 50 34
510.0 75 75 78 28
330.0 95 45 58 58
420.0 115 40 58 46
450.0 65 85 34 34
540.0 75 70 82 22
330.0 120 70 54 40
390.0 125 85 30 28
480.0 100 90 66 10
540.0 70 65 78 34
375.0 120 50 50 46
450.0 70 100 62 16
570.0 55 80 78 40
450.0 110 90 86 10
300.0 70 75 62 52
330.0 70 100 46 64
480.0 120 60 78 16
480.0 110 90 78 4
600.0 60 115 98 28
420.0 80 80 38 52
390.0 75 80 54 46
390.0 55 80 86 46
390.0 90 65 66 16
570.0 100 55 82 16
405.0 95 70 50 34
630.0 40 80 66 40
390.0 110 90 46 16
390.0 60 95 74 34
390.0 50 90 58 76
510.0 90 85 18 64
570.0 85 110 46 10
510.0 95 55 38 58
480.0 85 85 70 16
390.0 120 50 46 76
390.0 115 70 54 34
510.0 60 90 62 34
480.0 110 45 62 40
390.0 75 105 46 58
420.0 70 70 90 16
420.0 80 55 58 28
600.0 120 45 46 34
420.0 75 85 50 40
330.0 95 75 54 46
450.0 55 95 50 52
510.0 85 70 70 10
360.0 65 75 74 52
570.0 35 85 62 46
405.0 135 30 74 40
480.0 90 60 46 34
390.0 80 105 46 28
390.0 105 60 34 40
660.0 90 80 66 4
390.0 70 85 66 22
390.0 115 95 58 10
420.0 65 70 66 52
420.0 75 70 54 64
390.0 70 55 62 46
480.0 90 80 22 52
510.0 90 75 46 28


Average: 443.04 Min: 300.00 Max: 780.00
Average: 86.75 Min: 35.00 Max: 135.00
Average: 71.60 Min: 25.00 Max: 120.00
Average: 59.95 Min: 18.00 Max: 98.00
Average: 38.05 Min: 4.00 Max: 76.00
Average: 256.34 Min: 179.00 Max: 312.00 SUM.
Test prove MOEAD success! 
Test Elitism ends

