
Test Crossover begin

Mixers available: 21 (of 21)

results/OE 2 G 100 P 100 F 0.30 M 0.80 corssover: true mutation: false improve: false Elitism: false
[90, 168, 206]
now 10 generations
now 20 generations
now 30 generations
now 40 generations
now 50 generations
now 60 generations
now 70 generations
now 80 generations
now 90 generations
Optmisation took: 950.607 seconds
#front: 179 : uk.ac.york.safire.optimisation.ia.TestIAObjectiveFunction.testMOEAD_RS(TestIAObjectiveFunction.java:420)
results/OE 2 G 100 P 100 F 0.30 M 0.80 corssover: true mutation: false improve: false Elitism: false
840.0 220 105 132 86
630.0 160 145 124 92
780.0 215 120 164 68
690.0 165 140 148 92
690.0 120 150 108 104
780.0 145 180 128 74
720.0 135 185 96 98
765.0 160 130 120 110
750.0 170 150 136 74
735.0 140 150 136 92
1050.0 210 125 120 74
690.0 180 150 120 74
750.0 195 130 136 68
780.0 100 190 136 98
720.0 205 135 136 74
660.0 170 185 96 98
630.0 130 200 144 98
720.0 150 180 96 110
690.0 210 125 140 62
660.0 205 200 120 62
870.0 125 150 144 80
810.0 165 140 124 104
870.0 190 120 144 80
840.0 180 110 108 104
690.0 155 125 112 122
780.0 155 175 104 92
615.0 190 195 84 116
690.0 110 165 140 116
705.0 195 165 140 68
645.0 215 175 92 80
720.0 210 160 100 86
585.0 185 150 144 80
750.0 180 145 112 74
630.0 200 170 96 92
660.0 155 150 132 122
720.0 135 170 160 80
810.0 190 165 168 44
810.0 195 155 112 68
840.0 185 120 144 92
660.0 190 115 140 86
720.0 175 150 100 122
840.0 155 160 124 80
615.0 225 165 96 86
600.0 200 145 112 74
960.0 155 120 160 92
810.0 210 155 112 62
660.0 165 175 112 92
750.0 185 150 128 56
750.0 170 165 108 80
750.0 140 160 132 62
630.0 175 125 140 104
720.0 155 195 128 80
660.0 165 165 116 92
660.0 200 155 116 68
675.0 195 180 92 134
960.0 135 120 164 128
660.0 180 130 112 92
690.0 225 150 108 80
690.0 175 130 136 92
750.0 200 205 148 38
660.0 190 160 108 74
630.0 160 180 108 104
600.0 115 155 132 110
585.0 190 160 124 80
705.0 215 120 120 98
645.0 150 165 112 122
990.0 175 95 168 116
780.0 170 140 96 74
810.0 155 205 88 146
615.0 175 135 136 110
720.0 190 185 92 74
720.0 215 190 104 68
690.0 200 120 136 92
720.0 155 145 152 62
780.0 170 185 108 68
960.0 180 195 92 80
780.0 210 170 156 38
750.0 185 190 68 134
840.0 165 190 156 32
690.0 165 165 152 62
930.0 220 190 128 32
750.0 165 165 88 92
660.0 200 135 100 128
630.0 165 130 136 104
660.0 190 150 148 56
810.0 225 170 108 56
630.0 170 145 104 86
780.0 180 135 116 68
720.0 195 180 100 98
780.0 210 125 132 80
690.0 160 185 128 74
900.0 200 195 96 68
1050.0 165 155 124 74
900.0 205 125 168 62
660.0 195 170 128 68
840.0 155 105 160 116
690.0 185 180 104 74
720.0 225 165 140 38
1170.0 200 125 140 74
780.0 190 140 116 62
840.0 155 125 156 80
870.0 165 130 116 80
1020.0 150 190 120 62
600.0 180 130 120 80
930.0 190 175 104 62
750.0 220 130 108 74
660.0 145 155 132 104
675.0 165 180 176 68
720.0 160 115 128 98
600.0 135 175 136 92
810.0 230 95 144 116
720.0 160 175 120 74
840.0 140 150 132 74
600.0 185 115 108 110
720.0 220 110 136 62
825.0 190 135 160 62
720.0 190 100 144 86
840.0 190 180 80 92
600.0 135 180 132 74
720.0 150 155 132 74
1110.0 175 130 136 62
750.0 185 110 120 98
660.0 125 175 156 98
840.0 200 90 152 92
750.0 230 170 116 50
630.0 200 145 120 68
780.0 160 210 108 80
900.0 165 180 120 44
675.0 160 165 120 86
810.0 150 165 120 74
720.0 150 175 100 116
720.0 195 160 120 44
930.0 205 120 148 68
645.0 230 165 148 62
780.0 160 130 136 80
1080.0 165 125 80 134
780.0 150 125 108 110
780.0 145 155 144 86
810.0 115 165 164 98
750.0 155 145 132 80
720.0 165 160 112 56
705.0 175 140 132 98
660.0 165 135 108 140
810.0 165 145 148 74
630.0 185 165 108 74
645.0 210 140 116 98
765.0 170 100 120 134
780.0 165 190 124 50
900.0 155 155 100 92
690.0 130 160 112 86
600.0 165 165 140 80
720.0 155 135 168 80
780.0 145 135 148 134
660.0 210 150 116 62
720.0 170 150 144 68
690.0 130 145 120 110
795.0 200 175 60 104
570.0 145 170 140 110
690.0 260 170 120 50
660.0 155 160 112 104
660.0 215 150 80 86
780.0 190 125 108 98
750.0 140 140 104 128
780.0 130 210 132 62
780.0 125 175 136 92
630.0 145 175 124 98
1050.0 175 120 144 86
900.0 200 175 148 26
690.0 205 105 136 92
690.0 180 105 108 110
600.0 180 170 112 98
750.0 180 160 104 68
735.0 165 140 116 110
750.0 200 150 132 44
960.0 220 190 80 80
690.0 140 175 140 50
675.0 200 185 124 44
570.0 175 165 108 110
690.0 220 170 100 74


Average: 746.82 Min: 570.00 Max: 1170.00
Average: 175.89 Min: 100.00 Max: 260.00
Average: 153.35 Min: 90.00 Max: 210.00
Average: 123.84 Min: 60.00 Max: 176.00
Average: 84.22 Min: 26.00 Max: 146.00
Average: 537.31 Min: 480.00 Max: 605.00 SUM.
Test prove MOEAD success! 

Mixers available: 21 (of 21)

results/OE 1 G 100 P 100 F 0.30 M 0.80
now 10 generations
now 20 generations
now 30 generations
now 40 generations
now 50 generations
now 60 generations
now 70 generations
now 80 generations
now 90 generations
Optmisation took: 963.769 seconds
#front: 185 : uk.ac.york.safire.optimisation.ia.TestIAObjectiveFunction.testMOEAD(TestIAObjectiveFunction.java:327)
results/OE 1 G 100 P 100 F 0.30 M 0.80
780.0 155 185 100 116
600.0 140 145 124 128
750.0 155 140 124 86
720.0 150 150 148 98
1020.0 180 125 124 98
630.0 170 150 116 86
750.0 115 180 152 92
900.0 130 180 132 92
720.0 110 165 132 104
720.0 160 200 140 50
840.0 165 155 120 86
900.0 195 135 124 68
600.0 210 180 144 74
705.0 160 145 128 98
720.0 155 175 128 74
750.0 175 140 120 104
720.0 135 155 136 110
780.0 155 165 136 68
870.0 165 130 128 104
675.0 175 130 128 116
810.0 140 160 140 98
690.0 190 180 100 80
660.0 160 155 144 104
930.0 245 155 116 68
705.0 115 165 156 134
870.0 170 120 140 104
660.0 125 165 136 98
630.0 160 155 120 122
750.0 180 105 144 98
600.0 170 140 124 116
690.0 165 150 148 86
720.0 170 140 148 80
900.0 180 155 120 44
780.0 180 140 120 62
930.0 205 120 132 80
1200.0 195 105 128 116
660.0 185 140 92 128
600.0 205 175 112 86
1140.0 165 165 140 62
840.0 145 185 152 68
750.0 210 125 132 44
660.0 180 155 128 62
660.0 170 150 152 80
555.0 180 170 152 122
780.0 165 185 140 32
810.0 155 170 100 110
630.0 210 175 108 86
930.0 120 140 176 122
780.0 160 160 128 80
690.0 145 170 144 86
900.0 195 135 144 56
690.0 145 125 164 134
840.0 145 155 140 92
690.0 140 145 160 86
720.0 185 175 120 80
780.0 180 160 156 38
930.0 160 100 148 128
840.0 150 180 152 50
1110.0 205 165 144 38
870.0 215 145 124 50
810.0 160 155 124 74
780.0 190 135 116 80
660.0 200 185 160 26
840.0 130 185 104 116
660.0 195 120 120 110
870.0 140 180 132 98
1020.0 130 140 144 80
600.0 215 145 88 116
930.0 120 140 160 128
840.0 220 95 156 110
750.0 165 160 112 68
570.0 195 155 132 110
735.0 165 170 104 92
810.0 210 100 148 116
690.0 130 195 124 98
660.0 230 165 80 80
660.0 140 150 108 122
690.0 170 185 100 80
690.0 215 125 104 86
810.0 175 130 116 104
645.0 170 125 164 122
735.0 170 160 156 68
870.0 210 95 116 116
630.0 200 150 100 98
900.0 155 130 160 74
660.0 195 150 124 62
690.0 175 170 132 50
810.0 195 155 176 44
780.0 150 165 132 98
660.0 150 130 144 134
645.0 215 135 140 56
720.0 180 135 116 98
690.0 220 175 112 62
660.0 195 165 92 80
660.0 210 195 140 56
1110.0 215 120 164 62
720.0 160 140 124 110
630.0 175 200 104 92
720.0 185 135 136 62
675.0 160 150 152 80
600.0 110 160 136 146
750.0 195 125 128 80
780.0 185 180 116 50
750.0 240 175 76 86
930.0 145 180 128 62
780.0 205 180 128 38
750.0 150 115 136 110
900.0 145 150 132 74
750.0 185 165 72 110
810.0 105 160 172 104
630.0 200 150 140 62
780.0 160 205 96 86
720.0 185 125 116 86
870.0 155 195 108 92
930.0 215 175 108 62
720.0 225 175 132 44
660.0 220 120 108 98
690.0 175 155 108 92
660.0 210 110 124 74
630.0 120 160 112 104
660.0 145 190 164 62
750.0 205 150 88 116
630.0 155 155 160 116
900.0 165 130 124 116
780.0 165 135 128 104
600.0 165 180 148 80
780.0 130 145 144 98
660.0 200 155 108 74
900.0 155 175 140 62
840.0 155 120 144 104
630.0 150 165 140 92
690.0 160 165 116 92
720.0 190 110 152 110
810.0 145 155 148 92
570.0 195 160 84 104
630.0 175 160 152 44
630.0 175 135 124 74
705.0 170 180 112 92
1020.0 170 135 124 110
750.0 160 135 140 74
600.0 130 205 128 98
675.0 210 160 132 56
810.0 165 155 152 68
840.0 200 115 128 116
900.0 200 100 144 134
930.0 205 110 144 92
1020.0 155 150 120 74
690.0 150 140 140 104
840.0 170 165 124 50
690.0 170 155 132 74
690.0 190 145 108 86
780.0 135 205 128 92
780.0 190 170 120 44
660.0 190 125 100 92
930.0 205 180 88 62
720.0 165 145 92 98
645.0 110 195 148 116
660.0 175 105 112 122
735.0 185 170 88 134
600.0 190 120 156 140
720.0 145 160 156 98
600.0 180 155 148 74
630.0 170 175 144 62
585.0 175 165 104 104
600.0 205 150 112 104
720.0 180 115 140 74
660.0 155 130 128 122
615.0 145 195 140 74
810.0 205 140 144 50
1200.0 150 180 108 110
720.0 150 155 136 74
690.0 175 200 96 80
810.0 155 130 140 92
630.0 155 180 116 62
840.0 165 120 176 98
840.0 135 165 160 80
930.0 155 155 128 68
750.0 210 140 108 86
660.0 155 140 144 116
600.0 160 170 124 92
840.0 135 135 168 128
810.0 200 175 116 62
690.0 170 135 132 104
705.0 150 205 132 92
1050.0 220 180 144 26


Average: 756.00 Min: 555.00 Max: 1200.00
Average: 171.62 Min: 105.00 Max: 245.00
Average: 153.22 Min: 95.00 Max: 205.00
Average: 129.56 Min: 72.00 Max: 176.00
Average: 87.78 Min: 26.00 Max: 146.00
Average: 542.18 Min: 494.00 Max: 624.00 SUM.
Test prove MOEAD success! 
Test Crossover ends
Test Mutation begin

Mixers available: 21 (of 21)

results/OE 2 G 100 P 100 F 0.30 M 0.80 corssover: false mutation: true improve: false Elitism: false
[90, 168, 206]
now 10 generations
now 20 generations
now 30 generations
now 40 generations
now 50 generations
now 60 generations
now 70 generations
now 80 generations
now 90 generations
Optmisation took: 917.275 seconds
#front: 153 : uk.ac.york.safire.optimisation.ia.TestIAObjectiveFunction.testMOEAD_RS(TestIAObjectiveFunction.java:420)
results/OE 2 G 100 P 100 F 0.30 M 0.80 corssover: false mutation: true improve: false Elitism: false
390.0 20 5 8 74
345.0 15 15 36 62
390.0 0 20 24 20
300.0 20 20 80 62
405.0 0 15 24 86
375.0 80 5 16 20
450.0 5 0 44 32
300.0 0 55 4 38
390.0 10 0 40 62
420.0 20 0 8 62
360.0 60 0 40 14
480.0 30 10 8 38
600.0 15 15 12 14
540.0 45 5 24 20
420.0 5 15 28 20
390.0 55 5 16 32
285.0 25 20 28 38
480.0 20 10 92 2
330.0 15 15 16 74
390.0 10 20 8 32
450.0 25 10 24 2
390.0 20 15 4 50
360.0 40 20 0 50
300.0 15 50 0 40
360.0 15 10 12 98
315.0 40 0 44 44
330.0 25 0 16 44
420.0 95 5 64 2
300.0 75 10 32 20
330.0 5 35 28 38
420.0 10 0 52 38
420.0 25 40 4 38
420.0 5 110 0 56
360.0 150 0 52 8
420.0 5 80 0 62
390.0 5 25 32 14
360.0 35 5 32 20
330.0 0 10 40 38
390.0 35 0 36 26
300.0 25 25 4 44
435.0 80 0 28 8
450.0 50 35 0 2
420.0 5 25 68 8
330.0 15 0 52 14
315.0 25 15 32 44
480.0 40 15 0 32
420.0 50 0 40 8
450.0 20 35 0 62
540.0 30 15 0 80
480.0 0 15 84 26
480.0 0 55 40 2
390.0 15 5 16 68
345.0 30 40 4 2
360.0 10 50 12 2
390.0 80 5 52 8
420.0 10 110 4 20
375.0 65 10 20 20
300.0 65 0 28 26
510.0 50 10 4 14
360.0 65 10 48 2
510.0 50 0 16 8
390.0 0 40 12 14
360.0 25 5 12 44
480.0 20 10 32 26
360.0 25 35 32 2
360.0 45 10 28 8
390.0 45 5 8 68
450.0 15 15 20 38
420.0 40 0 24 38
345.0 50 0 24 26
315.0 30 45 12 8
420.0 0 60 48 2
420.0 30 25 0 68
390.0 5 5 52 56
360.0 45 10 0 26
450.0 10 45 24 2
330.0 50 10 12 50
315.0 10 25 20 44
540.0 5 75 4 14
450.0 15 45 0 62
330.0 5 0 20 74
345.0 5 15 60 20
390.0 25 5 32 14
330.0 50 5 28 38
510.0 0 60 8 26
390.0 70 0 12 100
315.0 20 35 28 8
330.0 30 15 28 2
390.0 30 35 0 50
390.0 20 0 28 56
360.0 55 35 24 2
330.0 0 20 36 26
285.0 60 40 12 50
315.0 30 50 16 2
300.0 40 45 20 8
330.0 35 35 4 8
330.0 70 110 0 14
375.0 10 35 20 38
345.0 90 0 20 26
330.0 55 50 12 2
330.0 30 45 0 32
390.0 10 25 20 14
390.0 10 10 8 50
300.0 5 40 12 14
480.0 20 40 40 2
360.0 10 20 36 14
630.0 35 5 20 26
390.0 35 10 8 2
360.0 15 20 32 44
390.0 5 40 0 74
510.0 20 0 28 44
360.0 0 35 32 50
450.0 5 15 24 50
375.0 5 30 28 20
480.0 15 40 4 62
420.0 5 25 20 20
510.0 25 0 40 32
360.0 60 35 0 14
480.0 70 5 0 26
450.0 5 85 28 2
510.0 25 60 0 26
495.0 5 10 60 20
360.0 5 35 16 50
420.0 10 40 32 8
390.0 90 0 52 8
420.0 15 25 36 8
420.0 5 45 8 32
330.0 25 25 24 14
390.0 50 20 4 2
300.0 20 30 28 32
390.0 55 0 40 20
390.0 80 0 8 20
540.0 5 5 36 14
570.0 5 20 24 8
570.0 20 35 24 2
540.0 55 5 8 44
360.0 20 35 20 26
390.0 60 30 0 14
315.0 20 5 36 14
330.0 15 25 32 26
390.0 15 35 8 14
330.0 15 45 4 14
300.0 30 15 4 14
660.0 70 0 12 44
570.0 35 0 24 26
300.0 0 40 64 8
390.0 45 0 16 38
360.0 75 20 16 8
420.0 15 0 32 44
345.0 15 35 28 14
360.0 30 40 0 2
345.0 25 35 16 38
450.0 20 20 4 8


Average: 397.35 Min: 285.00 Max: 660.00
Average: 28.63 Min: 0.00 Max: 150.00
Average: 22.65 Min: 0.00 Max: 110.00
Average: 22.54 Min: 0.00 Max: 92.00
Average: 28.77 Min: 2.00 Max: 100.00
Average: 102.58 Min: 52.00 Max: 210.00 SUM.
Test prove MOEAD success! 

Mixers available: 21 (of 21)

results/OE 1 G 100 P 100 F 0.30 M 0.80
now 10 generations
now 20 generations
now 30 generations
now 40 generations
now 50 generations
 now 60 generations
now 70 generations
now 80 generations
now 90 generations
Optmisation took: 996.74 seconds
#front: 190 : uk.ac.york.safire.optimisation.ia.TestIAObjectiveFunction.testMOEAD(TestIAObjectiveFunction.java:327)
results/OE 1 G 100 P 100 F 0.30 M 0.80
780.0 155 185 100 116
600.0 140 145 124 128
750.0 155 140 124 86
720.0 150 150 148 98
1020.0 180 125 124 98
630.0 170 150 116 86
750.0 115 180 152 92
900.0 130 180 132 92
720.0 110 165 132 104
720.0 160 200 140 50
840.0 165 155 120 86
900.0 195 135 124 68
600.0 210 180 144 74
705.0 160 145 128 98
720.0 155 175 128 74
750.0 175 140 120 104
720.0 135 155 136 110
780.0 155 165 136 68
870.0 165 130 128 104
675.0 175 130 128 116
810.0 140 160 140 98
690.0 190 180 100 80
660.0 160 155 144 104
930.0 245 155 116 68
705.0 115 165 156 134
870.0 170 120 140 104
660.0 125 165 136 98
630.0 160 155 120 122
750.0 180 105 144 98
600.0 170 140 124 116
690.0 165 150 148 86
720.0 170 140 148 80
900.0 180 155 120 44
780.0 180 140 120 62
930.0 205 120 132 80
1200.0 195 105 128 116
660.0 185 140 92 128
600.0 205 175 112 86
1140.0 165 165 140 62
840.0 145 185 152 68
750.0 210 125 132 44
660.0 180 155 128 62
660.0 170 150 152 80
555.0 180 170 152 122
780.0 165 185 140 32
810.0 155 170 100 110
630.0 210 175 108 86
930.0 120 140 176 122
780.0 160 160 128 80
690.0 145 170 144 86
900.0 195 135 144 56
690.0 145 125 164 134
840.0 145 155 140 92
690.0 140 145 160 86
720.0 185 175 120 80
780.0 180 160 156 38
930.0 160 100 148 128
840.0 150 180 152 50
1110.0 205 165 144 38
870.0 215 145 124 50
810.0 160 155 124 74
780.0 190 135 116 80
660.0 200 185 160 26
840.0 130 185 104 116
660.0 195 120 120 110
870.0 140 180 132 98
1020.0 130 140 144 80
600.0 215 145 88 116
930.0 120 140 160 128
840.0 220 95 156 110
750.0 165 160 112 68
570.0 195 155 132 110
735.0 165 170 104 92
810.0 210 100 148 116
690.0 130 195 124 98
690.0 165 175 96 146
660.0 230 165 80 80
660.0 140 150 108 122
690.0 170 185 100 80
690.0 215 125 104 86
810.0 175 130 116 104
645.0 170 125 164 122
735.0 170 160 156 68
870.0 210 95 116 116
630.0 200 150 100 98
900.0 155 130 160 74
660.0 195 150 124 62
690.0 175 170 132 50
810.0 195 155 176 44
780.0 150 165 132 98
660.0 150 130 144 134
645.0 215 135 140 56
720.0 180 135 116 98
690.0 220 175 112 62
660.0 195 165 92 80
660.0 210 195 140 56
1110.0 215 120 164 62
720.0 160 140 124 110
630.0 175 200 104 92
720.0 185 135 136 62
675.0 160 150 152 80
600.0 110 160 136 146
750.0 195 125 128 80
645.0 130 150 144 116
780.0 185 180 116 50
750.0 240 175 76 86
930.0 145 180 128 62
780.0 205 180 128 38
750.0 150 115 136 110
900.0 145 150 132 74
750.0 185 165 72 110
810.0 105 160 172 104
630.0 200 150 140 62
780.0 160 205 96 86
720.0 185 125 116 86
870.0 155 195 108 92
930.0 215 175 108 62
720.0 225 175 132 44
660.0 220 120 108 98
690.0 175 155 108 92
660.0 210 110 124 74
630.0 120 160 112 104
660.0 145 190 164 62
750.0 205 150 88 116
630.0 155 155 160 116
900.0 165 130 124 116
780.0 165 135 128 104
600.0 165 180 148 80
780.0 130 145 144 98
660.0 200 155 108 74
900.0 155 175 140 62
840.0 155 120 144 104
750.0 145 140 168 110
990.0 215 125 80 128
630.0 150 165 140 92
690.0 160 165 116 92
720.0 190 110 152 110
810.0 145 155 148 92
570.0 195 160 84 104
630.0 175 160 152 44
630.0 175 135 124 74
705.0 170 180 112 92
1020.0 170 135 124 110
750.0 160 135 140 74
600.0 130 205 128 98
675.0 210 160 132 56
810.0 165 155 152 68
840.0 200 115 128 116
900.0 200 100 144 134
930.0 205 110 144 92
1020.0 155 150 120 74
690.0 150 140 140 104
840.0 170 165 124 50
690.0 170 155 132 74
690.0 190 145 108 86
780.0 135 205 128 92
780.0 190 170 120 44
660.0 190 125 100 92
930.0 205 180 88 62
720.0 165 145 92 98
645.0 110 195 148 116
660.0 175 105 112 122
735.0 185 170 88 134
600.0 190 120 156 140
720.0 145 160 156 98
765.0 200 160 144 56
600.0 180 155 148 74
630.0 170 175 144 62
585.0 175 165 104 104
600.0 205 150 112 104
720.0 180 115 140 74
660.0 155 130 128 122
615.0 145 195 140 74
810.0 205 140 144 50
1200.0 150 180 108 110
720.0 150 155 136 74
690.0 175 200 96 80
810.0 155 130 140 92
630.0 155 180 116 62
840.0 165 120 176 98
840.0 135 165 160 80
930.0 155 155 128 68
750.0 210 140 108 86
660.0 155 140 144 116
600.0 160 170 124 92
840.0 135 135 168 128
810.0 200 175 116 62
690.0 170 135 132 104
705.0 150 205 132 92
1050.0 220 180 144 26


Average: 756.32 Min: 555.00 Max: 1200.00
Average: 171.61 Min: 105.00 Max: 245.00
Average: 153.13 Min: 95.00 Max: 205.00
Average: 129.47 Min: 72.00 Max: 176.00
Average: 88.40 Min: 26.00 Max: 146.00
Average: 542.61 Min: 494.00 Max: 624.00 SUM.
Test prove MOEAD success! 
Test Mutation ends
Test improve begin

Mixers available: 21 (of 21)

results/OE 2 G 100 P 100 F 0.30 M 0.80 corssover: false mutation: false improve: true Elitism: false
[90, 168, 206]
now 10 generations
now 20 generations
now 30 generations
now 40 generations
now 50 generations
now 60 generations
now 70 generations
now 80 generations
now 90 generations
Optmisation took: 47129.701 seconds
#front: 190 : uk.ac.york.safire.optimisation.ia.TestIAObjectiveFunction.testMOEAD_RS(TestIAObjectiveFunction.java:420)
results/OE 2 G 100 P 100 F 0.30 M 0.80 corssover: false mutation: false improve: true Elitism: false
1080.0 210 120 112 86
600.0 235 85 144 110
780.0 205 100 152 98
720.0 210 170 92 38
570.0 150 155 104 104
690.0 120 155 120 68
870.0 170 100 164 98
570.0 190 170 100 122
630.0 180 180 140 56
810.0 210 145 124 56
600.0 190 145 136 92
810.0 150 185 104 86
930.0 130 200 100 80
720.0 185 200 80 80
600.0 140 170 132 110
660.0 240 180 88 74
720.0 120 185 112 80
705.0 180 135 144 98
720.0 160 140 152 104
600.0 170 185 124 74
810.0 190 125 156 62
585.0 200 150 124 110
690.0 125 180 124 62
690.0 175 175 104 44
900.0 210 120 128 74
690.0 165 115 140 104
570.0 155 135 144 146
570.0 205 150 108 116
720.0 175 135 128 110
750.0 215 145 92 92
690.0 175 140 156 56
750.0 150 135 140 86
645.0 220 130 148 74
720.0 125 150 144 98
720.0 160 140 168 86
660.0 160 200 88 122
630.0 185 200 140 26
570.0 200 150 132 110
600.0 230 195 92 50
510.0 180 180 108 110
675.0 150 140 136 116
630.0 170 160 144 86
630.0 150 185 128 74
750.0 165 190 144 44
660.0 170 195 116 74
600.0 210 100 144 104
660.0 205 175 80 86
720.0 135 145 148 92
615.0 165 175 92 92
690.0 155 135 132 110
690.0 220 115 132 98
750.0 155 150 132 98
660.0 165 120 148 98
645.0 210 180 120 50
720.0 185 150 132 50
570.0 160 205 96 86
660.0 160 145 128 62
660.0 125 180 128 116
675.0 155 145 124 110
630.0 155 215 128 56
705.0 110 210 136 80
930.0 135 150 144 80
720.0 120 150 136 128
1050.0 180 160 96 104
690.0 215 115 136 98
585.0 195 150 124 116
555.0 210 185 108 104
660.0 225 115 144 62
660.0 190 120 144 92
570.0 185 190 124 92
660.0 145 205 88 80
630.0 145 155 112 98
600.0 195 140 96 68
720.0 150 180 100 122
900.0 205 105 120 80
690.0 160 195 88 128
600.0 185 105 112 110
585.0 210 160 96 146
810.0 185 105 144 98
630.0 185 135 128 86
570.0 220 160 144 74
930.0 225 180 88 62
1110.0 195 95 140 128
750.0 165 175 156 56
690.0 175 220 148 38
690.0 190 170 88 116
660.0 185 130 144 62
585.0 125 185 104 110
600.0 150 175 132 98
720.0 205 160 84 116
570.0 225 170 96 68
630.0 165 140 104 92
555.0 225 150 144 74
750.0 195 150 92 98
630.0 190 140 140 74
900.0 225 115 124 68
600.0 190 150 120 92
780.0 145 140 140 98
780.0 190 170 96 92
540.0 185 130 156 122
630.0 220 115 136 86
630.0 160 120 156 98
540.0 130 200 120 122
720.0 205 135 104 68
720.0 200 165 92 110
585.0 205 210 84 92
1020.0 190 160 128 56
660.0 175 165 132 50
780.0 175 190 132 38
600.0 190 130 132 98
750.0 180 110 116 134
570.0 145 150 140 110
660.0 130 160 128 74
750.0 185 110 100 92
660.0 185 160 100 110
600.0 180 155 148 92
690.0 155 190 116 86
780.0 255 155 92 74
780.0 160 160 108 86
690.0 210 115 144 74
615.0 145 140 124 128
600.0 205 120 124 86
585.0 215 160 96 80
930.0 185 180 76 116
690.0 180 165 136 38
720.0 170 155 84 122
750.0 185 170 108 56
570.0 180 165 128 80
660.0 230 125 84 98
750.0 190 160 164 44
900.0 180 130 148 56
660.0 125 115 160 98
630.0 165 155 156 62
780.0 165 175 124 56
870.0 170 185 80 104
630.0 190 190 84 44
660.0 190 140 112 68
840.0 145 150 148 62
660.0 105 175 140 98
720.0 195 150 116 44
630.0 160 130 136 122
630.0 175 145 104 62
630.0 190 170 96 110
780.0 120 135 124 104
630.0 120 165 132 98
600.0 135 130 160 92
855.0 165 140 148 68
570.0 210 165 120 80
750.0 165 180 112 74
720.0 160 150 116 74
570.0 235 145 112 86
750.0 185 165 80 116
600.0 165 125 144 104
720.0 160 105 144 128
780.0 170 180 140 50
660.0 205 170 88 92
720.0 235 110 104 62
750.0 205 155 76 122
765.0 185 145 148 56
660.0 220 165 160 26
750.0 185 115 128 80
585.0 160 165 104 86
690.0 170 185 120 62
720.0 160 150 100 98
600.0 220 135 120 98
810.0 205 145 92 116
690.0 150 130 140 122
660.0 185 120 120 98
780.0 130 120 152 110
615.0 145 155 140 104
600.0 210 170 152 62
765.0 155 135 128 116
690.0 160 130 136 110
630.0 190 130 140 92
720.0 170 125 136 68
660.0 190 135 120 68
660.0 230 100 136 128
720.0 160 190 92 56
810.0 135 100 140 116
660.0 190 140 100 110
810.0 215 165 92 86
870.0 170 125 100 104
750.0 160 125 116 86
630.0 165 135 132 134
690.0 170 140 112 86
615.0 180 160 140 92
750.0 175 120 136 86
600.0 130 125 148 110
600.0 160 175 152 62
660.0 170 125 124 134


Average: 693.32 Min: 510.00 Max: 1110.00
Average: 177.47 Min: 105.00 Max: 255.00
Average: 151.58 Min: 85.00 Max: 220.00
Average: 122.78 Min: 76.00 Max: 168.00
Average: 88.21 Min: 26.00 Max: 146.00
Average: 540.04 Min: 463.00 Max: 612.00 SUM.
Test prove MOEAD success! 

Mixers available: 21 (of 21)

results/OE 1 G 100 P 100 F 0.30 M 0.80
now 10 generations
now 20 generations
now 30 generations
now 40 generations
now 50 generations
now 60 generations
now 70 generations
now 80 generations
now 90 generations
Optmisation took: 940.003 seconds
#front: 197 : uk.ac.york.safire.optimisation.ia.TestIAObjectiveFunction.testMOEAD(TestIAObjectiveFunction.java:327)
results/OE 1 G 100 P 100 F 0.30 M 0.80
780.0 155 185 100 116
600.0 140 145 124 128
750.0 155 140 124 86
720.0 150 150 148 98
1020.0 180 125 124 98
630.0 170 150 116 86
750.0 115 180 152 92
900.0 130 180 132 92
720.0 110 165 132 104
720.0 160 200 140 50
840.0 165 155 120 86
900.0 195 135 124 68
600.0 210 180 144 74
705.0 160 145 128 98
720.0 155 175 128 74
750.0 175 140 120 104
720.0 135 155 136 110
780.0 155 165 136 68
870.0 165 130 128 104
675.0 175 130 128 116
810.0 140 160 140 98
690.0 190 180 100 80
660.0 160 155 144 104
930.0 245 155 116 68
705.0 115 165 156 134
870.0 170 120 140 104
660.0 125 165 136 98
630.0 160 155 120 122
750.0 180 105 144 98
600.0 170 140 124 116
690.0 165 150 148 86
720.0 170 140 148 80
900.0 180 155 120 44
780.0 180 140 120 62
930.0 205 120 132 80
1200.0 195 105 128 116
660.0 185 140 92 128
600.0 205 175 112 86
1140.0 165 165 140 62
840.0 145 185 152 68
750.0 210 125 132 44
660.0 180 155 128 62
660.0 170 150 152 80
555.0 180 170 152 122
780.0 165 185 140 32
810.0 155 170 100 110
630.0 210 175 108 86
930.0 120 140 176 122
780.0 160 160 128 80
690.0 145 170 144 86
900.0 195 135 144 56
690.0 145 125 164 134
840.0 145 155 140 92
690.0 140 145 160 86
720.0 185 175 120 80
780.0 180 160 156 38
930.0 160 100 148 128
840.0 150 180 152 50
1110.0 205 165 144 38
870.0 215 145 124 50
810.0 160 155 124 74
780.0 190 135 116 80
660.0 200 185 160 26
840.0 130 185 104 116
660.0 195 120 120 110
870.0 140 180 132 98
1020.0 130 140 144 80
600.0 215 145 88 116
930.0 120 140 160 128
840.0 220 95 156 110
750.0 165 160 112 68
570.0 195 155 132 110
735.0 165 170 104 92
810.0 210 100 148 116
690.0 130 195 124 98
690.0 165 175 96 146
660.0 230 165 80 80
960.0 195 120 132 98
660.0 140 150 108 122
690.0 170 185 100 80
900.0 145 185 160 50
690.0 215 125 104 86
810.0 175 130 116 104
645.0 170 125 164 122
735.0 170 160 156 68
870.0 210 95 116 116
630.0 200 150 100 98
900.0 155 130 160 74
660.0 195 150 124 62
690.0 175 170 132 50
810.0 195 155 176 44
780.0 150 165 132 98
660.0 150 130 144 134
645.0 215 135 140 56
720.0 180 135 116 98
690.0 220 175 112 62
660.0 195 165 92 80
660.0 210 195 140 56
1110.0 215 120 164 62
720.0 160 140 124 110
720.0 130 145 160 122
630.0 175 200 104 92
720.0 185 135 136 62
675.0 160 150 152 80
600.0 110 160 136 146
750.0 195 125 128 80
645.0 130 150 144 116
780.0 185 180 116 50
750.0 240 175 76 86
930.0 145 180 128 62
780.0 205 180 128 38
750.0 150 115 136 110
900.0 145 150 132 74
750.0 185 165 72 110
810.0 105 160 172 104
630.0 200 150 140 62
780.0 160 205 96 86
720.0 185 125 116 86
870.0 155 195 108 92
930.0 215 175 108 62
720.0 225 175 132 44
660.0 220 120 108 98
690.0 175 155 108 92
660.0 210 110 124 74
630.0 120 160 112 104
660.0 145 190 164 62
750.0 205 150 88 116
630.0 155 155 160 116
900.0 165 130 124 116
780.0 165 135 128 104
600.0 165 180 148 80
780.0 130 145 144 98
660.0 200 155 108 74
900.0 155 175 140 62
840.0 155 120 144 104
750.0 145 140 168 110
990.0 215 125 80 128
630.0 150 165 140 92
690.0 160 165 116 92
720.0 190 110 152 110
810.0 145 155 148 92
570.0 195 160 84 104
630.0 175 160 152 44
630.0 175 135 124 74
705.0 170 180 112 92
1020.0 170 135 124 110
750.0 160 135 140 74
600.0 130 205 128 98
675.0 210 160 132 56
810.0 165 155 152 68
840.0 200 115 128 116
900.0 200 100 144 134
930.0 205 110 144 92
1020.0 155 150 120 74
690.0 150 140 140 104
840.0 170 165 124 50
660.0 205 140 88 122
690.0 170 155 132 74
690.0 190 145 108 86
780.0 135 205 128 92
720.0 205 165 136 44
780.0 190 170 120 44
660.0 190 125 100 92
930.0 205 180 88 62
720.0 165 145 92 98
645.0 110 195 148 116
660.0 175 105 112 122
735.0 185 170 88 134
600.0 190 120 156 140
720.0 145 160 156 98
765.0 200 160 144 56
630.0 170 145 132 98
600.0 180 155 148 74
630.0 170 175 144 62
585.0 175 165 104 104
600.0 205 150 112 104
720.0 180 115 140 74
660.0 155 130 128 122
615.0 145 195 140 74
810.0 205 140 144 50
1200.0 150 180 108 110
720.0 150 155 136 74
690.0 175 200 96 80
810.0 155 130 140 92
630.0 155 180 116 62
840.0 165 120 176 98
840.0 135 165 160 80
930.0 155 155 128 68
750.0 210 140 108 86
660.0 155 140 144 116
600.0 160 170 124 92
840.0 135 135 168 128
810.0 200 175 116 62
690.0 170 135 132 104
705.0 150 205 132 92
990.0 150 210 108 98
1050.0 220 180 144 26


Average: 757.77 Min: 555.00 Max: 1200.00
Average: 171.60 Min: 105.00 Max: 245.00
Average: 153.32 Min: 95.00 Max: 210.00
Average: 129.52 Min: 72.00 Max: 176.00
Average: 88.47 Min: 26.00 Max: 146.00
Average: 542.91 Min: 494.00 Max: 624.00 SUM.
Test prove MOEAD success! 
Test improve ends
Test Elitism begin

Mixers available: 21 (of 21)

results/OE 2 G 100 P 100 F 0.30 M 0.80 corssover: false mutation: false improve: false Elitism: true
[90, 168, 206]
now 10 generations
now 20 generations
now 30 generations
now 40 generations
now 50 generations
now 60 generations
now 70 generations
now 80 generations
now 90 generations
Optmisation took: 1087.47 seconds
#front: 4 : uk.ac.york.safire.optimisation.ia.TestIAObjectiveFunction.testMOEAD_RS(TestIAObjectiveFunction.java:420)
results/OE 2 G 100 P 100 F 0.30 M 0.80 corssover: false mutation: false improve: false Elitism: true
510.0 125 105 96 50
630.0 110 105 76 38
690.0 100 90 52 38
750.0 100 85 52 38


Average: 645.00 Min: 510.00 Max: 750.00
Average: 108.75 Min: 100.00 Max: 125.00
Average: 96.25 Min: 85.00 Max: 105.00
Average: 69.00 Min: 52.00 Max: 96.00
Average: 41.00 Min: 38.00 Max: 50.00
Average: 315.00 Min: 275.00 Max: 376.00 SUM.
Test prove MOEAD success! 

Mixers available: 21 (of 21)

results/OE 1 G 100 P 100 F 0.30 M 0.80
now 10 generations
now 20 generations
now 30 generations
now 40 generations
now 50 generations
now 60 generations
now 70 generations
now 80 generations
now 90 generations
Optmisation took: 1072.845 seconds
#front: 202 : uk.ac.york.safire.optimisation.ia.TestIAObjectiveFunction.testMOEAD(TestIAObjectiveFunction.java:327)
results/OE 1 G 100 P 100 F 0.30 M 0.80
780.0 155 185 100 116
600.0 140 145 124 128
750.0 155 140 124 86
720.0 150 150 148 98
1020.0 180 125 124 98
630.0 170 150 116 86
750.0 115 180 152 92
900.0 130 180 132 92
720.0 110 165 132 104
720.0 160 200 140 50
840.0 165 155 120 86
900.0 195 135 124 68
600.0 210 180 144 74
705.0 160 145 128 98
720.0 155 175 128 74
750.0 175 140 120 104
720.0 135 155 136 110
780.0 155 165 136 68
870.0 165 130 128 104
675.0 175 130 128 116
810.0 140 160 140 98
690.0 190 180 100 80
660.0 160 155 144 104
930.0 245 155 116 68
705.0 115 165 156 134
870.0 170 120 140 104
660.0 125 165 136 98
630.0 160 155 120 122
750.0 180 105 144 98
600.0 170 140 124 116
690.0 165 150 148 86
720.0 170 140 148 80
900.0 180 155 120 44
780.0 180 140 120 62
930.0 205 120 132 80
1200.0 195 105 128 116
660.0 185 140 92 128
600.0 205 175 112 86
1140.0 165 165 140 62
840.0 145 185 152 68
750.0 210 125 132 44
660.0 180 155 128 62
660.0 170 150 152 80
555.0 180 170 152 122
780.0 165 185 140 32
810.0 155 170 100 110
630.0 210 175 108 86
930.0 120 140 176 122
780.0 160 160 128 80
690.0 145 170 144 86
900.0 195 135 144 56
690.0 145 125 164 134
840.0 145 155 140 92
690.0 140 145 160 86
720.0 185 175 120 80
780.0 180 160 156 38
930.0 160 100 148 128
840.0 150 180 152 50
1110.0 205 165 144 38
870.0 215 145 124 50
810.0 160 155 124 74
780.0 190 135 116 80
660.0 200 185 160 26
840.0 130 185 104 116
660.0 195 120 120 110
870.0 140 180 132 98
1020.0 130 140 144 80
600.0 215 145 88 116
930.0 120 140 160 128
840.0 220 95 156 110
750.0 165 160 112 68
570.0 195 155 132 110
735.0 165 170 104 92
810.0 210 100 148 116
690.0 130 195 124 98
690.0 165 175 96 146
660.0 230 165 80 80
960.0 195 120 132 98
660.0 140 150 108 122
690.0 170 185 100 80
900.0 145 185 160 50
690.0 215 125 104 86
810.0 175 130 116 104
645.0 170 125 164 122
990.0 235 130 148 32
720.0 165 130 164 98
735.0 170 160 156 68
870.0 210 95 116 116
630.0 200 150 100 98
900.0 155 130 160 74
660.0 195 150 124 62
690.0 175 170 132 50
810.0 195 155 176 44
780.0 150 165 132 98
660.0 150 130 144 134
645.0 215 135 140 56
720.0 180 135 116 98
690.0 220 175 112 62
870.0 220 110 132 68
660.0 195 165 92 80
660.0 210 195 140 56
1110.0 215 120 164 62
720.0 160 140 124 110
720.0 130 145 160 122
630.0 175 200 104 92
720.0 185 135 136 62
675.0 160 150 152 80
600.0 110 160 136 146
750.0 195 125 128 80
645.0 130 150 144 116
780.0 185 180 116 50
750.0 240 175 76 86
930.0 145 180 128 62
780.0 205 180 128 38
750.0 150 115 136 110
900.0 145 150 132 74
750.0 185 165 72 110
810.0 105 160 172 104
630.0 200 150 140 62
780.0 160 205 96 86
720.0 185 125 116 86
870.0 155 195 108 92
930.0 215 175 108 62
720.0 225 175 132 44
660.0 220 120 108 98
690.0 175 155 108 92
660.0 210 110 124 74
630.0 120 160 112 104
660.0 145 190 164 62
750.0 205 150 88 116
630.0 155 155 160 116
900.0 165 130 124 116
780.0 165 135 128 104
600.0 165 180 148 80
780.0 130 145 144 98
660.0 200 155 108 74
900.0 155 175 140 62
840.0 155 120 144 104
750.0 145 140 168 110
990.0 215 125 80 128
690.0 115 145 172 80
630.0 150 165 140 92
690.0 160 165 116 92
720.0 190 110 152 110
810.0 145 155 148 92
570.0 195 160 84 104
630.0 175 160 152 44
630.0 175 135 124 74
705.0 170 180 112 92
1020.0 170 135 124 110
750.0 160 135 140 74
600.0 130 205 128 98
675.0 210 160 132 56
810.0 165 155 152 68
840.0 200 115 128 116
900.0 200 100 144 134
930.0 205 110 144 92
1020.0 155 150 120 74
690.0 150 140 140 104
840.0 170 165 124 50
660.0 205 140 88 122
750.0 225 175 124 56
690.0 170 155 132 74
690.0 190 145 108 86
780.0 135 205 128 92
720.0 205 165 136 44
780.0 190 170 120 44
660.0 190 125 100 92
930.0 205 180 88 62
720.0 165 145 92 98
645.0 110 195 148 116
660.0 175 105 112 122
735.0 185 170 88 134
600.0 190 120 156 140
720.0 145 160 156 98
765.0 200 160 144 56
630.0 170 145 132 98
600.0 180 155 148 74
630.0 170 175 144 62
585.0 175 165 104 104
600.0 205 150 112 104
720.0 180 115 140 74
660.0 155 130 128 122
615.0 145 195 140 74
810.0 205 140 144 50
1200.0 150 180 108 110
720.0 150 155 136 74
690.0 175 200 96 80
810.0 155 130 140 92
630.0 155 180 116 62
840.0 165 120 176 98
840.0 135 165 160 80
930.0 155 155 128 68
750.0 210 140 108 86
660.0 155 140 144 116
600.0 160 170 124 92
840.0 135 135 168 128
810.0 200 175 116 62
690.0 170 135 132 104
705.0 150 205 132 92
990.0 150 210 108 98
1050.0 220 180 144 26


Average: 758.91 Min: 555.00 Max: 1200.00
Average: 172.10 Min: 105.00 Max: 245.00
Average: 152.95 Min: 95.00 Max: 210.00
Average: 129.98 Min: 72.00 Max: 176.00
Average: 87.93 Min: 26.00 Max: 146.00
Average: 542.96 Min: 494.00 Max: 624.00 SUM.
Test prove MOEAD success! 
Test Elitism ends


