%!PS-Adobe-3.0 EPSF-3.0
%%Creator: (MATLAB, The Mathworks, Inc. Version 9.3.0.713579 \(R2017b\). Operating System: Windows 10)
%%Title: C:/Users/zhaos/Desktop/safire/NewFacilities.eps
%%CreationDate: 2018-11-06T18:12:48
%%Pages: (atend)
%%BoundingBox: 0 0 639 258
%%LanguageLevel: 3
%%EndComments
%%BeginProlog
%%BeginResource: procset (Apache XML Graphics Std ProcSet) 1.2 0
%%Version: 1.2 0
%%Copyright: (Copyright 2001-2003,2010 The Apache Software Foundation. License terms: http://www.apache.org/licenses/LICENSE-2.0)
/bd{bind def}bind def
/ld{load def}bd
/GR/grestore ld
/GS/gsave ld
/RM/rmoveto ld
/C/curveto ld
/t/show ld
/L/lineto ld
/ML/setmiterlimit ld
/CT/concat ld
/f/fill ld
/N/newpath ld
/S/stroke ld
/CC/setcmykcolor ld
/A/ashow ld
/cp/closepath ld
/RC/setrgbcolor ld
/LJ/setlinejoin ld
/GC/setgray ld
/LW/setlinewidth ld
/M/moveto ld
/re {4 2 roll M
1 index 0 rlineto
0 exch rlineto
neg 0 rlineto
cp } bd
/_ctm matrix def
/_tm matrix def
/BT { _ctm currentmatrix pop matrix _tm copy pop 0 0 moveto } bd
/ET { _ctm setmatrix } bd
/iTm { _ctm setmatrix _tm concat } bd
/Tm { _tm astore pop iTm 0 0 moveto } bd
/ux 0.0 def
/uy 0.0 def
/F {
  /Tp exch def
  /Tf exch def
  Tf findfont Tp scalefont setfont
  /cf Tf def  /cs Tp def
} bd
/ULS {currentpoint /uy exch def /ux exch def} bd
/ULE {
  /Tcx currentpoint pop def
  gsave
  newpath
  cf findfont cs scalefont dup
  /FontMatrix get 0 get /Ts exch def /FontInfo get dup
  /UnderlinePosition get Ts mul /To exch def
  /UnderlineThickness get Ts mul /Tt exch def
  ux uy To add moveto  Tcx uy To add lineto
  Tt setlinewidth stroke
  grestore
} bd
/OLE {
  /Tcx currentpoint pop def
  gsave
  newpath
  cf findfont cs scalefont dup
  /FontMatrix get 0 get /Ts exch def /FontInfo get dup
  /UnderlinePosition get Ts mul /To exch def
  /UnderlineThickness get Ts mul /Tt exch def
  ux uy To add cs add moveto Tcx uy To add cs add lineto
  Tt setlinewidth stroke
  grestore
} bd
/SOE {
  /Tcx currentpoint pop def
  gsave
  newpath
  cf findfont cs scalefont dup
  /FontMatrix get 0 get /Ts exch def /FontInfo get dup
  /UnderlinePosition get Ts mul /To exch def
  /UnderlineThickness get Ts mul /Tt exch def
  ux uy To add cs 10 mul 26 idiv add moveto Tcx uy To add cs 10 mul 26 idiv add lineto
  Tt setlinewidth stroke
  grestore
} bd
/QT {
/Y22 exch store
/X22 exch store
/Y21 exch store
/X21 exch store
currentpoint
/Y21 load 2 mul add 3 div exch
/X21 load 2 mul add 3 div exch
/X21 load 2 mul /X22 load add 3 div
/Y21 load 2 mul /Y22 load add 3 div
/X22 load /Y22 load curveto
} bd
/SSPD {
dup length /d exch dict def
{
/v exch def
/k exch def
currentpagedevice k known {
/cpdv currentpagedevice k get def
v cpdv ne {
/upd false def
/nullv v type /nulltype eq def
/nullcpdv cpdv type /nulltype eq def
nullv nullcpdv or
{
/upd true def
} {
/sametype v type cpdv type eq def
sametype {
v type /arraytype eq {
/vlen v length def
/cpdvlen cpdv length def
vlen cpdvlen eq {
0 1 vlen 1 sub {
/i exch def
/obj v i get def
/cpdobj cpdv i get def
obj cpdobj ne {
/upd true def
exit
} if
} for
} {
/upd true def
} ifelse
} {
v type /dicttype eq {
v {
/dv exch def
/dk exch def
/cpddv cpdv dk get def
dv cpddv ne {
/upd true def
exit
} if
} forall
} {
/upd true def
} ifelse
} ifelse
} if
} ifelse
upd true eq {
d k v put
} if
} if
} if
} forall
d length 0 gt {
d setpagedevice
} if
} bd
/RE { % /NewFontName [NewEncodingArray] /FontName RE -
  findfont dup length dict begin
  {
    1 index /FID ne
    {def} {pop pop} ifelse
  } forall
  /Encoding exch def
  /FontName 1 index def
  currentdict definefont pop
  end
} bind def
%%EndResource
%%BeginResource: procset (Apache XML Graphics EPS ProcSet) 1.0 0
%%Version: 1.0 0
%%Copyright: (Copyright 2002-2003 The Apache Software Foundation. License terms: http://www.apache.org/licenses/LICENSE-2.0)
/BeginEPSF { %def
/b4_Inc_state save def         % Save state for cleanup
/dict_count countdictstack def % Count objects on dict stack
/op_count count 1 sub def      % Count objects on operand stack
userdict begin                 % Push userdict on dict stack
/showpage { } def              % Redefine showpage, { } = null proc
0 setgray 0 setlinecap         % Prepare graphics state
1 setlinewidth 0 setlinejoin
10 setmiterlimit [ ] 0 setdash newpath
/languagelevel where           % If level not equal to 1 then
{pop languagelevel             % set strokeadjust and
1 ne                           % overprint to their defaults.
{false setstrokeadjust false setoverprint
} if
} if
} bd
/EndEPSF { %def
count op_count sub {pop} repeat            % Clean up stacks
countdictstack dict_count sub {end} repeat
b4_Inc_state restore
} bd
%%EndResource
%FOPBeginFontDict
%%IncludeResource: font Courier-Oblique
%%IncludeResource: font Courier-BoldOblique
%%IncludeResource: font Courier-Bold
%%IncludeResource: font ZapfDingbats
%%IncludeResource: font Symbol
%%IncludeResource: font Helvetica
%%IncludeResource: font Helvetica-Oblique
%%IncludeResource: font Helvetica-Bold
%%IncludeResource: font Helvetica-BoldOblique
%%IncludeResource: font Times-Roman
%%IncludeResource: font Times-Italic
%%IncludeResource: font Times-Bold
%%IncludeResource: font Times-BoldItalic
%%IncludeResource: font Courier
%FOPEndFontDict
%%BeginResource: encoding WinAnsiEncoding
/WinAnsiEncoding [
/.notdef /.notdef /.notdef /.notdef /.notdef
/.notdef /.notdef /.notdef /.notdef /.notdef
/.notdef /.notdef /.notdef /.notdef /.notdef
/.notdef /.notdef /.notdef /.notdef /.notdef
/.notdef /.notdef /.notdef /.notdef /.notdef
/.notdef /.notdef /.notdef /.notdef /.notdef
/.notdef /.notdef /space /exclam /quotedbl
/numbersign /dollar /percent /ampersand /quotesingle
/parenleft /parenright /asterisk /plus /comma
/hyphen /period /slash /zero /one
/two /three /four /five /six
/seven /eight /nine /colon /semicolon
/less /equal /greater /question /at
/A /B /C /D /E
/F /G /H /I /J
/K /L /M /N /O
/P /Q /R /S /T
/U /V /W /X /Y
/Z /bracketleft /backslash /bracketright /asciicircum
/underscore /quoteleft /a /b /c
/d /e /f /g /h
/i /j /k /l /m
/n /o /p /q /r
/s /t /u /v /w
/x /y /z /braceleft /bar
/braceright /asciitilde /bullet /Euro /bullet
/quotesinglbase /florin /quotedblbase /ellipsis /dagger
/daggerdbl /circumflex /perthousand /Scaron /guilsinglleft
/OE /bullet /Zcaron /bullet /bullet
/quoteleft /quoteright /quotedblleft /quotedblright /bullet
/endash /emdash /asciitilde /trademark /scaron
/guilsinglright /oe /bullet /zcaron /Ydieresis
/space /exclamdown /cent /sterling /currency
/yen /brokenbar /section /dieresis /copyright
/ordfeminine /guillemotleft /logicalnot /sfthyphen /registered
/macron /degree /plusminus /twosuperior /threesuperior
/acute /mu /paragraph /middot /cedilla
/onesuperior /ordmasculine /guillemotright /onequarter /onehalf
/threequarters /questiondown /Agrave /Aacute /Acircumflex
/Atilde /Adieresis /Aring /AE /Ccedilla
/Egrave /Eacute /Ecircumflex /Edieresis /Igrave
/Iacute /Icircumflex /Idieresis /Eth /Ntilde
/Ograve /Oacute /Ocircumflex /Otilde /Odieresis
/multiply /Oslash /Ugrave /Uacute /Ucircumflex
/Udieresis /Yacute /Thorn /germandbls /agrave
/aacute /acircumflex /atilde /adieresis /aring
/ae /ccedilla /egrave /eacute /ecircumflex
/edieresis /igrave /iacute /icircumflex /idieresis
/eth /ntilde /ograve /oacute /ocircumflex
/otilde /odieresis /divide /oslash /ugrave
/uacute /ucircumflex /udieresis /yacute /thorn
/ydieresis
] def
%%EndResource
%FOPBeginFontReencode
/Courier-Oblique findfont
dup length dict begin
  {1 index /FID ne {def} {pop pop} ifelse} forall
  /Encoding WinAnsiEncoding def
  currentdict
end
/Courier-Oblique exch definefont pop
/Courier-BoldOblique findfont
dup length dict begin
  {1 index /FID ne {def} {pop pop} ifelse} forall
  /Encoding WinAnsiEncoding def
  currentdict
end
/Courier-BoldOblique exch definefont pop
/Courier-Bold findfont
dup length dict begin
  {1 index /FID ne {def} {pop pop} ifelse} forall
  /Encoding WinAnsiEncoding def
  currentdict
end
/Courier-Bold exch definefont pop
/Helvetica findfont
dup length dict begin
  {1 index /FID ne {def} {pop pop} ifelse} forall
  /Encoding WinAnsiEncoding def
  currentdict
end
/Helvetica exch definefont pop
/Helvetica-Oblique findfont
dup length dict begin
  {1 index /FID ne {def} {pop pop} ifelse} forall
  /Encoding WinAnsiEncoding def
  currentdict
end
/Helvetica-Oblique exch definefont pop
/Helvetica-Bold findfont
dup length dict begin
  {1 index /FID ne {def} {pop pop} ifelse} forall
  /Encoding WinAnsiEncoding def
  currentdict
end
/Helvetica-Bold exch definefont pop
/Helvetica-BoldOblique findfont
dup length dict begin
  {1 index /FID ne {def} {pop pop} ifelse} forall
  /Encoding WinAnsiEncoding def
  currentdict
end
/Helvetica-BoldOblique exch definefont pop
/Times-Roman findfont
dup length dict begin
  {1 index /FID ne {def} {pop pop} ifelse} forall
  /Encoding WinAnsiEncoding def
  currentdict
end
/Times-Roman exch definefont pop
/Times-Italic findfont
dup length dict begin
  {1 index /FID ne {def} {pop pop} ifelse} forall
  /Encoding WinAnsiEncoding def
  currentdict
end
/Times-Italic exch definefont pop
/Times-Bold findfont
dup length dict begin
  {1 index /FID ne {def} {pop pop} ifelse} forall
  /Encoding WinAnsiEncoding def
  currentdict
end
/Times-Bold exch definefont pop
/Times-BoldItalic findfont
dup length dict begin
  {1 index /FID ne {def} {pop pop} ifelse} forall
  /Encoding WinAnsiEncoding def
  currentdict
end
/Times-BoldItalic exch definefont pop
/Courier findfont
dup length dict begin
  {1 index /FID ne {def} {pop pop} ifelse} forall
  /Encoding WinAnsiEncoding def
  currentdict
end
/Courier exch definefont pop
%FOPEndFontReencode
%%EndProlog
%%Page: 1 1
%%PageBoundingBox: 0 0 639 258
%%BeginPageSetup
[1 0 0 -1 0 258] CT
%%EndPageSetup
GS
[0.75 0 0 0.75 0 0] CT
1 GC
N
0 0 852 344 re
f
GR
GS
[0.75 0 0 0.75 0 0] CT
1 GC
N
0 0 852 344 re
f
GR
GS
[0.75 0 0 0.75 0 0] CT
1 GC
N
111 302 M
771 302 L
771 26 L
111 26 L
cp
f
GR
GS
[0.75 0 0 0.75 0 0] CT
0.149 GC
2 setlinecap
1 LJ
0.667 LW
N
111 302 M
771 302 L
S
GR
GS
[0.75 0 0 0.75 0 0] CT
0.149 GC
2 setlinecap
1 LJ
0.667 LW
N
111 26 M
771 26 L
S
GR
GS
[0.75 0 0 0.75 0 0] CT
0.149 GC
2 setlinecap
1 LJ
0.667 LW
N
232.579 302 M
232.579 295.4 L
S
GR
GS
[0.75 0 0 0.75 0 0] CT
0.149 GC
2 setlinecap
1 LJ
0.667 LW
N
441 302 M
441 295.4 L
S
GR
GS
[0.75 0 0 0.75 0 0] CT
0.149 GC
2 setlinecap
1 LJ
0.667 LW
N
649.421 302 M
649.421 295.4 L
S
GR
GS
[0.75 0 0 0.75 0 0] CT
0.149 GC
2 setlinecap
1 LJ
0.667 LW
N
232.579 26 M
232.579 32.6 L
S
GR
GS
[0.75 0 0 0.75 0 0] CT
0.149 GC
2 setlinecap
1 LJ
0.667 LW
N
441 26 M
441 32.6 L
S
GR
GS
[0.75 0 0 0.75 0 0] CT
0.149 GC
2 setlinecap
1 LJ
0.667 LW
N
649.421 26 M
649.421 32.6 L
S
GR
GS
[0.75 0 0 0.75 174.43421 230.50001] CT
0.149 GC
N
-28.806 11.2 M
-28.806 10.747 L
-27.462 10.747 -27.462 9.981 QT
-27.462 3.184 L
-27.462 2.778 -28.806 2.778 QT
-28.806 2.325 L
-26.353 2.325 L
-26.181 2.325 -26.134 2.466 QT
-23.306 9.825 L
-20.478 2.466 L
-20.416 2.325 -20.259 2.325 QT
-17.806 2.325 L
-17.806 2.778 L
-19.15 2.778 -19.15 3.184 QT
-19.15 10.325 L
-19.15 10.747 -17.806 10.747 QT
-17.806 11.2 L
-21.587 11.2 L
-21.587 10.747 L
-20.259 10.747 -20.259 10.325 QT
-20.259 2.762 L
-23.447 11.059 L
-23.509 11.2 -23.666 11.2 QT
-23.837 11.2 -23.884 11.059 QT
-27.056 2.872 L
-27.056 9.981 L
-27.056 10.747 -25.712 10.747 QT
-25.712 11.2 L
-28.806 11.2 L
cp
f
GR
GS
[0.75 0 0 0.75 174.43421 230.50001] CT
0.149 GC
N
-11.975 11.481 M
-13.209 11.481 -14.201 10.825 QT
-15.193 10.169 -15.748 9.083 QT
-16.303 7.997 -16.303 6.794 QT
-16.303 5.903 -15.982 5.036 QT
-15.662 4.169 -15.092 3.497 QT
-14.521 2.825 -13.717 2.427 QT
-12.912 2.028 -11.975 2.028 QT
-11.053 2.028 -10.248 2.427 QT
-9.443 2.825 -8.865 3.505 QT
-8.287 4.184 -7.975 5.028 QT
-7.662 5.872 -7.662 6.794 QT
-7.662 7.997 -8.217 9.083 QT
-8.771 10.169 -9.764 10.825 QT
-10.756 11.481 -11.975 11.481 QT
cp
-14.131 9.794 M
-13.756 10.387 -13.193 10.739 QT
-12.631 11.091 -11.975 11.091 QT
-11.553 11.091 -11.146 10.927 QT
-10.74 10.762 -10.404 10.458 QT
-10.068 10.153 -9.834 9.794 QT
-9.053 8.622 -9.053 6.591 QT
-9.053 4.716 -9.834 3.622 QT
-10.209 3.075 -10.779 2.747 QT
-11.35 2.419 -11.975 2.419 QT
-12.615 2.419 -13.186 2.747 QT
-13.756 3.075 -14.131 3.622 QT
-14.443 4.044 -14.607 4.52 QT
-14.771 4.997 -14.842 5.512 QT
-14.912 6.028 -14.912 6.591 QT
-14.912 7.169 -14.85 7.731 QT
-14.787 8.294 -14.607 8.833 QT
-14.428 9.372 -14.131 9.794 QT
cp
f
GR
GS
[0.75 0 0 0.75 174.43421 230.50001] CT
0.149 GC
N
-6.26 11.2 M
-6.26 10.747 L
-4.932 10.747 -4.932 10.325 QT
-4.932 3.184 L
-4.932 2.778 -6.26 2.778 QT
-6.26 2.325 L
1.083 2.325 L
1.443 5.294 L
1.068 5.294 L
0.927 4.169 0.677 3.661 QT
0.427 3.153 -0.12 2.966 QT
-0.667 2.778 -1.776 2.778 QT
-3.057 2.778 L
-3.292 2.778 -3.424 2.794 QT
-3.557 2.809 -3.635 2.903 QT
-3.714 2.997 -3.714 3.184 QT
-3.714 6.356 L
-2.76 6.356 L
-2.089 6.356 -1.768 6.247 QT
-1.448 6.137 -1.323 5.825 QT
-1.198 5.512 -1.198 4.841 QT
-0.807 4.841 L
-0.807 8.341 L
-1.198 8.341 L
-1.198 7.684 -1.323 7.364 QT
-1.448 7.044 -1.768 6.934 QT
-2.089 6.825 -2.76 6.825 QT
-3.714 6.825 L
-3.714 10.325 L
-3.714 10.606 -3.557 10.677 QT
-3.401 10.747 -3.057 10.747 QT
-1.682 10.747 L
-0.776 10.747 -0.221 10.598 QT
0.333 10.45 0.646 10.122 QT
0.958 9.794 1.122 9.262 QT
1.286 8.731 1.427 7.794 QT
1.802 7.794 L
1.255 11.2 L
-6.26 11.2 L
cp
f
GR
GS
[0.75 0 0 0.75 174.43421 230.50001] CT
0.149 GC
N
2.829 11.2 M
2.829 10.747 L
3.986 10.747 4.251 9.981 QT
6.986 2.028 L
7.017 1.887 7.189 1.887 QT
7.361 1.887 L
7.532 1.887 7.564 2.028 QT
10.423 10.325 L
10.532 10.606 10.876 10.677 QT
11.22 10.747 11.72 10.747 QT
11.72 11.2 L
8.095 11.2 L
8.095 10.747 L
9.173 10.747 9.173 10.387 QT
9.173 10.325 L
8.47 8.294 L
5.314 8.294 L
4.736 9.981 L
4.72 10.012 4.72 10.106 QT
4.72 10.434 5.032 10.591 QT
5.345 10.747 5.689 10.747 QT
5.689 11.2 L
2.829 11.2 L
cp
5.47 7.841 M
8.329 7.841 L
6.892 3.7 L
5.47 7.841 L
cp
f
GR
GS
[0.75 0 0 0.75 174.43421 230.50001] CT
0.149 GC
N
13.142 14.184 M
13.142 14.153 13.157 14.137 QT
17.673 1.606 L
17.689 1.528 17.759 1.489 QT
17.829 1.45 17.907 1.45 QT
18.017 1.45 18.087 1.52 QT
18.157 1.591 18.157 1.716 QT
18.157 1.762 L
13.642 14.294 L
13.564 14.45 13.392 14.45 QT
13.282 14.45 13.212 14.372 QT
13.142 14.294 13.142 14.184 QT
cp
f
GR
GS
[0.75 0 0 0.75 174.43421 230.50001] CT
0.149 GC
N
19.512 11.2 M
19.512 10.747 L
20.84 10.747 20.84 10.325 QT
20.84 3.184 L
20.84 2.778 19.512 2.778 QT
19.512 2.325 L
24.293 2.325 L
25.184 2.325 25.918 2.708 QT
26.652 3.091 27.176 3.731 QT
27.699 4.372 27.98 5.184 QT
28.262 5.997 28.262 6.841 QT
28.262 7.669 27.98 8.45 QT
27.699 9.231 27.16 9.856 QT
26.621 10.481 25.887 10.841 QT
25.152 11.2 24.293 11.2 QT
19.512 11.2 L
cp
22.012 10.325 M
22.012 10.606 22.168 10.677 QT
22.324 10.747 22.668 10.747 QT
23.965 10.747 L
24.621 10.747 25.223 10.458 QT
25.824 10.169 26.215 9.653 QT
26.637 9.106 26.777 8.427 QT
26.918 7.747 26.918 6.841 QT
26.918 5.903 26.777 5.192 QT
26.637 4.481 26.215 3.919 QT
25.84 3.372 25.238 3.075 QT
24.637 2.778 23.965 2.778 QT
22.668 2.778 L
22.434 2.778 22.309 2.794 QT
22.184 2.809 22.098 2.903 QT
22.012 2.997 22.012 3.184 QT
22.012 10.325 L
cp
f
GR
GS
[0.75 0 0 0.75 330.75 230.50001] CT
0.149 GC
N
-80.658 11.2 M
-80.658 10.747 L
-79.314 10.747 -79.314 9.981 QT
-79.314 3.184 L
-79.314 2.778 -80.658 2.778 QT
-80.658 2.325 L
-78.205 2.325 L
-78.033 2.325 -77.986 2.466 QT
-75.158 9.825 L
-72.33 2.466 L
-72.268 2.325 -72.111 2.325 QT
-69.658 2.325 L
-69.658 2.778 L
-71.002 2.778 -71.002 3.184 QT
-71.002 10.325 L
-71.002 10.747 -69.658 10.747 QT
-69.658 11.2 L
-73.439 11.2 L
-73.439 10.747 L
-72.111 10.747 -72.111 10.325 QT
-72.111 2.762 L
-75.299 11.059 L
-75.361 11.2 -75.518 11.2 QT
-75.689 11.2 -75.736 11.059 QT
-78.908 2.872 L
-78.908 9.981 L
-78.908 10.747 -77.564 10.747 QT
-77.564 11.2 L
-80.658 11.2 L
cp
f
GR
GS
[0.75 0 0 0.75 330.75 230.50001] CT
0.149 GC
N
-63.827 11.481 M
-65.061 11.481 -66.053 10.825 QT
-67.045 10.169 -67.6 9.083 QT
-68.155 7.997 -68.155 6.794 QT
-68.155 5.903 -67.834 5.036 QT
-67.514 4.169 -66.944 3.497 QT
-66.373 2.825 -65.569 2.427 QT
-64.764 2.028 -63.827 2.028 QT
-62.905 2.028 -62.1 2.427 QT
-61.295 2.825 -60.717 3.505 QT
-60.139 4.184 -59.827 5.028 QT
-59.514 5.872 -59.514 6.794 QT
-59.514 7.997 -60.069 9.083 QT
-60.623 10.169 -61.616 10.825 QT
-62.608 11.481 -63.827 11.481 QT
cp
-65.983 9.794 M
-65.608 10.387 -65.045 10.739 QT
-64.483 11.091 -63.827 11.091 QT
-63.405 11.091 -62.998 10.927 QT
-62.592 10.762 -62.256 10.458 QT
-61.92 10.153 -61.686 9.794 QT
-60.905 8.622 -60.905 6.591 QT
-60.905 4.716 -61.686 3.622 QT
-62.061 3.075 -62.631 2.747 QT
-63.202 2.419 -63.827 2.419 QT
-64.467 2.419 -65.037 2.747 QT
-65.608 3.075 -65.983 3.622 QT
-66.295 4.044 -66.459 4.52 QT
-66.623 4.997 -66.694 5.512 QT
-66.764 6.028 -66.764 6.591 QT
-66.764 7.169 -66.702 7.731 QT
-66.639 8.294 -66.459 8.833 QT
-66.28 9.372 -65.983 9.794 QT
cp
f
GR
GS
[0.75 0 0 0.75 330.75 230.50001] CT
0.149 GC
N
-58.112 11.2 M
-58.112 10.747 L
-56.784 10.747 -56.784 10.325 QT
-56.784 3.184 L
-56.784 2.778 -58.112 2.778 QT
-58.112 2.325 L
-50.769 2.325 L
-50.409 5.294 L
-50.784 5.294 L
-50.925 4.169 -51.175 3.661 QT
-51.425 3.153 -51.972 2.966 QT
-52.519 2.778 -53.628 2.778 QT
-54.909 2.778 L
-55.144 2.778 -55.276 2.794 QT
-55.409 2.809 -55.487 2.903 QT
-55.565 2.997 -55.565 3.184 QT
-55.565 6.356 L
-54.612 6.356 L
-53.94 6.356 -53.62 6.247 QT
-53.3 6.137 -53.175 5.825 QT
-53.05 5.512 -53.05 4.841 QT
-52.659 4.841 L
-52.659 8.341 L
-53.05 8.341 L
-53.05 7.684 -53.175 7.364 QT
-53.3 7.044 -53.62 6.934 QT
-53.94 6.825 -54.612 6.825 QT
-55.565 6.825 L
-55.565 10.325 L
-55.565 10.606 -55.409 10.677 QT
-55.253 10.747 -54.909 10.747 QT
-53.534 10.747 L
-52.628 10.747 -52.073 10.598 QT
-51.519 10.45 -51.206 10.122 QT
-50.894 9.794 -50.73 9.262 QT
-50.565 8.731 -50.425 7.794 QT
-50.05 7.794 L
-50.597 11.2 L
-58.112 11.2 L
cp
f
GR
GS
[0.75 0 0 0.75 330.75 230.50001] CT
0.149 GC
N
-49.023 11.2 M
-49.023 10.747 L
-47.866 10.747 -47.601 9.981 QT
-44.866 2.028 L
-44.835 1.887 -44.663 1.887 QT
-44.491 1.887 L
-44.32 1.887 -44.288 2.028 QT
-41.429 10.325 L
-41.32 10.606 -40.976 10.677 QT
-40.632 10.747 -40.132 10.747 QT
-40.132 11.2 L
-43.757 11.2 L
-43.757 10.747 L
-42.679 10.747 -42.679 10.387 QT
-42.679 10.325 L
-43.382 8.294 L
-46.538 8.294 L
-47.116 9.981 L
-47.132 10.012 -47.132 10.106 QT
-47.132 10.434 -46.82 10.591 QT
-46.507 10.747 -46.163 10.747 QT
-46.163 11.2 L
-49.023 11.2 L
cp
-46.382 7.841 M
-43.523 7.841 L
-44.96 3.7 L
-46.382 7.841 L
cp
f
GR
GS
[0.75 0 0 0.75 330.75 230.50001] CT
0.149 GC
N
-38.71 14.184 M
-38.71 14.153 -38.694 14.137 QT
-34.179 1.606 L
-34.163 1.528 -34.093 1.489 QT
-34.023 1.45 -33.944 1.45 QT
-33.835 1.45 -33.765 1.52 QT
-33.694 1.591 -33.694 1.716 QT
-33.694 1.762 L
-38.21 14.294 L
-38.288 14.45 -38.46 14.45 QT
-38.569 14.45 -38.64 14.372 QT
-38.71 14.294 -38.71 14.184 QT
cp
f
GR
GS
[0.75 0 0 0.75 330.75 230.50001] CT
0.149 GC
N
-32.34 11.2 M
-32.34 10.747 L
-31.012 10.747 -31.012 10.325 QT
-31.012 3.184 L
-31.012 2.778 -32.34 2.778 QT
-32.34 2.325 L
-27.559 2.325 L
-26.668 2.325 -25.934 2.708 QT
-25.2 3.091 -24.676 3.731 QT
-24.153 4.372 -23.872 5.184 QT
-23.59 5.997 -23.59 6.841 QT
-23.59 7.669 -23.872 8.45 QT
-24.153 9.231 -24.692 9.856 QT
-25.231 10.481 -25.965 10.841 QT
-26.7 11.2 -27.559 11.2 QT
-32.34 11.2 L
cp
-29.84 10.325 M
-29.84 10.606 -29.684 10.677 QT
-29.528 10.747 -29.184 10.747 QT
-27.887 10.747 L
-27.231 10.747 -26.629 10.458 QT
-26.028 10.169 -25.637 9.653 QT
-25.215 9.106 -25.075 8.427 QT
-24.934 7.747 -24.934 6.841 QT
-24.934 5.903 -25.075 5.192 QT
-25.215 4.481 -25.637 3.919 QT
-26.012 3.372 -26.614 3.075 QT
-27.215 2.778 -27.887 2.778 QT
-29.184 2.778 L
-29.418 2.778 -29.543 2.794 QT
-29.668 2.809 -29.754 2.903 QT
-29.84 2.997 -29.84 3.184 QT
-29.84 10.325 L
cp
f
GR
GS
[0.75 0 0 0.75 330.75 230.50001] CT
0.149 GC
N
-17.164 8.216 M
-17.273 8.216 -17.343 8.13 QT
-17.414 8.044 -17.414 7.95 QT
-17.414 7.856 -17.343 7.77 QT
-17.273 7.684 -17.164 7.684 QT
-13.351 7.684 L
-13.351 3.856 L
-13.351 3.747 -13.273 3.684 QT
-13.195 3.622 -13.086 3.622 QT
-12.992 3.622 -12.914 3.684 QT
-12.836 3.747 -12.836 3.856 QT
-12.836 7.684 L
-9.008 7.684 L
-8.914 7.684 -8.843 7.77 QT
-8.773 7.856 -8.773 7.95 QT
-8.773 8.044 -8.843 8.13 QT
-8.914 8.216 -9.008 8.216 QT
-12.836 8.216 L
-12.836 12.044 L
-12.836 12.153 -12.914 12.216 QT
-12.992 12.278 -13.086 12.278 QT
-13.195 12.278 -13.273 12.216 QT
-13.351 12.153 -13.351 12.044 QT
-13.351 8.216 L
-17.164 8.216 L
cp
f
GR
GS
[0.75 0 0 0.75 330.75 230.50001] CT
0.149 GC
N
-2.927 11.2 M
-2.927 10.747 L
-1.599 10.747 -1.599 9.981 QT
-1.599 2.856 L
-2.021 2.778 -2.927 2.778 QT
-2.927 2.325 L
-0.443 2.325 L
-0.38 2.325 -0.349 2.372 QT
4.245 9.137 L
4.245 3.544 L
4.245 2.778 2.901 2.778 QT
2.901 2.325 L
5.995 2.325 L
5.995 2.778 L
4.667 2.778 4.667 3.544 QT
4.667 11.091 L
4.667 11.122 4.612 11.161 QT
4.557 11.2 4.526 11.2 QT
4.37 11.2 L
4.307 11.2 4.292 11.153 QT
-1.177 3.106 L
-1.177 9.981 L
-1.177 10.747 0.167 10.747 QT
0.167 11.2 L
-2.927 11.2 L
cp
f
GR
GS
[0.75 0 0 0.75 330.75 230.50001] CT
0.149 GC
N
9.901 11.341 M
9.104 11.341 8.448 10.927 QT
7.792 10.512 7.409 9.817 QT
7.026 9.122 7.026 8.356 QT
7.026 7.591 7.37 6.903 QT
7.714 6.216 8.339 5.794 QT
8.964 5.372 9.714 5.372 QT
10.323 5.372 10.76 5.575 QT
11.198 5.778 11.487 6.13 QT
11.776 6.481 11.917 6.966 QT
12.057 7.45 12.057 8.028 QT
12.057 8.2 11.932 8.2 QT
8.167 8.2 L
8.167 8.341 L
8.167 9.419 8.604 10.192 QT
9.042 10.966 10.026 10.966 QT
10.417 10.966 10.76 10.786 QT
11.104 10.606 11.354 10.294 QT
11.604 9.981 11.682 9.606 QT
11.698 9.575 11.737 9.536 QT
11.776 9.497 11.807 9.497 QT
11.932 9.497 L
12.057 9.497 12.057 9.669 QT
11.885 10.403 11.276 10.872 QT
10.667 11.341 9.901 11.341 QT
cp
8.182 7.872 M
11.135 7.872 L
11.135 7.387 11.003 6.887 QT
10.87 6.387 10.549 6.052 QT
10.229 5.716 9.714 5.716 QT
8.979 5.716 8.581 6.403 QT
8.182 7.091 8.182 7.872 QT
cp
f
GR
GS
[0.75 0 0 0.75 330.75 230.50001] CT
0.149 GC
N
15.468 11.2 M
13.78 6.466 L
13.671 6.184 13.452 6.122 QT
13.233 6.059 12.827 6.059 QT
12.827 5.591 L
15.499 5.591 L
15.499 6.059 L
14.733 6.059 14.733 6.372 QT
14.749 6.387 14.749 6.411 QT
14.749 6.434 14.749 6.466 QT
15.999 9.981 L
17.077 6.919 L
16.905 6.466 L
16.811 6.184 16.585 6.122 QT
16.358 6.059 15.952 6.059 QT
15.952 5.591 L
18.514 5.591 L
18.514 6.059 L
17.749 6.059 17.749 6.372 QT
17.749 6.419 17.764 6.466 QT
19.061 10.137 L
20.249 6.825 L
20.28 6.716 20.28 6.637 QT
20.28 6.356 20.046 6.208 QT
19.811 6.059 19.53 6.059 QT
19.53 5.591 L
21.733 5.591 L
21.733 6.059 L
21.343 6.059 21.061 6.262 QT
20.78 6.466 20.639 6.825 QT
19.093 11.2 L
19.046 11.341 18.889 11.341 QT
18.796 11.341 L
18.639 11.341 18.593 11.2 QT
17.28 7.497 L
15.968 11.2 L
15.905 11.341 15.764 11.341 QT
15.671 11.341 L
15.514 11.341 15.468 11.2 QT
cp
f
GR
GS
[0.75 0 0 0.75 330.75 230.50001] CT
0.149 GC
N
27.12 11.2 M
27.12 10.747 L
28.464 10.747 28.464 9.981 QT
28.464 3.184 L
28.464 2.778 27.12 2.778 QT
27.12 2.325 L
29.573 2.325 L
29.745 2.325 29.792 2.466 QT
32.62 9.825 L
35.448 2.466 L
35.51 2.325 35.667 2.325 QT
38.12 2.325 L
38.12 2.778 L
36.776 2.778 36.776 3.184 QT
36.776 10.325 L
36.776 10.747 38.12 10.747 QT
38.12 11.2 L
34.339 11.2 L
34.339 10.747 L
35.667 10.747 35.667 10.325 QT
35.667 2.762 L
32.479 11.059 L
32.417 11.2 32.26 11.2 QT
32.089 11.2 32.042 11.059 QT
28.87 2.872 L
28.87 9.981 L
28.87 10.747 30.214 10.747 QT
30.214 11.2 L
27.12 11.2 L
cp
f
GR
GS
[0.75 0 0 0.75 330.75 230.50001] CT
0.149 GC
N
40.295 9.653 M
40.295 6.778 L
40.295 6.434 40.186 6.278 QT
40.076 6.122 39.881 6.091 QT
39.686 6.059 39.28 6.059 QT
39.28 5.591 L
41.248 5.45 L
41.248 9.653 L
41.248 10.153 41.319 10.442 QT
41.389 10.731 41.631 10.864 QT
41.873 10.997 42.389 10.997 QT
43.092 10.997 43.498 10.419 QT
43.905 9.841 43.905 9.091 QT
43.905 6.778 L
43.905 6.434 43.803 6.278 QT
43.701 6.122 43.506 6.091 QT
43.311 6.059 42.889 6.059 QT
42.889 5.591 L
44.858 5.45 L
44.858 10.012 L
44.858 10.356 44.959 10.512 QT
45.061 10.669 45.256 10.708 QT
45.451 10.747 45.873 10.747 QT
45.873 11.2 L
43.951 11.341 L
43.951 10.247 L
43.701 10.731 43.272 11.036 QT
42.842 11.341 42.326 11.341 QT
41.389 11.341 40.842 10.95 QT
40.295 10.559 40.295 9.653 QT
cp
f
GR
GS
[0.75 0 0 0.75 330.75 230.50001] CT
0.149 GC
N
47.624 9.637 M
47.624 6.059 L
46.546 6.059 L
46.546 5.716 L
47.39 5.716 47.789 4.919 QT
48.187 4.122 48.187 3.2 QT
48.562 3.2 L
48.562 5.591 L
50.406 5.591 L
50.406 6.059 L
48.562 6.059 L
48.562 9.606 L
48.562 10.153 48.749 10.559 QT
48.937 10.966 49.406 10.966 QT
49.843 10.966 50.039 10.536 QT
50.234 10.106 50.234 9.606 QT
50.234 8.841 L
50.609 8.841 L
50.609 9.637 L
50.609 10.044 50.46 10.442 QT
50.312 10.841 50.023 11.091 QT
49.734 11.341 49.312 11.341 QT
48.531 11.341 48.078 10.88 QT
47.624 10.419 47.624 9.637 QT
cp
f
GR
GS
[0.75 0 0 0.75 330.75 230.50001] CT
0.149 GC
N
51.997 9.919 M
51.997 9.153 52.607 8.669 QT
53.216 8.184 54.075 7.981 QT
54.935 7.778 55.7 7.778 QT
55.7 7.247 L
55.7 6.872 55.536 6.52 QT
55.372 6.169 55.06 5.942 QT
54.747 5.716 54.372 5.716 QT
53.513 5.716 53.06 6.106 QT
53.31 6.106 53.466 6.294 QT
53.622 6.481 53.622 6.731 QT
53.622 6.981 53.443 7.169 QT
53.263 7.356 53.013 7.356 QT
52.747 7.356 52.56 7.169 QT
52.372 6.981 52.372 6.731 QT
52.372 6.044 52.997 5.708 QT
53.622 5.372 54.372 5.372 QT
54.903 5.372 55.435 5.598 QT
55.966 5.825 56.302 6.247 QT
56.638 6.669 56.638 7.216 QT
56.638 10.153 L
56.638 10.403 56.747 10.614 QT
56.857 10.825 57.091 10.825 QT
57.31 10.825 57.411 10.606 QT
57.513 10.387 57.513 10.153 QT
57.513 9.309 L
57.888 9.309 L
57.888 10.153 L
57.888 10.434 57.739 10.7 QT
57.591 10.966 57.333 11.122 QT
57.075 11.278 56.778 11.278 QT
56.388 11.278 56.114 10.981 QT
55.841 10.684 55.81 10.278 QT
55.575 10.762 55.107 11.052 QT
54.638 11.341 54.091 11.341 QT
53.607 11.341 53.122 11.2 QT
52.638 11.059 52.318 10.739 QT
51.997 10.419 51.997 9.919 QT
cp
53.06 9.919 M
53.06 10.387 53.396 10.692 QT
53.732 10.997 54.185 10.997 QT
54.607 10.997 54.95 10.794 QT
55.294 10.591 55.497 10.223 QT
55.7 9.856 55.7 9.466 QT
55.7 8.106 L
55.107 8.106 54.489 8.302 QT
53.872 8.497 53.466 8.911 QT
53.06 9.325 53.06 9.919 QT
cp
f
GR
GS
[0.75 0 0 0.75 330.75 230.50001] CT
0.149 GC
N
59.476 9.637 M
59.476 6.059 L
58.398 6.059 L
58.398 5.716 L
59.242 5.716 59.64 4.919 QT
60.039 4.122 60.039 3.2 QT
60.414 3.2 L
60.414 5.591 L
62.258 5.591 L
62.258 6.059 L
60.414 6.059 L
60.414 9.606 L
60.414 10.153 60.601 10.559 QT
60.789 10.966 61.258 10.966 QT
61.695 10.966 61.89 10.536 QT
62.086 10.106 62.086 9.606 QT
62.086 8.841 L
62.461 8.841 L
62.461 9.637 L
62.461 10.044 62.312 10.442 QT
62.164 10.841 61.875 11.091 QT
61.586 11.341 61.164 11.341 QT
60.383 11.341 59.93 10.88 QT
59.476 10.419 59.476 9.637 QT
cp
f
GR
GS
[0.75 0 0 0.75 330.75 230.50001] CT
0.149 GC
N
63.74 11.2 M
63.74 10.747 L
64.177 10.747 64.466 10.677 QT
64.755 10.606 64.755 10.325 QT
64.755 6.778 L
64.755 6.278 64.56 6.169 QT
64.365 6.059 63.787 6.059 QT
63.787 5.591 L
65.662 5.45 L
65.662 10.325 L
65.662 10.606 65.912 10.677 QT
66.162 10.747 66.568 10.747 QT
66.568 11.2 L
63.74 11.2 L
cp
64.287 3.216 M
64.287 2.934 64.505 2.716 QT
64.724 2.497 64.99 2.497 QT
65.177 2.497 65.349 2.598 QT
65.521 2.7 65.615 2.872 QT
65.708 3.044 65.708 3.216 QT
65.708 3.497 65.498 3.716 QT
65.287 3.934 64.99 3.934 QT
64.724 3.934 64.505 3.716 QT
64.287 3.497 64.287 3.216 QT
cp
f
GR
GS
[0.75 0 0 0.75 330.75 230.50001] CT
0.149 GC
N
70.287 11.341 M
69.506 11.341 68.842 10.95 QT
68.178 10.559 67.787 9.887 QT
67.397 9.216 67.397 8.434 QT
67.397 7.841 67.607 7.286 QT
67.818 6.731 68.217 6.294 QT
68.615 5.856 69.147 5.614 QT
69.678 5.372 70.287 5.372 QT
71.084 5.372 71.74 5.794 QT
72.397 6.216 72.779 6.927 QT
73.162 7.637 73.162 8.434 QT
73.162 9.216 72.772 9.887 QT
72.381 10.559 71.725 10.95 QT
71.068 11.341 70.287 11.341 QT
cp
70.287 10.966 M
71.334 10.966 71.678 10.208 QT
72.022 9.45 72.022 8.294 QT
72.022 7.637 71.951 7.208 QT
71.881 6.778 71.647 6.419 QT
71.506 6.216 71.279 6.052 QT
71.053 5.887 70.803 5.802 QT
70.553 5.716 70.287 5.716 QT
69.881 5.716 69.514 5.903 QT
69.147 6.091 68.912 6.419 QT
68.662 6.794 68.6 7.239 QT
68.537 7.684 68.537 8.294 QT
68.537 9.012 68.662 9.598 QT
68.787 10.184 69.17 10.575 QT
69.553 10.966 70.287 10.966 QT
cp
f
GR
GS
[0.75 0 0 0.75 330.75 230.50001] CT
0.149 GC
N
74.094 11.2 M
74.094 10.747 L
74.532 10.747 74.821 10.677 QT
75.11 10.606 75.11 10.325 QT
75.11 6.778 L
75.11 6.434 75.001 6.278 QT
74.891 6.122 74.696 6.091 QT
74.501 6.059 74.094 6.059 QT
74.094 5.591 L
75.969 5.45 L
75.969 6.731 L
76.235 6.169 76.751 5.809 QT
77.266 5.45 77.86 5.45 QT
78.766 5.45 79.219 5.887 QT
79.673 6.325 79.673 7.2 QT
79.673 10.325 L
79.673 10.606 79.954 10.677 QT
80.235 10.747 80.688 10.747 QT
80.688 11.2 L
77.704 11.2 L
77.704 10.747 L
78.157 10.747 78.438 10.677 QT
78.719 10.606 78.719 10.325 QT
78.719 7.247 L
78.719 6.606 78.54 6.2 QT
78.36 5.794 77.782 5.794 QT
77.032 5.794 76.548 6.395 QT
76.063 6.997 76.063 7.762 QT
76.063 10.325 L
76.063 10.606 76.344 10.677 QT
76.626 10.747 77.063 10.747 QT
77.063 11.2 L
74.094 11.2 L
cp
f
GR
GS
[0.75 0 0 0.75 487.06581 230.50001] CT
0.149 GC
N
-74.306 11.2 M
-74.306 10.747 L
-72.963 10.747 -72.963 9.981 QT
-72.963 3.184 L
-72.963 2.778 -74.306 2.778 QT
-74.306 2.325 L
-71.853 2.325 L
-71.681 2.325 -71.634 2.466 QT
-68.806 9.825 L
-65.978 2.466 L
-65.916 2.325 -65.759 2.325 QT
-63.306 2.325 L
-63.306 2.778 L
-64.65 2.778 -64.65 3.184 QT
-64.65 10.325 L
-64.65 10.747 -63.306 10.747 QT
-63.306 11.2 L
-67.088 11.2 L
-67.088 10.747 L
-65.759 10.747 -65.759 10.325 QT
-65.759 2.762 L
-68.947 11.059 L
-69.009 11.2 -69.166 11.2 QT
-69.338 11.2 -69.384 11.059 QT
-72.556 2.872 L
-72.556 9.981 L
-72.556 10.747 -71.213 10.747 QT
-71.213 11.2 L
-74.306 11.2 L
cp
f
GR
GS
[0.75 0 0 0.75 487.06581 230.50001] CT
0.149 GC
N
-57.475 11.481 M
-58.709 11.481 -59.701 10.825 QT
-60.693 10.169 -61.248 9.083 QT
-61.803 7.997 -61.803 6.794 QT
-61.803 5.903 -61.482 5.036 QT
-61.162 4.169 -60.592 3.497 QT
-60.022 2.825 -59.217 2.427 QT
-58.412 2.028 -57.475 2.028 QT
-56.553 2.028 -55.748 2.427 QT
-54.943 2.825 -54.365 3.505 QT
-53.787 4.184 -53.475 5.028 QT
-53.162 5.872 -53.162 6.794 QT
-53.162 7.997 -53.717 9.083 QT
-54.272 10.169 -55.264 10.825 QT
-56.256 11.481 -57.475 11.481 QT
cp
-59.631 9.794 M
-59.256 10.387 -58.693 10.739 QT
-58.131 11.091 -57.475 11.091 QT
-57.053 11.091 -56.647 10.927 QT
-56.24 10.762 -55.904 10.458 QT
-55.568 10.153 -55.334 9.794 QT
-54.553 8.622 -54.553 6.591 QT
-54.553 4.716 -55.334 3.622 QT
-55.709 3.075 -56.279 2.747 QT
-56.85 2.419 -57.475 2.419 QT
-58.115 2.419 -58.686 2.747 QT
-59.256 3.075 -59.631 3.622 QT
-59.943 4.044 -60.107 4.52 QT
-60.272 4.997 -60.342 5.512 QT
-60.412 6.028 -60.412 6.591 QT
-60.412 7.169 -60.35 7.731 QT
-60.287 8.294 -60.107 8.833 QT
-59.928 9.372 -59.631 9.794 QT
cp
f
GR
GS
[0.75 0 0 0.75 487.06581 230.50001] CT
0.149 GC
N
-51.76 11.2 M
-51.76 10.747 L
-50.432 10.747 -50.432 10.325 QT
-50.432 3.184 L
-50.432 2.778 -51.76 2.778 QT
-51.76 2.325 L
-44.417 2.325 L
-44.057 5.294 L
-44.432 5.294 L
-44.573 4.169 -44.823 3.661 QT
-45.073 3.153 -45.62 2.966 QT
-46.167 2.778 -47.276 2.778 QT
-48.557 2.778 L
-48.792 2.778 -48.925 2.794 QT
-49.057 2.809 -49.135 2.903 QT
-49.214 2.997 -49.214 3.184 QT
-49.214 6.356 L
-48.26 6.356 L
-47.589 6.356 -47.268 6.247 QT
-46.948 6.137 -46.823 5.825 QT
-46.698 5.512 -46.698 4.841 QT
-46.307 4.841 L
-46.307 8.341 L
-46.698 8.341 L
-46.698 7.684 -46.823 7.364 QT
-46.948 7.044 -47.268 6.934 QT
-47.589 6.825 -48.26 6.825 QT
-49.214 6.825 L
-49.214 10.325 L
-49.214 10.606 -49.057 10.677 QT
-48.901 10.747 -48.557 10.747 QT
-47.182 10.747 L
-46.276 10.747 -45.721 10.598 QT
-45.167 10.45 -44.854 10.122 QT
-44.542 9.794 -44.378 9.262 QT
-44.214 8.731 -44.073 7.794 QT
-43.698 7.794 L
-44.245 11.2 L
-51.76 11.2 L
cp
f
GR
GS
[0.75 0 0 0.75 487.06581 230.50001] CT
0.149 GC
N
-42.671 11.2 M
-42.671 10.747 L
-41.515 10.747 -41.249 9.981 QT
-38.515 2.028 L
-38.483 1.887 -38.311 1.887 QT
-38.14 1.887 L
-37.968 1.887 -37.936 2.028 QT
-35.077 10.325 L
-34.968 10.606 -34.624 10.677 QT
-34.28 10.747 -33.78 10.747 QT
-33.78 11.2 L
-37.405 11.2 L
-37.405 10.747 L
-36.327 10.747 -36.327 10.387 QT
-36.327 10.325 L
-37.03 8.294 L
-40.186 8.294 L
-40.765 9.981 L
-40.78 10.012 -40.78 10.106 QT
-40.78 10.434 -40.468 10.591 QT
-40.155 10.747 -39.811 10.747 QT
-39.811 11.2 L
-42.671 11.2 L
cp
-40.03 7.841 M
-37.171 7.841 L
-38.608 3.7 L
-40.03 7.841 L
cp
f
GR
GS
[0.75 0 0 0.75 487.06581 230.50001] CT
0.149 GC
N
-32.358 14.184 M
-32.358 14.153 -32.343 14.137 QT
-27.827 1.606 L
-27.811 1.528 -27.741 1.489 QT
-27.671 1.45 -27.593 1.45 QT
-27.483 1.45 -27.413 1.52 QT
-27.343 1.591 -27.343 1.716 QT
-27.343 1.762 L
-31.858 14.294 L
-31.936 14.45 -32.108 14.45 QT
-32.218 14.45 -32.288 14.372 QT
-32.358 14.294 -32.358 14.184 QT
cp
f
GR
GS
[0.75 0 0 0.75 487.06581 230.50001] CT
0.149 GC
N
-25.988 11.2 M
-25.988 10.747 L
-24.66 10.747 -24.66 10.325 QT
-24.66 3.184 L
-24.66 2.778 -25.988 2.778 QT
-25.988 2.325 L
-21.207 2.325 L
-20.317 2.325 -19.582 2.708 QT
-18.848 3.091 -18.324 3.731 QT
-17.801 4.372 -17.52 5.184 QT
-17.238 5.997 -17.238 6.841 QT
-17.238 7.669 -17.52 8.45 QT
-17.801 9.231 -18.34 9.856 QT
-18.879 10.481 -19.613 10.841 QT
-20.348 11.2 -21.207 11.2 QT
-25.988 11.2 L
cp
-23.488 10.325 M
-23.488 10.606 -23.332 10.677 QT
-23.176 10.747 -22.832 10.747 QT
-21.535 10.747 L
-20.879 10.747 -20.278 10.458 QT
-19.676 10.169 -19.285 9.653 QT
-18.863 9.106 -18.723 8.427 QT
-18.582 7.747 -18.582 6.841 QT
-18.582 5.903 -18.723 5.192 QT
-18.863 4.481 -19.285 3.919 QT
-19.66 3.372 -20.262 3.075 QT
-20.863 2.778 -21.535 2.778 QT
-22.832 2.778 L
-23.067 2.778 -23.192 2.794 QT
-23.317 2.809 -23.403 2.903 QT
-23.488 2.997 -23.488 3.184 QT
-23.488 10.325 L
cp
f
GR
GS
[0.75 0 0 0.75 487.06581 230.50001] CT
0.149 GC
N
-10.812 8.216 M
-10.921 8.216 -10.992 8.13 QT
-11.062 8.044 -11.062 7.95 QT
-11.062 7.856 -10.992 7.77 QT
-10.921 7.684 -10.812 7.684 QT
-6.999 7.684 L
-6.999 3.856 L
-6.999 3.747 -6.921 3.684 QT
-6.843 3.622 -6.734 3.622 QT
-6.64 3.622 -6.562 3.684 QT
-6.484 3.747 -6.484 3.856 QT
-6.484 7.684 L
-2.656 7.684 L
-2.562 7.684 -2.492 7.77 QT
-2.421 7.856 -2.421 7.95 QT
-2.421 8.044 -2.492 8.13 QT
-2.562 8.216 -2.656 8.216 QT
-6.484 8.216 L
-6.484 12.044 L
-6.484 12.153 -6.562 12.216 QT
-6.64 12.278 -6.734 12.278 QT
-6.843 12.278 -6.921 12.216 QT
-6.999 12.153 -6.999 12.044 QT
-6.999 8.216 L
-10.812 8.216 L
cp
f
GR
GS
[0.75 0 0 0.75 487.06581 230.50001] CT
0.149 GC
N
3.425 11.2 M
3.425 10.747 L
4.753 10.747 4.753 9.981 QT
4.753 2.856 L
4.331 2.778 3.425 2.778 QT
3.425 2.325 L
5.909 2.325 L
5.972 2.325 6.003 2.372 QT
10.597 9.137 L
10.597 3.544 L
10.597 2.778 9.253 2.778 QT
9.253 2.325 L
12.347 2.325 L
12.347 2.778 L
11.019 2.778 11.019 3.544 QT
11.019 11.091 L
11.019 11.122 10.964 11.161 QT
10.909 11.2 10.878 11.2 QT
10.722 11.2 L
10.659 11.2 10.644 11.153 QT
5.175 3.106 L
5.175 9.981 L
5.175 10.747 6.519 10.747 QT
6.519 11.2 L
3.425 11.2 L
cp
f
GR
GS
[0.75 0 0 0.75 487.06581 230.50001] CT
0.149 GC
N
16.253 11.341 M
15.456 11.341 14.8 10.927 QT
14.144 10.512 13.761 9.817 QT
13.378 9.122 13.378 8.356 QT
13.378 7.591 13.722 6.903 QT
14.065 6.216 14.69 5.794 QT
15.315 5.372 16.065 5.372 QT
16.675 5.372 17.112 5.575 QT
17.55 5.778 17.839 6.13 QT
18.128 6.481 18.269 6.966 QT
18.409 7.45 18.409 8.028 QT
18.409 8.2 18.284 8.2 QT
14.519 8.2 L
14.519 8.341 L
14.519 9.419 14.956 10.192 QT
15.394 10.966 16.378 10.966 QT
16.769 10.966 17.112 10.786 QT
17.456 10.606 17.706 10.294 QT
17.956 9.981 18.034 9.606 QT
18.05 9.575 18.089 9.536 QT
18.128 9.497 18.159 9.497 QT
18.284 9.497 L
18.409 9.497 18.409 9.669 QT
18.237 10.403 17.628 10.872 QT
17.019 11.341 16.253 11.341 QT
cp
14.534 7.872 M
17.487 7.872 L
17.487 7.387 17.354 6.887 QT
17.222 6.387 16.901 6.052 QT
16.581 5.716 16.065 5.716 QT
15.331 5.716 14.933 6.403 QT
14.534 7.091 14.534 7.872 QT
cp
f
GR
GS
[0.75 0 0 0.75 487.06581 230.50001] CT
0.149 GC
N
21.819 11.2 M
20.132 6.466 L
20.023 6.184 19.804 6.122 QT
19.585 6.059 19.179 6.059 QT
19.179 5.591 L
21.851 5.591 L
21.851 6.059 L
21.085 6.059 21.085 6.372 QT
21.101 6.387 21.101 6.411 QT
21.101 6.434 21.101 6.466 QT
22.351 9.981 L
23.429 6.919 L
23.257 6.466 L
23.163 6.184 22.937 6.122 QT
22.71 6.059 22.304 6.059 QT
22.304 5.591 L
24.866 5.591 L
24.866 6.059 L
24.101 6.059 24.101 6.372 QT
24.101 6.419 24.116 6.466 QT
25.413 10.137 L
26.601 6.825 L
26.632 6.716 26.632 6.637 QT
26.632 6.356 26.398 6.208 QT
26.163 6.059 25.882 6.059 QT
25.882 5.591 L
28.085 5.591 L
28.085 6.059 L
27.694 6.059 27.413 6.262 QT
27.132 6.466 26.991 6.825 QT
25.444 11.2 L
25.398 11.341 25.241 11.341 QT
25.148 11.341 L
24.991 11.341 24.944 11.2 QT
23.632 7.497 L
22.319 11.2 L
22.257 11.341 22.116 11.341 QT
22.023 11.341 L
21.866 11.341 21.819 11.2 QT
cp
f
GR
GS
[0.75 0 0 0.75 487.06581 230.50001] CT
0.149 GC
N
33.425 11.2 M
33.425 10.747 L
34.753 10.747 34.753 10.325 QT
34.753 3.184 L
34.753 2.778 33.425 2.778 QT
33.425 2.325 L
40.769 2.325 L
41.128 5.294 L
40.753 5.294 L
40.612 4.169 40.362 3.661 QT
40.112 3.153 39.565 2.966 QT
39.019 2.778 37.909 2.778 QT
36.628 2.778 L
36.394 2.778 36.261 2.794 QT
36.128 2.809 36.05 2.903 QT
35.972 2.997 35.972 3.184 QT
35.972 6.356 L
36.925 6.356 L
37.597 6.356 37.917 6.247 QT
38.237 6.137 38.362 5.825 QT
38.487 5.512 38.487 4.841 QT
38.878 4.841 L
38.878 8.341 L
38.487 8.341 L
38.487 7.684 38.362 7.364 QT
38.237 7.044 37.917 6.934 QT
37.597 6.825 36.925 6.825 QT
35.972 6.825 L
35.972 10.325 L
35.972 10.606 36.128 10.677 QT
36.284 10.747 36.628 10.747 QT
38.003 10.747 L
38.909 10.747 39.464 10.598 QT
40.019 10.45 40.331 10.122 QT
40.644 9.794 40.808 9.262 QT
40.972 8.731 41.112 7.794 QT
41.487 7.794 L
40.94 11.2 L
33.425 11.2 L
cp
f
GR
GS
[0.75 0 0 0.75 487.06581 230.50001] CT
0.149 GC
N
42.499 11.2 M
42.499 10.747 L
42.936 10.747 43.225 10.677 QT
43.515 10.606 43.515 10.325 QT
43.515 3.512 L
43.515 3.153 43.405 2.997 QT
43.296 2.841 43.1 2.809 QT
42.905 2.778 42.499 2.778 QT
42.499 2.325 L
44.421 2.184 L
44.421 10.325 L
44.421 10.606 44.71 10.677 QT
44.999 10.747 45.436 10.747 QT
45.436 11.2 L
42.499 11.2 L
cp
f
GR
GS
[0.75 0 0 0.75 487.06581 230.50001] CT
0.149 GC
N
46.203 11.2 M
46.203 10.747 L
46.64 10.747 46.929 10.677 QT
47.218 10.606 47.218 10.325 QT
47.218 6.778 L
47.218 6.278 47.023 6.169 QT
46.828 6.059 46.249 6.059 QT
46.249 5.591 L
48.124 5.45 L
48.124 10.325 L
48.124 10.606 48.374 10.677 QT
48.624 10.747 49.031 10.747 QT
49.031 11.2 L
46.203 11.2 L
cp
46.749 3.216 M
46.749 2.934 46.968 2.716 QT
47.187 2.497 47.453 2.497 QT
47.64 2.497 47.812 2.598 QT
47.984 2.7 48.078 2.872 QT
48.171 3.044 48.171 3.216 QT
48.171 3.497 47.96 3.716 QT
47.749 3.934 47.453 3.934 QT
47.187 3.934 46.968 3.716 QT
46.749 3.497 46.749 3.216 QT
cp
f
GR
GS
[0.75 0 0 0.75 487.06581 230.50001] CT
0.149 GC
N
50.828 9.637 M
50.828 6.059 L
49.75 6.059 L
49.75 5.716 L
50.594 5.716 50.992 4.919 QT
51.391 4.122 51.391 3.2 QT
51.766 3.2 L
51.766 5.591 L
53.609 5.591 L
53.609 6.059 L
51.766 6.059 L
51.766 9.606 L
51.766 10.153 51.953 10.559 QT
52.141 10.966 52.609 10.966 QT
53.047 10.966 53.242 10.536 QT
53.438 10.106 53.438 9.606 QT
53.438 8.841 L
53.813 8.841 L
53.813 9.637 L
53.813 10.044 53.664 10.442 QT
53.516 10.841 53.227 11.091 QT
52.938 11.341 52.516 11.341 QT
51.734 11.341 51.281 10.88 QT
50.828 10.419 50.828 9.637 QT
cp
f
GR
GS
[0.75 0 0 0.75 487.06581 230.50001] CT
0.149 GC
N
55.092 11.2 M
55.092 10.747 L
55.529 10.747 55.818 10.677 QT
56.107 10.606 56.107 10.325 QT
56.107 6.778 L
56.107 6.278 55.912 6.169 QT
55.717 6.059 55.138 6.059 QT
55.138 5.591 L
57.013 5.45 L
57.013 10.325 L
57.013 10.606 57.263 10.677 QT
57.513 10.747 57.92 10.747 QT
57.92 11.2 L
55.092 11.2 L
cp
55.638 3.216 M
55.638 2.934 55.857 2.716 QT
56.076 2.497 56.342 2.497 QT
56.529 2.497 56.701 2.598 QT
56.873 2.7 56.967 2.872 QT
57.06 3.044 57.06 3.216 QT
57.06 3.497 56.849 3.716 QT
56.638 3.934 56.342 3.934 QT
56.076 3.934 55.857 3.716 QT
55.638 3.497 55.638 3.216 QT
cp
f
GR
GS
[0.75 0 0 0.75 487.06581 230.50001] CT
0.149 GC
N
58.826 11.231 M
58.826 9.122 L
58.826 9.012 58.936 9.012 QT
59.092 9.012 L
59.17 9.012 59.201 9.122 QT
59.561 10.997 60.951 10.997 QT
61.561 10.997 61.975 10.723 QT
62.389 10.45 62.389 9.856 QT
62.389 9.434 62.069 9.145 QT
61.748 8.856 61.295 8.747 QT
60.436 8.575 L
59.998 8.481 59.639 8.286 QT
59.28 8.091 59.053 7.762 QT
58.826 7.434 58.826 6.997 QT
58.826 6.419 59.123 6.059 QT
59.42 5.7 59.905 5.536 QT
60.389 5.372 60.951 5.372 QT
61.608 5.372 62.108 5.731 QT
62.483 5.403 L
62.483 5.372 62.545 5.372 QT
62.639 5.372 L
62.686 5.372 62.717 5.411 QT
62.748 5.45 62.748 5.481 QT
62.748 7.184 L
62.748 7.309 62.639 7.309 QT
62.483 7.309 L
62.373 7.309 62.373 7.184 QT
62.373 6.497 61.991 6.091 QT
61.608 5.684 60.936 5.684 QT
60.358 5.684 59.928 5.895 QT
59.498 6.106 59.498 6.637 QT
59.498 6.997 59.803 7.231 QT
60.108 7.466 60.53 7.559 QT
61.405 7.731 L
61.842 7.825 62.233 8.067 QT
62.623 8.309 62.842 8.677 QT
63.061 9.044 63.061 9.512 QT
63.061 9.981 62.905 10.325 QT
62.748 10.669 62.459 10.903 QT
62.17 11.137 61.772 11.239 QT
61.373 11.341 60.951 11.341 QT
60.139 11.341 59.561 10.794 QT
59.076 11.309 L
59.076 11.341 59.014 11.341 QT
58.936 11.341 L
58.826 11.341 58.826 11.231 QT
cp
f
GR
GS
[0.75 0 0 0.75 487.06581 230.50001] CT
0.149 GC
N
64.039 11.2 M
64.039 10.747 L
64.476 10.747 64.765 10.677 QT
65.055 10.606 65.055 10.325 QT
65.055 6.778 L
65.055 6.434 64.945 6.278 QT
64.836 6.122 64.64 6.091 QT
64.445 6.059 64.039 6.059 QT
64.039 5.591 L
65.914 5.45 L
65.914 6.731 L
66.18 6.169 66.695 5.809 QT
67.211 5.45 67.805 5.45 QT
69.305 5.45 69.57 6.669 QT
69.82 6.122 70.32 5.786 QT
70.82 5.45 71.43 5.45 QT
72.008 5.45 72.414 5.645 QT
72.82 5.841 73.023 6.231 QT
73.226 6.622 73.226 7.2 QT
73.226 10.325 L
73.226 10.606 73.515 10.677 QT
73.805 10.747 74.242 10.747 QT
74.242 11.2 L
71.273 11.2 L
71.273 10.747 L
71.711 10.747 72 10.677 QT
72.289 10.606 72.289 10.325 QT
72.289 7.247 L
72.289 6.591 72.101 6.192 QT
71.914 5.794 71.336 5.794 QT
70.586 5.794 70.101 6.395 QT
69.617 6.997 69.617 7.762 QT
69.617 10.325 L
69.617 10.606 69.898 10.677 QT
70.18 10.747 70.633 10.747 QT
70.633 11.2 L
67.648 11.2 L
67.648 10.747 L
68.101 10.747 68.383 10.677 QT
68.664 10.606 68.664 10.325 QT
68.664 7.247 L
68.664 6.606 68.484 6.2 QT
68.305 5.794 67.726 5.794 QT
66.976 5.794 66.492 6.395 QT
66.008 6.997 66.008 7.762 QT
66.008 10.325 L
66.008 10.606 66.289 10.677 QT
66.57 10.747 67.008 10.747 QT
67.008 11.2 L
64.039 11.2 L
cp
f
GR
GS
[0.75 0 0 0.75 330.75025 243.49999] CT
0.149 GC
/Helvetica 14.667 F
GS
[1 0 0 1 0 0] CT
-139.5 15 moveto 
1 -1 scale
(MOEA/D with Proposed Genetic Operators) t 
GR
GR
GS
[0.75 0 0 0.75 0 0] CT
0 0.235 1 RC
2 setlinecap
1 LJ
0.667 LW
N
111 302 M
111 26 L
S
GR
GS
[0.75 0 0 0.75 0 0] CT
0 0.235 1 RC
2 setlinecap
1 LJ
0.667 LW
N
111 302 M
117.6 302 L
S
GR
GS
[0.75 0 0 0.75 0 0] CT
0 0.235 1 RC
2 setlinecap
1 LJ
0.667 LW
N
111 246.8 M
117.6 246.8 L
S
GR
GS
[0.75 0 0 0.75 0 0] CT
0 0.235 1 RC
2 setlinecap
1 LJ
0.667 LW
N
111 191.6 M
117.6 191.6 L
S
GR
GS
[0.75 0 0 0.75 0 0] CT
0 0.235 1 RC
2 setlinecap
1 LJ
0.667 LW
N
111 136.4 M
117.6 136.4 L
S
GR
GS
[0.75 0 0 0.75 0 0] CT
0 0.235 1 RC
2 setlinecap
1 LJ
0.667 LW
N
111 81.2 M
117.6 81.2 L
S
GR
GS
[0.75 0 0 0.75 0 0] CT
0 0.235 1 RC
2 setlinecap
1 LJ
0.667 LW
N
111 26 M
117.6 26 L
S
GR
GS
[0.75 0 0 0.75 79.25 226.5] CT
0 0.235 1 RC
N
-3.417 3.481 M
-5.01 3.481 -5.581 2.169 QT
-6.151 0.856 -6.151 -0.941 QT
-6.151 -2.081 -5.948 -3.073 QT
-5.745 -4.066 -5.135 -4.761 QT
-4.526 -5.456 -3.417 -5.456 QT
-2.557 -5.456 -2.01 -5.042 QT
-1.464 -4.628 -1.182 -3.964 QT
-0.901 -3.3 -0.792 -2.542 QT
-0.682 -1.784 -0.682 -0.941 QT
-0.682 0.169 -0.893 1.145 QT
-1.104 2.122 -1.706 2.802 QT
-2.307 3.481 -3.417 3.481 QT
cp
-3.417 3.153 M
-2.698 3.153 -2.339 2.411 QT
-1.979 1.669 -1.901 0.762 QT
-1.823 -0.144 -1.823 -1.159 QT
-1.823 -2.128 -1.901 -2.956 QT
-1.979 -3.784 -2.331 -4.456 QT
-2.682 -5.128 -3.417 -5.128 QT
-4.151 -5.128 -4.51 -4.448 QT
-4.87 -3.769 -4.948 -2.948 QT
-5.026 -2.128 -5.026 -1.159 QT
-5.026 -0.425 -4.995 0.216 QT
-4.964 0.856 -4.807 1.536 QT
-4.651 2.216 -4.315 2.684 QT
-3.979 3.153 -3.417 3.153 QT
cp
f
GR
GS
[0.75 0 0 0.75 79.25 185.1] CT
0 0.235 1 RC
N
-19.359 3.2 M
-19.359 2.856 L
-19.359 2.825 -19.328 2.778 QT
-17.313 0.544 L
-16.844 0.044 -16.563 -0.292 QT
-16.281 -0.628 -16 -1.066 QT
-15.719 -1.503 -15.555 -1.956 QT
-15.391 -2.409 -15.391 -2.909 QT
-15.391 -3.441 -15.594 -3.933 QT
-15.797 -4.425 -16.188 -4.714 QT
-16.578 -5.003 -17.125 -5.003 QT
-17.688 -5.003 -18.141 -4.659 QT
-18.594 -4.316 -18.781 -3.784 QT
-18.719 -3.8 -18.641 -3.8 QT
-18.344 -3.8 -18.141 -3.605 QT
-17.938 -3.409 -17.938 -3.097 QT
-17.938 -2.8 -18.141 -2.589 QT
-18.344 -2.378 -18.641 -2.378 QT
-18.938 -2.378 -19.148 -2.589 QT
-19.359 -2.8 -19.359 -3.097 QT
-19.359 -3.581 -19.172 -4.011 QT
-18.984 -4.441 -18.641 -4.769 QT
-18.297 -5.097 -17.859 -5.277 QT
-17.422 -5.456 -16.938 -5.456 QT
-16.188 -5.456 -15.547 -5.144 QT
-14.906 -4.831 -14.531 -4.253 QT
-14.156 -3.675 -14.156 -2.909 QT
-14.156 -2.347 -14.406 -1.839 QT
-14.656 -1.331 -15.039 -0.917 QT
-15.422 -0.503 -16.031 0.028 QT
-16.641 0.559 -16.828 0.731 QT
-18.297 2.153 L
-17.047 2.153 L
-16.125 2.153 -15.508 2.137 QT
-14.891 2.122 -14.859 2.075 QT
-14.703 1.919 -14.547 0.887 QT
-14.156 0.887 L
-14.531 3.2 L
-19.359 3.2 L
cp
f
GR
GS
[0.75 0 0 0.75 79.25 185.1] CT
0 0.235 1 RC
N
-10.083 3.481 M
-11.677 3.481 -12.247 2.169 QT
-12.818 0.856 -12.818 -0.941 QT
-12.818 -2.081 -12.615 -3.073 QT
-12.411 -4.066 -11.802 -4.761 QT
-11.193 -5.456 -10.083 -5.456 QT
-9.224 -5.456 -8.677 -5.042 QT
-8.13 -4.628 -7.849 -3.964 QT
-7.568 -3.3 -7.458 -2.542 QT
-7.349 -1.784 -7.349 -0.941 QT
-7.349 0.169 -7.56 1.145 QT
-7.771 2.122 -8.372 2.802 QT
-8.974 3.481 -10.083 3.481 QT
cp
-10.083 3.153 M
-9.365 3.153 -9.005 2.411 QT
-8.646 1.669 -8.568 0.762 QT
-8.49 -0.144 -8.49 -1.159 QT
-8.49 -2.128 -8.568 -2.956 QT
-8.646 -3.784 -8.997 -4.456 QT
-9.349 -5.128 -10.083 -5.128 QT
-10.818 -5.128 -11.177 -4.448 QT
-11.536 -3.769 -11.615 -2.948 QT
-11.693 -2.128 -11.693 -1.159 QT
-11.693 -0.425 -11.661 0.216 QT
-11.63 0.856 -11.474 1.536 QT
-11.318 2.216 -10.982 2.684 QT
-10.646 3.153 -10.083 3.153 QT
cp
f
GR
GS
[0.75 0 0 0.75 79.25 185.1] CT
0 0.235 1 RC
N
/f-2026418800{-3.417 3.481 M
-5.01 3.481 -5.581 2.169 QT
-6.151 0.856 -6.151 -0.941 QT
-6.151 -2.081 -5.948 -3.073 QT
-5.745 -4.066 -5.135 -4.761 QT
-4.526 -5.456 -3.417 -5.456 QT
-2.557 -5.456 -2.01 -5.042 QT
-1.464 -4.628 -1.182 -3.964 QT
-0.901 -3.3 -0.792 -2.542 QT
-0.682 -1.784 -0.682 -0.941 QT
-0.682 0.169 -0.893 1.145 QT
-1.104 2.122 -1.706 2.802 QT
-2.307 3.481 -3.417 3.481 QT
cp
-3.417 3.153 M
-2.698 3.153 -2.339 2.411 QT
-1.979 1.669 -1.901 0.762 QT
-1.823 -0.144 -1.823 -1.159 QT
-1.823 -2.128 -1.901 -2.956 QT
-1.979 -3.784 -2.331 -4.456 QT
-2.682 -5.128 -3.417 -5.128 QT
-4.151 -5.128 -4.51 -4.448 QT
-4.87 -3.769 -4.948 -2.948 QT
-5.026 -2.128 -5.026 -1.159 QT
-5.026 -0.425 -4.995 0.216 QT
-4.964 0.856 -4.807 1.536 QT
-4.651 2.216 -4.315 2.684 QT
-3.979 3.153 -3.417 3.153 QT
cp}def
f-2026418800
f
GR
GS
[0.75 0 0 0.75 79.25 143.7] CT
0 0.235 1 RC
N
/f-1051101992{-19.641 1.059 M
-19.641 0.591 L
-15.625 -5.394 L
-15.578 -5.456 -15.484 -5.456 QT
-15.297 -5.456 L
-15.156 -5.456 -15.156 -5.316 QT
-15.156 0.591 L
-13.875 0.591 L
-13.875 1.059 L
-15.156 1.059 L
-15.156 2.325 L
-15.156 2.591 -14.773 2.669 QT
-14.391 2.747 -13.891 2.747 QT
-13.891 3.2 L
-17.469 3.2 L
-17.469 2.747 L
-16.969 2.747 -16.586 2.669 QT
-16.203 2.591 -16.203 2.325 QT
-16.203 1.059 L
-19.641 1.059 L
cp
-19.203 0.591 M
-16.125 0.591 L
-16.125 -4.003 L
-19.203 0.591 L
cp}def
f-1051101992
f
GR
GS
[0.75 0 0 0.75 79.25 143.7] CT
0 0.235 1 RC
N
/f660764968{-10.083 3.481 M
-11.677 3.481 -12.247 2.169 QT
-12.818 0.856 -12.818 -0.941 QT
-12.818 -2.081 -12.615 -3.073 QT
-12.411 -4.066 -11.802 -4.761 QT
-11.193 -5.456 -10.083 -5.456 QT
-9.224 -5.456 -8.677 -5.042 QT
-8.13 -4.628 -7.849 -3.964 QT
-7.568 -3.3 -7.458 -2.542 QT
-7.349 -1.784 -7.349 -0.941 QT
-7.349 0.169 -7.56 1.145 QT
-7.771 2.122 -8.372 2.802 QT
-8.974 3.481 -10.083 3.481 QT
cp
-10.083 3.153 M
-9.365 3.153 -9.005 2.411 QT
-8.646 1.669 -8.568 0.762 QT
-8.49 -0.144 -8.49 -1.159 QT
-8.49 -2.128 -8.568 -2.956 QT
-8.646 -3.784 -8.997 -4.456 QT
-9.349 -5.128 -10.083 -5.128 QT
-10.818 -5.128 -11.177 -4.448 QT
-11.536 -3.769 -11.615 -2.948 QT
-11.693 -2.128 -11.693 -1.159 QT
-11.693 -0.425 -11.661 0.216 QT
-11.63 0.856 -11.474 1.536 QT
-11.318 2.216 -10.982 2.684 QT
-10.646 3.153 -10.083 3.153 QT
cp}def
f660764968
f
GR
GS
[0.75 0 0 0.75 79.25 143.7] CT
0 0.235 1 RC
N
f-2026418800
f
GR
GS
[0.75 0 0 0.75 79.25 102.3] CT
0 0.235 1 RC
N
/f-1068478890{-16.75 3.481 M
-17.563 3.481 -18.102 3.052 QT
-18.641 2.622 -18.93 1.942 QT
-19.219 1.262 -19.336 0.512 QT
-19.453 -0.238 -19.453 -1.003 QT
-19.453 -2.034 -19.055 -3.066 QT
-18.656 -4.097 -17.875 -4.777 QT
-17.094 -5.456 -16.031 -5.456 QT
-15.594 -5.456 -15.203 -5.292 QT
-14.813 -5.128 -14.594 -4.8 QT
-14.375 -4.472 -14.375 -4.003 QT
-14.375 -3.738 -14.563 -3.558 QT
-14.75 -3.378 -15.016 -3.378 QT
-15.266 -3.378 -15.445 -3.558 QT
-15.625 -3.738 -15.625 -4.003 QT
-15.625 -4.253 -15.445 -4.441 QT
-15.266 -4.628 -15.016 -4.628 QT
-14.938 -4.628 L
-15.109 -4.863 -15.406 -4.972 QT
-15.703 -5.081 -16.031 -5.081 QT
-16.422 -5.081 -16.758 -4.909 QT
-17.094 -4.738 -17.359 -4.448 QT
-17.625 -4.159 -17.805 -3.808 QT
-17.984 -3.456 -18.078 -3.003 QT
-18.172 -2.55 -18.203 -2.159 QT
-18.234 -1.769 -18.234 -1.175 QT
-18 -1.706 -17.578 -2.042 QT
-17.156 -2.378 -16.641 -2.378 QT
-16.063 -2.378 -15.586 -2.144 QT
-15.109 -1.909 -14.766 -1.495 QT
-14.422 -1.081 -14.242 -0.55 QT
-14.063 -0.019 -14.063 0.528 QT
-14.063 1.294 -14.398 1.981 QT
-14.734 2.669 -15.352 3.075 QT
-15.969 3.481 -16.75 3.481 QT
cp
-16.75 3.075 M
-16.25 3.075 -15.945 2.848 QT
-15.641 2.622 -15.5 2.239 QT
-15.359 1.856 -15.32 1.473 QT
-15.281 1.091 -15.281 0.528 QT
-15.281 -0.206 -15.352 -0.722 QT
-15.422 -1.238 -15.734 -1.636 QT
-16.047 -2.034 -16.688 -2.034 QT
-17.219 -2.034 -17.555 -1.683 QT
-17.891 -1.331 -18.047 -0.784 QT
-18.203 -0.238 -18.203 0.262 QT
-18.203 0.434 -18.188 0.528 QT
-18.188 0.544 -18.195 0.552 QT
-18.203 0.559 -18.203 0.591 QT
-18.203 1.137 -18.086 1.708 QT
-17.969 2.278 -17.648 2.677 QT
-17.328 3.075 -16.75 3.075 QT
cp}def
f-1068478890
f
GR
GS
[0.75 0 0 0.75 79.25 102.3] CT
0 0.235 1 RC
N
f660764968
f
GR
GS
[0.75 0 0 0.75 79.25 102.3] CT
0 0.235 1 RC
N
f-2026418800
f
GR
GS
[0.75 0 0 0.75 79.25 60.9] CT
0 0.235 1 RC
N
/f-1401505698{-19.453 1.231 M
-19.453 0.45 -18.938 -0.152 QT
-18.422 -0.753 -17.625 -1.159 QT
-18.109 -1.472 L
-18.547 -1.753 -18.828 -2.238 QT
-19.109 -2.722 -19.109 -3.269 QT
-19.109 -3.878 -18.781 -4.386 QT
-18.453 -4.894 -17.906 -5.175 QT
-17.359 -5.456 -16.75 -5.456 QT
-16.172 -5.456 -15.633 -5.222 QT
-15.094 -4.988 -14.75 -4.55 QT
-14.406 -4.113 -14.406 -3.503 QT
-14.406 -3.066 -14.609 -2.691 QT
-14.813 -2.316 -15.172 -2.019 QT
-15.531 -1.722 -15.938 -1.519 QT
-15.203 -1.034 L
-14.688 -0.706 -14.375 -0.159 QT
-14.063 0.387 -14.063 0.997 QT
-14.063 1.7 -14.438 2.278 QT
-14.813 2.856 -15.438 3.169 QT
-16.063 3.481 -16.75 3.481 QT
-17.422 3.481 -18.047 3.208 QT
-18.672 2.934 -19.063 2.419 QT
-19.453 1.903 -19.453 1.231 QT
cp
-18.75 1.231 M
-18.75 1.747 -18.469 2.169 QT
-18.188 2.591 -17.719 2.833 QT
-17.25 3.075 -16.75 3.075 QT
-16 3.075 -15.383 2.63 QT
-14.766 2.184 -14.766 1.466 QT
-14.766 1.216 -14.859 0.973 QT
-14.953 0.731 -15.133 0.528 QT
-15.313 0.325 -15.531 0.2 QT
-17.266 -0.925 L
-17.672 -0.722 -18.016 -0.386 QT
-18.359 -0.05 -18.555 0.356 QT
-18.75 0.762 -18.75 1.231 QT
cp
-17.859 -2.738 M
-16.281 -1.722 L
-15.734 -2.05 -15.383 -2.495 QT
-15.031 -2.941 -15.031 -3.503 QT
-15.031 -3.941 -15.281 -4.308 QT
-15.531 -4.675 -15.922 -4.878 QT
-16.313 -5.081 -16.766 -5.081 QT
-17.156 -5.081 -17.555 -4.933 QT
-17.953 -4.784 -18.211 -4.48 QT
-18.469 -4.175 -18.469 -3.769 QT
-18.469 -3.159 -17.859 -2.738 QT
cp}def
f-1401505698
f
GR
GS
[0.75 0 0 0.75 79.25 60.9] CT
0 0.235 1 RC
N
f660764968
f
GR
GS
[0.75 0 0 0.75 79.25 60.9] CT
0 0.235 1 RC
N
f-2026418800
f
GR
GS
[0.75 0 0 0.75 79.25 19.5] CT
0 0.235 1 RC
N
/f582687895{-25.464 3.2 M
-25.464 2.747 L
-23.839 2.747 -23.839 2.325 QT
-23.839 -4.488 L
-24.51 -4.175 -25.542 -4.175 QT
-25.542 -4.628 L
-23.948 -4.628 -23.135 -5.456 QT
-22.948 -5.456 L
-22.901 -5.456 -22.862 -5.425 QT
-22.823 -5.394 -22.823 -5.347 QT
-22.823 2.325 L
-22.823 2.747 -21.198 2.747 QT
-21.198 3.2 L
-25.464 3.2 L
cp}def
f582687895
f
GR
GS
[0.75 0 0 0.75 79.25 19.5] CT
0 0.235 1 RC
N
/f-399607053{-16.75 3.481 M
-18.344 3.481 -18.914 2.169 QT
-19.484 0.856 -19.484 -0.941 QT
-19.484 -2.081 -19.281 -3.073 QT
-19.078 -4.066 -18.469 -4.761 QT
-17.859 -5.456 -16.75 -5.456 QT
-15.891 -5.456 -15.344 -5.042 QT
-14.797 -4.628 -14.516 -3.964 QT
-14.234 -3.3 -14.125 -2.542 QT
-14.016 -1.784 -14.016 -0.941 QT
-14.016 0.169 -14.227 1.145 QT
-14.438 2.122 -15.039 2.802 QT
-15.641 3.481 -16.75 3.481 QT
cp
-16.75 3.153 M
-16.031 3.153 -15.672 2.411 QT
-15.313 1.669 -15.234 0.762 QT
-15.156 -0.144 -15.156 -1.159 QT
-15.156 -2.128 -15.234 -2.956 QT
-15.313 -3.784 -15.664 -4.456 QT
-16.016 -5.128 -16.75 -5.128 QT
-17.484 -5.128 -17.844 -4.448 QT
-18.203 -3.769 -18.281 -2.948 QT
-18.359 -2.128 -18.359 -1.159 QT
-18.359 -0.425 -18.328 0.216 QT
-18.297 0.856 -18.141 1.536 QT
-17.984 2.216 -17.648 2.684 QT
-17.313 3.153 -16.75 3.153 QT
cp}def
f-399607053
f
GR
GS
[0.75 0 0 0.75 79.25 19.5] CT
0 0.235 1 RC
N
f660764968
f
GR
GS
[0.75 0 0 0.75 79.25 19.5] CT
0 0.235 1 RC
N
f-2026418800
f
GR
GS
[0 -0.75 0.75 0 56.24994 122.9999] CT
0 0.235 1 RC
/Helvetica 14.667 F
GS
[1 0 0 1 0 0] CT
-53 -4 moveto 
1 -1 scale
(Makespan \(min\)) t 
GR
GR
GS
[0.75 0 0 0.75 0 0] CT
2 setlinecap
1 LJ
0.667 LW
N
771 302 M
771 26 L
S
GR
GS
[0.75 0 0 0.75 0 0] CT
2 setlinecap
1 LJ
0.667 LW
N
771 295.268 M
764.4 295.268 L
S
GR
GS
[0.75 0 0 0.75 0 0] CT
2 setlinecap
1 LJ
0.667 LW
N
771 261.61 M
764.4 261.61 L
S
GR
GS
[0.75 0 0 0.75 0 0] CT
2 setlinecap
1 LJ
0.667 LW
N
771 227.951 M
764.4 227.951 L
S
GR
GS
[0.75 0 0 0.75 0 0] CT
2 setlinecap
1 LJ
0.667 LW
N
771 194.293 M
764.4 194.293 L
S
GR
GS
[0.75 0 0 0.75 0 0] CT
2 setlinecap
1 LJ
0.667 LW
N
771 160.634 M
764.4 160.634 L
S
GR
GS
[0.75 0 0 0.75 0 0] CT
2 setlinecap
1 LJ
0.667 LW
N
771 126.976 M
764.4 126.976 L
S
GR
GS
[0.75 0 0 0.75 0 0] CT
2 setlinecap
1 LJ
0.667 LW
N
771 93.317 M
764.4 93.317 L
S
GR
GS
[0.75 0 0 0.75 0 0] CT
2 setlinecap
1 LJ
0.667 LW
N
771 59.659 M
764.4 59.659 L
S
GR
GS
[0.75 0 0 0.75 0 0] CT
2 setlinecap
1 LJ
0.667 LW
N
771 26 M
764.4 26 L
S
GR
GS
[0.75 0 0 0.75 582.25003 221.45121] CT
N
/f1462615791{3.25 3.481 M
1.656 3.481 1.086 2.169 QT
0.516 0.856 0.516 -0.941 QT
0.516 -2.081 0.719 -3.073 QT
0.922 -4.066 1.531 -4.761 QT
2.141 -5.456 3.25 -5.456 QT
4.109 -5.456 4.656 -5.042 QT
5.203 -4.628 5.484 -3.964 QT
5.766 -3.3 5.875 -2.542 QT
5.984 -1.784 5.984 -0.941 QT
5.984 0.169 5.773 1.145 QT
5.563 2.122 4.961 2.802 QT
4.359 3.481 3.25 3.481 QT
cp
3.25 3.153 M
3.969 3.153 4.328 2.411 QT
4.688 1.669 4.766 0.762 QT
4.844 -0.144 4.844 -1.159 QT
4.844 -2.128 4.766 -2.956 QT
4.688 -3.784 4.336 -4.456 QT
3.984 -5.128 3.25 -5.128 QT
2.516 -5.128 2.156 -4.448 QT
1.797 -3.769 1.719 -2.948 QT
1.641 -2.128 1.641 -1.159 QT
1.641 -0.425 1.672 0.216 QT
1.703 0.856 1.859 1.536 QT
2.016 2.216 2.352 2.684 QT
2.688 3.153 3.25 3.153 QT
cp}def
f1462615791
f
GR
GS
[0.75 0 0 0.75 582.25003 196.20731] CT
N
/f615335308{1.125 1.716 M
1.266 2.106 1.539 2.419 QT
1.813 2.731 2.195 2.903 QT
2.578 3.075 2.984 3.075 QT
3.922 3.075 4.273 2.341 QT
4.625 1.606 4.625 0.575 QT
4.625 0.122 4.609 -0.183 QT
4.594 -0.488 4.531 -0.784 QT
4.406 -1.238 4.102 -1.581 QT
3.797 -1.925 3.359 -1.925 QT
2.922 -1.925 2.609 -1.792 QT
2.297 -1.659 2.102 -1.48 QT
1.906 -1.3 1.75 -1.105 QT
1.594 -0.909 1.563 -0.894 QT
1.422 -0.894 L
1.391 -0.894 1.336 -0.933 QT
1.281 -0.972 1.281 -1.019 QT
1.281 -5.363 L
1.281 -5.394 1.328 -5.425 QT
1.375 -5.456 1.422 -5.456 QT
1.453 -5.456 L
2.328 -5.034 3.313 -5.034 QT
4.281 -5.034 5.172 -5.456 QT
5.219 -5.456 L
5.25 -5.456 5.289 -5.425 QT
5.328 -5.394 5.328 -5.363 QT
5.328 -5.238 L
5.328 -5.175 5.313 -5.175 QT
4.859 -4.581 4.188 -4.253 QT
3.516 -3.925 2.813 -3.925 QT
2.281 -3.925 1.734 -4.066 QT
1.734 -1.613 L
2.172 -1.956 2.508 -2.105 QT
2.844 -2.253 3.375 -2.253 QT
4.094 -2.253 4.664 -1.847 QT
5.234 -1.441 5.539 -0.777 QT
5.844 -0.113 5.844 0.591 QT
5.844 1.372 5.461 2.036 QT
5.078 2.7 4.414 3.091 QT
3.75 3.481 2.984 3.481 QT
2.344 3.481 1.805 3.153 QT
1.266 2.825 0.953 2.27 QT
0.641 1.716 0.641 1.075 QT
0.641 0.794 0.836 0.606 QT
1.031 0.419 1.313 0.419 QT
1.594 0.419 1.789 0.606 QT
1.984 0.794 1.984 1.075 QT
1.984 1.356 1.789 1.552 QT
1.594 1.747 1.313 1.747 QT
1.266 1.747 1.211 1.739 QT
1.156 1.731 1.125 1.716 QT
cp}def
f615335308
f
GR
GS
[0.75 0 0 0.75 582.25003 196.20731] CT
N
/f167239034{9.917 3.481 M
8.323 3.481 7.753 2.169 QT
7.182 0.856 7.182 -0.941 QT
7.182 -2.081 7.385 -3.073 QT
7.589 -4.066 8.198 -4.761 QT
8.807 -5.456 9.917 -5.456 QT
10.776 -5.456 11.323 -5.042 QT
11.87 -4.628 12.151 -3.964 QT
12.432 -3.3 12.542 -2.542 QT
12.651 -1.784 12.651 -0.941 QT
12.651 0.169 12.44 1.145 QT
12.229 2.122 11.628 2.802 QT
11.026 3.481 9.917 3.481 QT
cp
9.917 3.153 M
10.635 3.153 10.995 2.411 QT
11.354 1.669 11.432 0.762 QT
11.51 -0.144 11.51 -1.159 QT
11.51 -2.128 11.432 -2.956 QT
11.354 -3.784 11.003 -4.456 QT
10.651 -5.128 9.917 -5.128 QT
9.182 -5.128 8.823 -4.448 QT
8.464 -3.769 8.385 -2.948 QT
8.307 -2.128 8.307 -1.159 QT
8.307 -0.425 8.339 0.216 QT
8.37 0.856 8.526 1.536 QT
8.682 2.216 9.018 2.684 QT
9.354 3.153 9.917 3.153 QT
cp}def
f167239034
f
GR
GS
[0.75 0 0 0.75 582.25003 170.96341] CT
N
/f1726952457{1.203 3.2 M
1.203 2.747 L
2.828 2.747 2.828 2.325 QT
2.828 -4.488 L
2.156 -4.175 1.125 -4.175 QT
1.125 -4.628 L
2.719 -4.628 3.531 -5.456 QT
3.719 -5.456 L
3.766 -5.456 3.805 -5.425 QT
3.844 -5.394 3.844 -5.347 QT
3.844 2.325 L
3.844 2.747 5.469 2.747 QT
5.469 3.2 L
1.203 3.2 L
cp}def
f1726952457
f
GR
GS
[0.75 0 0 0.75 582.25003 170.96341] CT
N
f167239034
f
GR
GS
[0.75 0 0 0.75 582.25003 170.96341] CT
N
/f350487604{16.583 3.481 M
14.99 3.481 14.419 2.169 QT
13.849 0.856 13.849 -0.941 QT
13.849 -2.081 14.052 -3.073 QT
14.255 -4.066 14.865 -4.761 QT
15.474 -5.456 16.583 -5.456 QT
17.443 -5.456 17.99 -5.042 QT
18.536 -4.628 18.818 -3.964 QT
19.099 -3.3 19.208 -2.542 QT
19.318 -1.784 19.318 -0.941 QT
19.318 0.169 19.107 1.145 QT
18.896 2.122 18.294 2.802 QT
17.693 3.481 16.583 3.481 QT
cp
16.583 3.153 M
17.302 3.153 17.661 2.411 QT
18.021 1.669 18.099 0.762 QT
18.177 -0.144 18.177 -1.159 QT
18.177 -2.128 18.099 -2.956 QT
18.021 -3.784 17.669 -4.456 QT
17.318 -5.128 16.583 -5.128 QT
15.849 -5.128 15.49 -4.448 QT
15.13 -3.769 15.052 -2.948 QT
14.974 -2.128 14.974 -1.159 QT
14.974 -0.425 15.005 0.216 QT
15.036 0.856 15.193 1.536 QT
15.349 2.216 15.685 2.684 QT
16.021 3.153 16.583 3.153 QT
cp}def
f350487604
f
GR
GS
[0.75 0 0 0.75 582.25003 145.71951] CT
N
f1726952457
f
GR
GS
[0.75 0 0 0.75 582.25003 145.71951] CT
N
/f106181819{7.792 1.716 M
7.932 2.106 8.206 2.419 QT
8.479 2.731 8.862 2.903 QT
9.245 3.075 9.651 3.075 QT
10.589 3.075 10.94 2.341 QT
11.292 1.606 11.292 0.575 QT
11.292 0.122 11.276 -0.183 QT
11.26 -0.488 11.198 -0.784 QT
11.073 -1.238 10.768 -1.581 QT
10.464 -1.925 10.026 -1.925 QT
9.589 -1.925 9.276 -1.792 QT
8.964 -1.659 8.768 -1.48 QT
8.573 -1.3 8.417 -1.105 QT
8.26 -0.909 8.229 -0.894 QT
8.089 -0.894 L
8.057 -0.894 8.003 -0.933 QT
7.948 -0.972 7.948 -1.019 QT
7.948 -5.363 L
7.948 -5.394 7.995 -5.425 QT
8.042 -5.456 8.089 -5.456 QT
8.12 -5.456 L
8.995 -5.034 9.979 -5.034 QT
10.948 -5.034 11.839 -5.456 QT
11.885 -5.456 L
11.917 -5.456 11.956 -5.425 QT
11.995 -5.394 11.995 -5.363 QT
11.995 -5.238 L
11.995 -5.175 11.979 -5.175 QT
11.526 -4.581 10.854 -4.253 QT
10.182 -3.925 9.479 -3.925 QT
8.948 -3.925 8.401 -4.066 QT
8.401 -1.613 L
8.839 -1.956 9.174 -2.105 QT
9.51 -2.253 10.042 -2.253 QT
10.76 -2.253 11.331 -1.847 QT
11.901 -1.441 12.206 -0.777 QT
12.51 -0.113 12.51 0.591 QT
12.51 1.372 12.128 2.036 QT
11.745 2.7 11.081 3.091 QT
10.417 3.481 9.651 3.481 QT
9.01 3.481 8.471 3.153 QT
7.932 2.825 7.62 2.27 QT
7.307 1.716 7.307 1.075 QT
7.307 0.794 7.503 0.606 QT
7.698 0.419 7.979 0.419 QT
8.26 0.419 8.456 0.606 QT
8.651 0.794 8.651 1.075 QT
8.651 1.356 8.456 1.552 QT
8.26 1.747 7.979 1.747 QT
7.932 1.747 7.878 1.739 QT
7.823 1.731 7.792 1.716 QT
cp}def
f106181819
f
GR
GS
[0.75 0 0 0.75 582.25003 145.71951] CT
N
f350487604
f
GR
GS
[0.75 0 0 0.75 582.25003 120.47561] CT
N
/f775622464{0.641 3.2 M
0.641 2.856 L
0.641 2.825 0.672 2.778 QT
2.688 0.544 L
3.156 0.044 3.438 -0.292 QT
3.719 -0.628 4 -1.066 QT
4.281 -1.503 4.445 -1.956 QT
4.609 -2.409 4.609 -2.909 QT
4.609 -3.441 4.406 -3.933 QT
4.203 -4.425 3.813 -4.714 QT
3.422 -5.003 2.875 -5.003 QT
2.313 -5.003 1.859 -4.659 QT
1.406 -4.316 1.219 -3.784 QT
1.281 -3.8 1.359 -3.8 QT
1.656 -3.8 1.859 -3.605 QT
2.063 -3.409 2.063 -3.097 QT
2.063 -2.8 1.859 -2.589 QT
1.656 -2.378 1.359 -2.378 QT
1.063 -2.378 0.852 -2.589 QT
0.641 -2.8 0.641 -3.097 QT
0.641 -3.581 0.828 -4.011 QT
1.016 -4.441 1.359 -4.769 QT
1.703 -5.097 2.141 -5.277 QT
2.578 -5.456 3.063 -5.456 QT
3.813 -5.456 4.453 -5.144 QT
5.094 -4.831 5.469 -4.253 QT
5.844 -3.675 5.844 -2.909 QT
5.844 -2.347 5.594 -1.839 QT
5.344 -1.331 4.961 -0.917 QT
4.578 -0.503 3.969 0.028 QT
3.359 0.559 3.172 0.731 QT
1.703 2.153 L
2.953 2.153 L
3.875 2.153 4.492 2.137 QT
5.109 2.122 5.141 2.075 QT
5.297 1.919 5.453 0.887 QT
5.844 0.887 L
5.469 3.2 L
0.641 3.2 L
cp}def
f775622464
f
GR
GS
[0.75 0 0 0.75 582.25003 120.47561] CT
N
f167239034
f
GR
GS
[0.75 0 0 0.75 582.25003 120.47561] CT
N
f350487604
f
GR
GS
[0.75 0 0 0.75 582.25003 95.23171] CT
N
f775622464
f
GR
GS
[0.75 0 0 0.75 582.25003 95.23171] CT
N
f106181819
f
GR
GS
[0.75 0 0 0.75 582.25003 95.23171] CT
N
f350487604
f
GR
GS
[0.75 0 0 0.75 582.25003 69.9878] CT
N
/f529299638{1.234 2.2 M
1.547 2.637 2.063 2.856 QT
2.578 3.075 3.156 3.075 QT
3.922 3.075 4.234 2.427 QT
4.547 1.778 4.547 0.966 QT
4.547 0.591 4.484 0.223 QT
4.422 -0.144 4.258 -0.456 QT
4.094 -0.769 3.82 -0.964 QT
3.547 -1.159 3.156 -1.159 QT
2.281 -1.159 L
2.172 -1.159 2.172 -1.269 QT
2.172 -1.394 L
2.172 -1.488 2.281 -1.488 QT
3 -1.55 L
3.453 -1.55 3.758 -1.894 QT
4.063 -2.238 4.203 -2.73 QT
4.344 -3.222 4.344 -3.659 QT
4.344 -4.284 4.055 -4.683 QT
3.766 -5.081 3.156 -5.081 QT
2.672 -5.081 2.219 -4.894 QT
1.766 -4.706 1.5 -4.331 QT
1.531 -4.331 1.547 -4.339 QT
1.563 -4.347 1.594 -4.347 QT
1.875 -4.347 2.07 -4.144 QT
2.266 -3.941 2.266 -3.644 QT
2.266 -3.363 2.07 -3.159 QT
1.875 -2.956 1.594 -2.956 QT
1.297 -2.956 1.094 -3.159 QT
0.891 -3.363 0.891 -3.644 QT
0.891 -4.206 1.227 -4.62 QT
1.563 -5.034 2.094 -5.245 QT
2.625 -5.456 3.156 -5.456 QT
3.563 -5.456 4 -5.339 QT
4.438 -5.222 4.789 -5.003 QT
5.141 -4.784 5.367 -4.441 QT
5.594 -4.097 5.594 -3.659 QT
5.594 -3.113 5.352 -2.652 QT
5.109 -2.191 4.68 -1.855 QT
4.25 -1.519 3.75 -1.347 QT
4.313 -1.238 4.82 -0.925 QT
5.328 -0.613 5.633 -0.113 QT
5.938 0.387 5.938 0.95 QT
5.938 1.669 5.547 2.247 QT
5.156 2.825 4.516 3.153 QT
3.875 3.481 3.156 3.481 QT
2.547 3.481 1.938 3.255 QT
1.328 3.028 0.938 2.559 QT
0.547 2.091 0.547 1.45 QT
0.547 1.122 0.766 0.911 QT
0.984 0.7 1.297 0.7 QT
1.516 0.7 1.688 0.794 QT
1.859 0.887 1.961 1.067 QT
2.063 1.247 2.063 1.45 QT
2.063 1.762 1.836 1.981 QT
1.609 2.2 1.297 2.2 QT
1.234 2.2 L
cp}def
f529299638
f
GR
GS
[0.75 0 0 0.75 582.25003 69.9878] CT
N
f167239034
f
GR
GS
[0.75 0 0 0.75 582.25003 69.9878] CT
N
f350487604
f
GR
GS
[0.75 0 0 0.75 582.25003 44.7439] CT
N
f529299638
f
GR
GS
[0.75 0 0 0.75 582.25003 44.7439] CT
N
f106181819
f
GR
GS
[0.75 0 0 0.75 582.25003 44.7439] CT
N
f350487604
f
GR
GS
[0.75 0 0 0.75 582.25003 19.5] CT
N
/f2049150242{0.359 1.059 M
0.359 0.591 L
4.375 -5.394 L
4.422 -5.456 4.516 -5.456 QT
4.703 -5.456 L
4.844 -5.456 4.844 -5.316 QT
4.844 0.591 L
6.125 0.591 L
6.125 1.059 L
4.844 1.059 L
4.844 2.325 L
4.844 2.591 5.227 2.669 QT
5.609 2.747 6.109 2.747 QT
6.109 3.2 L
2.531 3.2 L
2.531 2.747 L
3.031 2.747 3.414 2.669 QT
3.797 2.591 3.797 2.325 QT
3.797 1.059 L
0.359 1.059 L
cp
0.797 0.591 M
3.875 0.591 L
3.875 -4.003 L
0.797 0.591 L
cp}def
f2049150242
f
GR
GS
[0.75 0 0 0.75 582.25003 19.5] CT
N
f167239034
f
GR
GS
[0.75 0 0 0.75 582.25003 19.5] CT
N
f350487604
f
GR
GS
[0 -0.75 0.75 0 600.25003 122.9999] CT
/Helvetica 14.667 F
GS
[1 0 0 1 0 0] CT
-49.5 15 moveto 
1 -1 scale
(Discrepancy \(t\)) t 
GR
GR
GS
[0.75 0 0 0.75 0 0] CT
N
111 26 M
772 26 L
772 303 L
111 303 L
111 26 L
cp
clip
0 0 1 RC
[10 6] 0 setdash
2 LJ
0.667 LW
N
145.737 119.84 M
145.737 61.88 L
S
GR
GS
[0.75 0 0 0.75 0 0] CT
N
111 26 M
772 26 L
772 303 L
111 303 L
111 26 L
cp
clip
0 0 1 RC
[10 6] 0 setdash
2 LJ
0.667 LW
N
145.737 186.08 M
145.737 161.24 L
S
GR
GS
[0.75 0 0 0.75 0 0] CT
N
111 26 M
772 26 L
772 303 L
111 303 L
111 26 L
cp
clip
0 0 1 RC
1 LJ
0.667 LW
N
140.092 61.88 M
151.382 61.88 L
S
GR
GS
[0.75 0 0 0.75 0 0] CT
N
111 26 M
772 26 L
772 303 L
111 303 L
111 26 L
cp
clip
0 0 1 RC
1 LJ
0.667 LW
N
140.092 186.08 M
151.382 186.08 L
S
GR
GS
[0.75 0 0 0.75 0 0] CT
0 0 1 RC
1 LJ
0.667 LW
N
134.447 161.24 M
134.447 119.84 L
157.026 119.84 L
157.026 161.24 L
134.447 161.24 L
S
GR
GS
[0.75 0 0 0.75 0 0] CT
N
111 26 M
772 26 L
772 303 L
111 303 L
111 26 L
cp
clip
1 0 0 RC
1 LJ
0.667 LW
N
134.447 152.96 M
157.026 152.96 L
S
GR
GS
[0.75 0 0 0.75 109.30264 40.2] CT
1 0 0 RC
10.0 ML
N
0 -4 M
0 4 L
-4 0 M
4 0 L
S
GR
GS
[0.75 0 0 0.75 109.30264 40.2] CT
1 0 0 RC
10.0 ML
N
0 -4 M
0 4 L
-4 0 M
4 0 L
S
GR
GS
[0.75 0 0 0.75 109.30264 40.2] CT
1 0 0 RC
10.0 ML
N
0 -4 M
0 4 L
-4 0 M
4 0 L
S
GR
GS
[0.75 0 0 0.75 109.30264 33.99] CT
1 0 0 RC
10.0 ML
N
0 -4 M
0 4 L
-4 0 M
4 0 L
S
GR
GS
[0.75 0 0 0.75 0 0] CT
N
111 26 M
772 26 L
772 303 L
111 303 L
111 26 L
cp
clip
0 0 1 RC
[10 6] 0 setdash
2 LJ
0.667 LW
N
354.158 219.2 M
354.158 202.64 L
S
GR
GS
[0.75 0 0 0.75 0 0] CT
N
111 26 M
772 26 L
772 303 L
111 303 L
111 26 L
cp
clip
0 0 1 RC
[10 6] 0 setdash
2 LJ
0.667 LW
N
354.158 252.32 M
354.158 235.76 L
S
GR
GS
[0.75 0 0 0.75 0 0] CT
N
111 26 M
772 26 L
772 303 L
111 303 L
111 26 L
cp
clip
0 0 1 RC
1 LJ
0.667 LW
N
348.513 202.64 M
359.803 202.64 L
S
GR
GS
[0.75 0 0 0.75 0 0] CT
N
111 26 M
772 26 L
772 303 L
111 303 L
111 26 L
cp
clip
0 0 1 RC
1 LJ
0.667 LW
N
348.513 252.32 M
359.803 252.32 L
S
GR
GS
[0.75 0 0 0.75 0 0] CT
0 0 1 RC
1 LJ
0.667 LW
N
342.868 235.76 M
342.868 219.2 L
365.447 219.2 L
365.447 235.76 L
342.868 235.76 L
S
GR
GS
[0.75 0 0 0.75 0 0] CT
N
111 26 M
772 26 L
772 303 L
111 303 L
111 26 L
cp
clip
1 0 0 RC
1 LJ
0.667 LW
N
342.868 229.55 M
365.447 229.55 L
S
GR
GS
[0.75 0 0 0.75 265.61842 133.35] CT
1 0 0 RC
10.0 ML
N
0 -4 M
0 4 L
-4 0 M
4 0 L
S
GR
GS
[0.75 0 0 0.75 0 0] CT
N
111 26 M
772 26 L
772 303 L
111 303 L
111 26 L
cp
clip
0 0 1 RC
[10 6] 0 setdash
2 LJ
0.667 LW
N
562.579 157.1 M
562.579 144.68 L
S
GR
GS
[0.75 0 0 0.75 0 0] CT
N
111 26 M
772 26 L
772 303 L
111 303 L
111 26 L
cp
clip
0 0 1 RC
[10 6] 0 setdash
2 LJ
0.667 LW
N
562.579 177.8 M
562.579 169.52 L
S
GR
GS
[0.75 0 0 0.75 0 0] CT
N
111 26 M
772 26 L
772 303 L
111 303 L
111 26 L
cp
clip
0 0 1 RC
1 LJ
0.667 LW
N
556.934 144.68 M
568.224 144.68 L
S
GR
GS
[0.75 0 0 0.75 0 0] CT
N
111 26 M
772 26 L
772 303 L
111 303 L
111 26 L
cp
clip
0 0 1 RC
1 LJ
0.667 LW
N
556.934 177.8 M
568.224 177.8 L
S
GR
GS
[0.75 0 0 0.75 0 0] CT
0 0 1 RC
1 LJ
0.667 LW
N
551.289 169.52 M
551.289 157.1 L
573.868 157.1 L
573.868 169.52 L
551.289 169.52 L
S
GR
GS
[0.75 0 0 0.75 0 0] CT
N
111 26 M
772 26 L
772 303 L
111 303 L
111 26 L
cp
clip
1 0 0 RC
1 LJ
0.667 LW
N
551.289 161.24 M
573.868 161.24 L
S
GR
GS
[0.75 0 0 0.75 421.93419 145.77] CT
1 0 0 RC
10.0 ML
N
0 -4 M
0 4 L
-4 0 M
4 0 L
S
GR
GS
[0.75 0 0 0.75 421.93419 89.88] CT
1 0 0 RC
10.0 ML
N
0 -4 M
0 4 L
-4 0 M
4 0 L
S
GR
GS
[0.75 0 0 0.75 0 0] CT
N
111 26 M
772 26 L
772 303 L
111 303 L
111 26 L
cp
clip
[10 6] 0 setdash
2 LJ
0.667 LW
N
180.474 241.415 M
180.474 211.122 L
S
GR
GS
[0.75 0 0 0.75 0 0] CT
N
111 26 M
772 26 L
772 303 L
111 303 L
111 26 L
cp
clip
[10 6] 0 setdash
2 LJ
0.667 LW
N
215.211 254.878 M
215.211 227.951 L
S
GR
GS
[0.75 0 0 0.75 0 0] CT
N
111 26 M
772 26 L
772 303 L
111 303 L
111 26 L
cp
clip
[10 6] 0 setdash
2 LJ
0.667 LW
N
249.947 266.995 M
249.947 248.146 L
S
GR
GS
[0.75 0 0 0.75 0 0] CT
N
111 26 M
772 26 L
772 303 L
111 303 L
111 26 L
cp
clip
[10 6] 0 setdash
2 LJ
0.667 LW
N
284.684 260.263 M
284.684 244.107 L
S
GR
GS
[0.75 0 0 0.75 0 0] CT
N
111 26 M
772 26 L
772 303 L
111 303 L
111 26 L
cp
clip
[10 6] 0 setdash
2 LJ
0.667 LW
N
319.421 165.346 M
319.421 138.42 L
S
GR
GS
[0.75 0 0 0.75 0 0] CT
N
111 26 M
772 26 L
772 303 L
111 303 L
111 26 L
cp
clip
[10 6] 0 setdash
2 LJ
0.667 LW
N
180.474 288.537 M
180.474 261.61 L
S
GR
GS
[0.75 0 0 0.75 0 0] CT
N
111 26 M
772 26 L
772 303 L
111 303 L
111 26 L
cp
clip
[10 6] 0 setdash
2 LJ
0.667 LW
N
215.211 295.268 M
215.211 275.073 L
S
GR
GS
[0.75 0 0 0.75 0 0] CT
N
111 26 M
772 26 L
772 303 L
111 303 L
111 26 L
cp
clip
[10 6] 0 setdash
2 LJ
0.667 LW
N
249.947 293.922 M
249.947 280.459 L
S
GR
GS
[0.75 0 0 0.75 0 0] CT
N
111 26 M
772 26 L
772 303 L
111 303 L
111 26 L
cp
clip
[10 6] 0 setdash
2 LJ
0.667 LW
N
284.684 292.576 M
284.684 283.151 L
S
GR
GS
[0.75 0 0 0.75 0 0] CT
N
111 26 M
772 26 L
772 303 L
111 303 L
111 26 L
cp
clip
[10 6] 0 setdash
2 LJ
0.667 LW
N
319.421 201.698 M
319.421 184.868 L
S
GR
GS
[0.75 0 0 0.75 0 0] CT
N
111 26 M
772 26 L
772 303 L
111 303 L
111 26 L
cp
clip
1 LJ
0.667 LW
N
174.829 211.122 M
186.118 211.122 L
S
GR
GS
[0.75 0 0 0.75 0 0] CT
N
111 26 M
772 26 L
772 303 L
111 303 L
111 26 L
cp
clip
1 LJ
0.667 LW
N
209.566 227.951 M
220.855 227.951 L
S
GR
GS
[0.75 0 0 0.75 0 0] CT
N
111 26 M
772 26 L
772 303 L
111 303 L
111 26 L
cp
clip
1 LJ
0.667 LW
N
244.303 248.146 M
255.592 248.146 L
S
GR
GS
[0.75 0 0 0.75 0 0] CT
N
111 26 M
772 26 L
772 303 L
111 303 L
111 26 L
cp
clip
1 LJ
0.667 LW
N
279.039 244.107 M
290.329 244.107 L
S
GR
GS
[0.75 0 0 0.75 0 0] CT
N
111 26 M
772 26 L
772 303 L
111 303 L
111 26 L
cp
clip
1 LJ
0.667 LW
N
313.776 138.42 M
325.066 138.42 L
S
GR
GS
[0.75 0 0 0.75 0 0] CT
N
111 26 M
772 26 L
772 303 L
111 303 L
111 26 L
cp
clip
1 LJ
0.667 LW
N
174.829 288.537 M
186.118 288.537 L
S
GR
GS
[0.75 0 0 0.75 0 0] CT
N
111 26 M
772 26 L
772 303 L
111 303 L
111 26 L
cp
clip
1 LJ
0.667 LW
N
209.566 295.268 M
220.855 295.268 L
S
GR
GS
[0.75 0 0 0.75 0 0] CT
N
111 26 M
772 26 L
772 303 L
111 303 L
111 26 L
cp
clip
1 LJ
0.667 LW
N
244.303 293.922 M
255.592 293.922 L
S
GR
GS
[0.75 0 0 0.75 0 0] CT
N
111 26 M
772 26 L
772 303 L
111 303 L
111 26 L
cp
clip
1 LJ
0.667 LW
N
279.039 292.576 M
290.329 292.576 L
S
GR
GS
[0.75 0 0 0.75 0 0] CT
N
111 26 M
772 26 L
772 303 L
111 303 L
111 26 L
cp
clip
1 LJ
0.667 LW
N
313.776 201.698 M
325.066 201.698 L
S
GR
GS
[0.75 0 0 0.75 0 0] CT
0 0 1 RC
1 LJ
0.667 LW
N
169.184 261.61 M
169.184 241.415 L
191.763 241.415 L
191.763 261.61 L
169.184 261.61 L
S
GR
GS
[0.75 0 0 0.75 0 0] CT
0 0 1 RC
1 LJ
0.667 LW
N
203.921 275.073 M
203.921 254.878 L
226.5 254.878 L
226.5 275.073 L
203.921 275.073 L
S
GR
GS
[0.75 0 0 0.75 0 0] CT
0 0 1 RC
1 LJ
0.667 LW
N
238.658 280.459 M
238.658 266.995 L
261.237 266.995 L
261.237 280.459 L
238.658 280.459 L
S
GR
GS
[0.75 0 0 0.75 0 0] CT
0 0 1 RC
1 LJ
0.667 LW
N
273.395 283.151 M
273.395 260.263 L
295.974 260.263 L
295.974 283.151 L
273.395 283.151 L
S
GR
GS
[0.75 0 0 0.75 0 0] CT
0 0 1 RC
1 LJ
0.667 LW
N
308.132 184.868 M
308.132 165.346 L
330.711 165.346 L
330.711 184.868 L
308.132 184.868 L
S
GR
GS
[0.75 0 0 0.75 0 0] CT
N
111 26 M
772 26 L
772 303 L
111 303 L
111 26 L
cp
clip
1 0 0 RC
1 LJ
0.667 LW
N
169.184 251.512 M
191.763 251.512 L
S
GR
GS
[0.75 0 0 0.75 0 0] CT
N
111 26 M
772 26 L
772 303 L
111 303 L
111 26 L
cp
clip
1 0 0 RC
1 LJ
0.667 LW
N
203.921 264.976 M
226.5 264.976 L
S
GR
GS
[0.75 0 0 0.75 0 0] CT
N
111 26 M
772 26 L
772 303 L
111 303 L
111 26 L
cp
clip
1 0 0 RC
1 LJ
0.667 LW
N
238.658 272.38 M
261.237 272.38 L
S
GR
GS
[0.75 0 0 0.75 0 0] CT
N
111 26 M
772 26 L
772 303 L
111 303 L
111 26 L
cp
clip
1 0 0 RC
1 LJ
0.667 LW
N
273.395 272.38 M
295.974 272.38 L
S
GR
GS
[0.75 0 0 0.75 0 0] CT
N
111 26 M
772 26 L
772 303 L
111 303 L
111 26 L
cp
clip
1 0 0 RC
1 LJ
0.667 LW
N
308.132 174.434 M
330.711 174.434 L
S
GR
GS
[0.75 0 0 0.75 135.35526 155.81708] CT
1 0 0 RC
10.0 ML
N
0 -4 M
0 4 L
-4 0 M
4 0 L
S
GR
GS
[0.75 0 0 0.75 187.46053 184.09024] CT
1 0 0 RC
10.0 ML
N
0 -4 M
0 4 L
-4 0 M
4 0 L
S
GR
GS
[0.75 0 0 0.75 187.46053 180.05122] CT
1 0 0 RC
10.0 ML
N
0 -4 M
0 4 L
-4 0 M
4 0 L
S
GR
GS
[0.75 0 0 0.75 187.46053 180.05122] CT
1 0 0 RC
10.0 ML
N
0 -4 M
0 4 L
-4 0 M
4 0 L
S
GR
GS
[0.75 0 0 0.75 187.46053 176.01219] CT
1 0 0 RC
10.0 ML
N
0 -4 M
0 4 L
-4 0 M
4 0 L
S
GR
GS
[0.75 0 0 0.75 239.56579 164.90488] CT
1 0 0 RC
10.0 ML
N
0 -4 M
0 4 L
-4 0 M
4 0 L
S
GR
GS
[0.75 0 0 0.75 239.56579 95.23171] CT
1 0 0 RC
10.0 ML
N
0 -4 M
0 4 L
-4 0 M
4 0 L
S
GR
GS
[0.75 0 0 0.75 0 0] CT
N
111 26 M
772 26 L
772 303 L
111 303 L
111 26 L
cp
clip
[10 6] 0 setdash
2 LJ
0.667 LW
N
388.895 285.171 M
388.895 271.707 L
S
GR
GS
[0.75 0 0 0.75 0 0] CT
N
111 26 M
772 26 L
772 303 L
111 303 L
111 26 L
cp
clip
[10 6] 0 setdash
2 LJ
0.667 LW
N
423.632 281.805 M
423.632 261.61 L
S
GR
GS
[0.75 0 0 0.75 0 0] CT
N
111 26 M
772 26 L
772 303 L
111 303 L
111 26 L
cp
clip
[10 6] 0 setdash
2 LJ
0.667 LW
N
458.368 285.844 M
458.368 281.805 L
S
GR
GS
[0.75 0 0 0.75 0 0] CT
N
111 26 M
772 26 L
772 303 L
111 303 L
111 26 L
cp
clip
[10 6] 0 setdash
2 LJ
0.667 LW
N
493.105 284.498 M
493.105 272.38 L
S
GR
GS
[0.75 0 0 0.75 0 0] CT
N
111 26 M
772 26 L
772 303 L
111 303 L
111 26 L
cp
clip
[10 6] 0 setdash
2 LJ
0.667 LW
N
527.842 246.127 M
527.842 208.429 L
S
GR
GS
[0.75 0 0 0.75 0 0] CT
N
111 26 M
772 26 L
772 303 L
111 303 L
111 26 L
cp
clip
[10 6] 0 setdash
2 LJ
0.667 LW
N
388.895 295.268 M
388.895 295.268 L
S
GR
GS
[0.75 0 0 0.75 0 0] CT
N
111 26 M
772 26 L
772 303 L
111 303 L
111 26 L
cp
clip
[10 6] 0 setdash
2 LJ
0.667 LW
N
423.632 295.268 M
423.632 295.268 L
S
GR
GS
[0.75 0 0 0.75 0 0] CT
N
111 26 M
772 26 L
772 303 L
111 303 L
111 26 L
cp
clip
[10 6] 0 setdash
2 LJ
0.667 LW
N
458.368 293.922 M
458.368 293.922 L
S
GR
GS
[0.75 0 0 0.75 0 0] CT
N
111 26 M
772 26 L
772 303 L
111 303 L
111 26 L
cp
clip
[10 6] 0 setdash
2 LJ
0.667 LW
N
493.105 292.576 M
493.105 292.576 L
S
GR
GS
[0.75 0 0 0.75 0 0] CT
N
111 26 M
772 26 L
772 303 L
111 303 L
111 26 L
cp
clip
[10 6] 0 setdash
2 LJ
0.667 LW
N
527.842 283.824 M
527.842 276.083 L
S
GR
GS
[0.75 0 0 0.75 0 0] CT
N
111 26 M
772 26 L
772 303 L
111 303 L
111 26 L
cp
clip
1 LJ
0.667 LW
N
383.25 271.707 M
394.539 271.707 L
S
GR
GS
[0.75 0 0 0.75 0 0] CT
N
111 26 M
772 26 L
772 303 L
111 303 L
111 26 L
cp
clip
1 LJ
0.667 LW
N
417.987 261.61 M
429.276 261.61 L
S
GR
GS
[0.75 0 0 0.75 0 0] CT
N
111 26 M
772 26 L
772 303 L
111 303 L
111 26 L
cp
clip
1 LJ
0.667 LW
N
452.724 281.805 M
464.013 281.805 L
S
GR
GS
[0.75 0 0 0.75 0 0] CT
N
111 26 M
772 26 L
772 303 L
111 303 L
111 26 L
cp
clip
1 LJ
0.667 LW
N
487.461 272.38 M
498.75 272.38 L
S
GR
GS
[0.75 0 0 0.75 0 0] CT
N
111 26 M
772 26 L
772 303 L
111 303 L
111 26 L
cp
clip
1 LJ
0.667 LW
N
522.197 208.429 M
533.487 208.429 L
S
GR
GS
[0.75 0 0 0.75 0 0] CT
N
111 26 M
772 26 L
772 303 L
111 303 L
111 26 L
cp
clip
1 LJ
0.667 LW
N
383.25 295.268 M
394.539 295.268 L
S
GR
GS
[0.75 0 0 0.75 0 0] CT
N
111 26 M
772 26 L
772 303 L
111 303 L
111 26 L
cp
clip
1 LJ
0.667 LW
N
417.987 295.268 M
429.276 295.268 L
S
GR
GS
[0.75 0 0 0.75 0 0] CT
N
111 26 M
772 26 L
772 303 L
111 303 L
111 26 L
cp
clip
1 LJ
0.667 LW
N
452.724 293.922 M
464.013 293.922 L
S
GR
GS
[0.75 0 0 0.75 0 0] CT
N
111 26 M
772 26 L
772 303 L
111 303 L
111 26 L
cp
clip
1 LJ
0.667 LW
N
487.461 292.576 M
498.75 292.576 L
S
GR
GS
[0.75 0 0 0.75 0 0] CT
N
111 26 M
772 26 L
772 303 L
111 303 L
111 26 L
cp
clip
1 LJ
0.667 LW
N
522.197 283.824 M
533.487 283.824 L
S
GR
GS
[0.75 0 0 0.75 0 0] CT
0 0 1 RC
1 LJ
0.667 LW
N
377.605 295.268 M
377.605 285.171 L
400.184 285.171 L
400.184 295.268 L
377.605 295.268 L
S
GR
GS
[0.75 0 0 0.75 0 0] CT
0 0 1 RC
1 LJ
0.667 LW
N
412.342 295.268 M
412.342 281.805 L
434.921 281.805 L
434.921 295.268 L
412.342 295.268 L
S
GR
GS
[0.75 0 0 0.75 0 0] CT
0 0 1 RC
1 LJ
0.667 LW
N
447.079 293.922 M
447.079 285.844 L
469.658 285.844 L
469.658 293.922 L
447.079 293.922 L
S
GR
GS
[0.75 0 0 0.75 0 0] CT
0 0 1 RC
1 LJ
0.667 LW
N
481.816 292.576 M
481.816 284.498 L
504.395 284.498 L
504.395 292.576 L
481.816 292.576 L
S
GR
GS
[0.75 0 0 0.75 0 0] CT
0 0 1 RC
1 LJ
0.667 LW
N
516.553 276.083 M
516.553 246.127 L
539.132 246.127 L
539.132 276.083 L
516.553 276.083 L
S
GR
GS
[0.75 0 0 0.75 0 0] CT
N
111 26 M
772 26 L
772 303 L
111 303 L
111 26 L
cp
clip
1 0 0 RC
1 LJ
0.667 LW
N
377.605 291.902 M
400.184 291.902 L
S
GR
GS
[0.75 0 0 0.75 0 0] CT
N
111 26 M
772 26 L
772 303 L
111 303 L
111 26 L
cp
clip
1 0 0 RC
1 LJ
0.667 LW
N
412.342 290.22 M
434.921 290.22 L
S
GR
GS
[0.75 0 0 0.75 0 0] CT
N
111 26 M
772 26 L
772 303 L
111 303 L
111 26 L
cp
clip
1 0 0 RC
1 LJ
0.667 LW
N
447.079 291.229 M
469.658 291.229 L
S
GR
GS
[0.75 0 0 0.75 0 0] CT
N
111 26 M
772 26 L
772 303 L
111 303 L
111 26 L
cp
clip
1 0 0 RC
1 LJ
0.667 LW
N
481.816 288.537 M
504.395 288.537 L
S
GR
GS
[0.75 0 0 0.75 0 0] CT
N
111 26 M
772 26 L
772 303 L
111 303 L
111 26 L
cp
clip
1 0 0 RC
1 LJ
0.667 LW
N
516.553 270.361 M
539.132 270.361 L
S
GR
GS
[0.75 0 0 0.75 291.67106 198.73171] CT
1 0 0 RC
10.0 ML
N
0 -4 M
0 4 L
-4 0 M
4 0 L
S
GR
GS
[0.75 0 0 0.75 291.67106 170.96341] CT
1 0 0 RC
10.0 ML
N
0 -4 M
0 4 L
-4 0 M
4 0 L
S
GR
GS
[0.75 0 0 0.75 291.67106 170.96341] CT
1 0 0 RC
10.0 ML
N
0 -4 M
0 4 L
-4 0 M
4 0 L
S
GR
GS
[0.75 0 0 0.75 291.67106 145.71951] CT
1 0 0 RC
10.0 ML
N
0 -4 M
0 4 L
-4 0 M
4 0 L
S
GR
GS
[0.75 0 0 0.75 291.67106 145.71951] CT
1 0 0 RC
10.0 ML
N
0 -4 M
0 4 L
-4 0 M
4 0 L
S
GR
GS
[0.75 0 0 0.75 343.77631 204.28537] CT
1 0 0 RC
10.0 ML
N
0 -4 M
0 4 L
-4 0 M
4 0 L
S
GR
GS
[0.75 0 0 0.75 343.77631 204.28537] CT
1 0 0 RC
10.0 ML
N
0 -4 M
0 4 L
-4 0 M
4 0 L
S
GR
GS
[0.75 0 0 0.75 343.77631 191.15854] CT
1 0 0 RC
10.0 ML
N
0 -4 M
0 4 L
-4 0 M
4 0 L
S
GR
GS
[0.75 0 0 0.75 343.77631 170.96341] CT
1 0 0 RC
10.0 ML
N
0 -4 M
0 4 L
-4 0 M
4 0 L
S
GR
GS
[0.75 0 0 0.75 343.77631 170.96341] CT
1 0 0 RC
10.0 ML
N
0 -4 M
0 4 L
-4 0 M
4 0 L
S
GR
GS
[0.75 0 0 0.75 343.77631 150.76829] CT
1 0 0 RC
10.0 ML
N
0 -4 M
0 4 L
-4 0 M
4 0 L
S
GR
GS
[0.75 0 0 0.75 343.77631 130.57317] CT
1 0 0 RC
10.0 ML
N
0 -4 M
0 4 L
-4 0 M
4 0 L
S
GR
GS
[0.75 0 0 0.75 343.77631 130.57317] CT
1 0 0 RC
10.0 ML
N
0 -4 M
0 4 L
-4 0 M
4 0 L
S
GR
GS
[0.75 0 0 0.75 343.77631 130.57317] CT
1 0 0 RC
10.0 ML
N
0 -4 M
0 4 L
-4 0 M
4 0 L
S
GR
GS
[0.75 0 0 0.75 369.82894 201.2561] CT
1 0 0 RC
10.0 ML
N
0 -4 M
0 4 L
-4 0 M
4 0 L
S
GR
GS
[0.75 0 0 0.75 369.82894 201.2561] CT
1 0 0 RC
10.0 ML
N
0 -4 M
0 4 L
-4 0 M
4 0 L
S
GR
GS
[0.75 0 0 0.75 369.82894 198.22682] CT
1 0 0 RC
10.0 ML
N
0 -4 M
0 4 L
-4 0 M
4 0 L
S
GR
GS
[0.75 0 0 0.75 369.82894 181.06097] CT
1 0 0 RC
10.0 ML
N
0 -4 M
0 4 L
-4 0 M
4 0 L
S
GR
GS
[0.75 0 0 0.75 369.82894 181.06097] CT
1 0 0 RC
10.0 ML
N
0 -4 M
0 4 L
-4 0 M
4 0 L
S
GR
GS
[0.75 0 0 0.75 369.82894 150.76829] CT
1 0 0 RC
10.0 ML
N
0 -4 M
0 4 L
-4 0 M
4 0 L
S
GR
GS
[0.75 0 0 0.75 369.82894 150.76829] CT
1 0 0 RC
10.0 ML
N
0 -4 M
0 4 L
-4 0 M
4 0 L
S
GR
GS
[0.75 0 0 0.75 395.88158 137.64147] CT
1 0 0 RC
10.0 ML
N
0 -4 M
0 4 L
-4 0 M
4 0 L
S
GR
GS
[0.75 0 0 0.75 395.88158 135.62195] CT
1 0 0 RC
10.0 ML
N
0 -4 M
0 4 L
-4 0 M
4 0 L
S
GR
GS
[0.75 0 0 0.75 395.88158 129.05854] CT
1 0 0 RC
10.0 ML
N
0 -4 M
0 4 L
-4 0 M
4 0 L
S
GR
GS
[0.75 0 0 0.75 395.88158 120.47561] CT
1 0 0 RC
10.0 ML
N
0 -4 M
0 4 L
-4 0 M
4 0 L
S
GR
GS
[0.75 0 0 0.75 395.88158 116.43658] CT
1 0 0 RC
10.0 ML
N
0 -4 M
0 4 L
-4 0 M
4 0 L
S
GR
GS
[0.75 0 0 0.75 395.88158 115.42683] CT
1 0 0 RC
10.0 ML
N
0 -4 M
0 4 L
-4 0 M
4 0 L
S
GR
GS
[0.75 0 0 0.75 395.88158 113.40732] CT
1 0 0 RC
10.0 ML
N
0 -4 M
0 4 L
-4 0 M
4 0 L
S
GR
GS
[0.75 0 0 0.75 395.88158 106.33903] CT
1 0 0 RC
10.0 ML
N
0 -4 M
0 4 L
-4 0 M
4 0 L
S
GR
GS
[0.75 0 0 0.75 395.88158 102.80487] CT
1 0 0 RC
10.0 ML
N
0 -4 M
0 4 L
-4 0 M
4 0 L
S
GR
GS
[0.75 0 0 0.75 0 0] CT
N
111 26 M
772 26 L
772 303 L
111 303 L
111 26 L
cp
clip
[10 6] 0 setdash
2 LJ
0.667 LW
N
597.316 248.146 M
597.316 231.317 L
S
GR
GS
[0.75 0 0 0.75 0 0] CT
N
111 26 M
772 26 L
772 303 L
111 303 L
111 26 L
cp
clip
[10 6] 0 setdash
2 LJ
0.667 LW
N
632.053 251.512 M
632.053 231.317 L
S
GR
GS
[0.75 0 0 0.75 0 0] CT
N
111 26 M
772 26 L
772 303 L
111 303 L
111 26 L
cp
clip
[10 6] 0 setdash
2 LJ
0.667 LW
N
666.789 253.532 M
666.789 237.376 L
S
GR
GS
[0.75 0 0 0.75 0 0] CT
N
111 26 M
772 26 L
772 303 L
111 303 L
111 26 L
cp
clip
[10 6] 0 setdash
2 LJ
0.667 LW
N
701.526 260.263 M
701.526 252.185 L
S
GR
GS
[0.75 0 0 0.75 0 0] CT
N
111 26 M
772 26 L
772 303 L
111 303 L
111 26 L
cp
clip
[10 6] 0 setdash
2 LJ
0.667 LW
N
736.263 166.693 M
736.263 139.766 L
S
GR
GS
[0.75 0 0 0.75 0 0] CT
N
111 26 M
772 26 L
772 303 L
111 303 L
111 26 L
cp
clip
[10 6] 0 setdash
2 LJ
0.667 LW
N
597.316 291.902 M
597.316 278.439 L
S
GR
GS
[0.75 0 0 0.75 0 0] CT
N
111 26 M
772 26 L
772 303 L
111 303 L
111 26 L
cp
clip
[10 6] 0 setdash
2 LJ
0.667 LW
N
632.053 295.268 M
632.053 285.171 L
S
GR
GS
[0.75 0 0 0.75 0 0] CT
N
111 26 M
772 26 L
772 303 L
111 303 L
111 26 L
cp
clip
[10 6] 0 setdash
2 LJ
0.667 LW
N
666.789 293.922 M
666.789 288.537 L
S
GR
GS
[0.75 0 0 0.75 0 0] CT
N
111 26 M
772 26 L
772 303 L
111 303 L
111 26 L
cp
clip
[10 6] 0 setdash
2 LJ
0.667 LW
N
701.526 292.576 M
701.526 284.498 L
S
GR
GS
[0.75 0 0 0.75 0 0] CT
N
111 26 M
772 26 L
772 303 L
111 303 L
111 26 L
cp
clip
[10 6] 0 setdash
2 LJ
0.667 LW
N
736.263 186.888 M
736.263 186.888 L
S
GR
GS
[0.75 0 0 0.75 0 0] CT
N
111 26 M
772 26 L
772 303 L
111 303 L
111 26 L
cp
clip
1 LJ
0.667 LW
N
591.671 231.317 M
602.961 231.317 L
S
GR
GS
[0.75 0 0 0.75 0 0] CT
N
111 26 M
772 26 L
772 303 L
111 303 L
111 26 L
cp
clip
1 LJ
0.667 LW
N
626.408 231.317 M
637.697 231.317 L
S
GR
GS
[0.75 0 0 0.75 0 0] CT
N
111 26 M
772 26 L
772 303 L
111 303 L
111 26 L
cp
clip
1 LJ
0.667 LW
N
661.145 237.376 M
672.434 237.376 L
S
GR
GS
[0.75 0 0 0.75 0 0] CT
N
111 26 M
772 26 L
772 303 L
111 303 L
111 26 L
cp
clip
1 LJ
0.667 LW
N
695.882 252.185 M
707.171 252.185 L
S
GR
GS
[0.75 0 0 0.75 0 0] CT
N
111 26 M
772 26 L
772 303 L
111 303 L
111 26 L
cp
clip
1 LJ
0.667 LW
N
730.618 139.766 M
741.908 139.766 L
S
GR
GS
[0.75 0 0 0.75 0 0] CT
N
111 26 M
772 26 L
772 303 L
111 303 L
111 26 L
cp
clip
1 LJ
0.667 LW
N
591.671 291.902 M
602.961 291.902 L
S
GR
GS
[0.75 0 0 0.75 0 0] CT
N
111 26 M
772 26 L
772 303 L
111 303 L
111 26 L
cp
clip
1 LJ
0.667 LW
N
626.408 295.268 M
637.697 295.268 L
S
GR
GS
[0.75 0 0 0.75 0 0] CT
N
111 26 M
772 26 L
772 303 L
111 303 L
111 26 L
cp
clip
1 LJ
0.667 LW
N
661.145 293.922 M
672.434 293.922 L
S
GR
GS
[0.75 0 0 0.75 0 0] CT
N
111 26 M
772 26 L
772 303 L
111 303 L
111 26 L
cp
clip
1 LJ
0.667 LW
N
695.882 292.576 M
707.171 292.576 L
S
GR
GS
[0.75 0 0 0.75 0 0] CT
N
111 26 M
772 26 L
772 303 L
111 303 L
111 26 L
cp
clip
1 LJ
0.667 LW
N
730.618 186.888 M
741.908 186.888 L
S
GR
GS
[0.75 0 0 0.75 0 0] CT
0 0 1 RC
1 LJ
0.667 LW
N
586.026 278.439 M
586.026 248.146 L
608.605 248.146 L
608.605 278.439 L
586.026 278.439 L
S
GR
GS
[0.75 0 0 0.75 0 0] CT
0 0 1 RC
1 LJ
0.667 LW
N
620.763 285.171 M
620.763 251.512 L
643.342 251.512 L
643.342 285.171 L
620.763 285.171 L
S
GR
GS
[0.75 0 0 0.75 0 0] CT
0 0 1 RC
1 LJ
0.667 LW
N
655.5 288.537 M
655.5 253.532 L
678.079 253.532 L
678.079 288.537 L
655.5 288.537 L
S
GR
GS
[0.75 0 0 0.75 0 0] CT
0 0 1 RC
1 LJ
0.667 LW
N
690.237 284.498 M
690.237 260.263 L
712.816 260.263 L
712.816 284.498 L
690.237 284.498 L
S
GR
GS
[0.75 0 0 0.75 0 0] CT
0 0 1 RC
1 LJ
0.667 LW
N
724.974 186.888 M
724.974 166.693 L
747.553 166.693 L
747.553 186.888 L
724.974 186.888 L
S
GR
GS
[0.75 0 0 0.75 0 0] CT
N
111 26 M
772 26 L
772 303 L
111 303 L
111 26 L
cp
clip
1 0 0 RC
1 LJ
0.667 LW
N
586.026 261.61 M
608.605 261.61 L
S
GR
GS
[0.75 0 0 0.75 0 0] CT
N
111 26 M
772 26 L
772 303 L
111 303 L
111 26 L
cp
clip
1 0 0 RC
1 LJ
0.667 LW
N
620.763 264.976 M
643.342 264.976 L
S
GR
GS
[0.75 0 0 0.75 0 0] CT
N
111 26 M
772 26 L
772 303 L
111 303 L
111 26 L
cp
clip
1 0 0 RC
1 LJ
0.667 LW
N
655.5 284.498 M
678.079 284.498 L
S
GR
GS
[0.75 0 0 0.75 0 0] CT
N
111 26 M
772 26 L
772 303 L
111 303 L
111 26 L
cp
clip
1 0 0 RC
1 LJ
0.667 LW
N
690.237 272.38 M
712.816 272.38 L
S
GR
GS
[0.75 0 0 0.75 0 0] CT
N
111 26 M
772 26 L
772 303 L
111 303 L
111 26 L
cp
clip
1 0 0 RC
1 LJ
0.667 LW
N
724.974 177.127 M
747.553 177.127 L
S
GR
GS
[0.75 0 0 0.75 552.19739 215.89755] CT
1 0 0 RC
10.0 ML
N
0 -4 M
0 4 L
-4 0 M
4 0 L
S
GR
GS
[0.75 0 0 0.75 552.19739 204.79024] CT
1 0 0 RC
10.0 ML
N
0 -4 M
0 4 L
-4 0 M
4 0 L
S
GR
GS
[0.75 0 0 0.75 552.19739 183.08049] CT
1 0 0 RC
10.0 ML
N
0 -4 M
0 4 L
-4 0 M
4 0 L
S
GR
GS
[0.75 0 0 0.75 552.19739 164.4] CT
1 0 0 RC
10.0 ML
N
0 -4 M
0 4 L
-4 0 M
4 0 L
S
GR
GS
[0.75 0 0 0.75 0 0] CT
1 0 1 RC
N
724.974 166.693 M
724.974 186.888 L
747.553 186.888 L
747.553 166.693 L
cp
f
GR
GS
[0.75 0 0 0.75 0 0] CT
2 setlinecap
10.0 ML
0.667 LW
N
724.974 186.888 M
724.974 166.693 L
747.553 166.693 L
747.553 186.888 L
724.974 186.888 L
724.974 186.888 L
S
GR
GS
[0.75 0 0 0.75 0 0] CT
0.576 0.439 0.859 RC
N
690.237 260.263 M
690.237 284.498 L
712.816 284.498 L
712.816 260.263 L
cp
f
GR
GS
[0.75 0 0 0.75 0 0] CT
2 setlinecap
10.0 ML
0.667 LW
N
690.237 284.498 M
690.237 260.263 L
712.816 260.263 L
712.816 284.498 L
690.237 284.498 L
690.237 284.498 L
S
GR
GS
[0.75 0 0 0.75 0 0] CT
0 1 0 RC
N
655.5 253.532 M
655.5 288.537 L
678.079 288.537 L
678.079 253.532 L
cp
f
GR
GS
[0.75 0 0 0.75 0 0] CT
2 setlinecap
10.0 ML
0.667 LW
N
655.5 288.537 M
655.5 253.532 L
678.079 253.532 L
678.079 288.537 L
655.5 288.537 L
655.5 288.537 L
S
GR
GS
[0.75 0 0 0.75 0 0] CT
0 1 1 RC
N
620.763 251.512 M
620.763 285.171 L
643.342 285.171 L
643.342 251.512 L
cp
f
GR
GS
[0.75 0 0 0.75 0 0] CT
2 setlinecap
10.0 ML
0.667 LW
N
620.763 285.171 M
620.763 251.512 L
643.342 251.512 L
643.342 285.171 L
620.763 285.171 L
620.763 285.171 L
S
GR
GS
[0.75 0 0 0.75 0 0] CT
1 1 0 RC
N
586.026 248.146 M
586.026 278.439 L
608.605 278.439 L
608.605 248.146 L
cp
f
GR
GS
[0.75 0 0 0.75 0 0] CT
2 setlinecap
10.0 ML
0.667 LW
N
586.026 278.439 M
586.026 248.146 L
608.605 248.146 L
608.605 278.439 L
586.026 278.439 L
586.026 278.439 L
S
GR
GS
[0.75 0 0 0.75 0 0] CT
1 0 1 RC
N
516.553 246.127 M
516.553 276.083 L
539.132 276.083 L
539.132 246.127 L
cp
f
GR
GS
[0.75 0 0 0.75 0 0] CT
2 setlinecap
10.0 ML
0.667 LW
N
516.553 276.083 M
516.553 246.127 L
539.132 246.127 L
539.132 276.083 L
516.553 276.083 L
516.553 276.083 L
S
GR
GS
[0.75 0 0 0.75 0 0] CT
0.576 0.439 0.859 RC
N
481.816 284.498 M
481.816 292.576 L
504.395 292.576 L
504.395 284.498 L
cp
f
GR
GS
[0.75 0 0 0.75 0 0] CT
2 setlinecap
10.0 ML
0.667 LW
N
481.816 292.576 M
481.816 284.498 L
504.395 284.498 L
504.395 292.576 L
481.816 292.576 L
481.816 292.576 L
S
GR
GS
[0.75 0 0 0.75 0 0] CT
0 1 0 RC
N
447.079 285.844 M
447.079 293.922 L
469.658 293.922 L
469.658 285.844 L
cp
f
GR
GS
[0.75 0 0 0.75 0 0] CT
2 setlinecap
10.0 ML
0.667 LW
N
447.079 293.922 M
447.079 285.844 L
469.658 285.844 L
469.658 293.922 L
447.079 293.922 L
447.079 293.922 L
S
GR
GS
[0.75 0 0 0.75 0 0] CT
0 1 1 RC
N
412.342 281.805 M
412.342 295.268 L
434.921 295.268 L
434.921 281.805 L
cp
f
GR
GS
[0.75 0 0 0.75 0 0] CT
2 setlinecap
10.0 ML
0.667 LW
N
412.342 295.268 M
412.342 281.805 L
434.921 281.805 L
434.921 295.268 L
412.342 295.268 L
412.342 295.268 L
S
GR
GS
[0.75 0 0 0.75 0 0] CT
1 1 0 RC
N
377.605 285.171 M
377.605 295.268 L
400.184 295.268 L
400.184 285.171 L
cp
f
GR
GS
[0.75 0 0 0.75 0 0] CT
2 setlinecap
10.0 ML
0.667 LW
N
377.605 295.268 M
377.605 285.171 L
400.184 285.171 L
400.184 295.268 L
377.605 295.268 L
377.605 295.268 L
S
GR
GS
[0.75 0 0 0.75 0 0] CT
1 0 1 RC
N
308.132 165.346 M
308.132 184.868 L
330.711 184.868 L
330.711 165.346 L
cp
f
GR
GS
[0.75 0 0 0.75 0 0] CT
2 setlinecap
10.0 ML
0.667 LW
N
308.132 184.868 M
308.132 165.346 L
330.711 165.346 L
330.711 184.868 L
308.132 184.868 L
308.132 184.868 L
S
GR
GS
[0.75 0 0 0.75 0 0] CT
0.576 0.439 0.859 RC
N
273.395 260.263 M
273.395 283.151 L
295.974 283.151 L
295.974 260.263 L
cp
f
GR
GS
[0.75 0 0 0.75 0 0] CT
2 setlinecap
10.0 ML
0.667 LW
N
273.395 283.151 M
273.395 260.263 L
295.974 260.263 L
295.974 283.151 L
273.395 283.151 L
273.395 283.151 L
S
GR
GS
[0.75 0 0 0.75 0 0] CT
0 1 0 RC
N
238.658 266.995 M
238.658 280.459 L
261.237 280.459 L
261.237 266.995 L
cp
f
GR
GS
[0.75 0 0 0.75 0 0] CT
2 setlinecap
10.0 ML
0.667 LW
N
238.658 280.459 M
238.658 266.995 L
261.237 266.995 L
261.237 280.459 L
238.658 280.459 L
238.658 280.459 L
S
GR
GS
[0.75 0 0 0.75 0 0] CT
0 1 1 RC
N
203.921 254.878 M
203.921 275.073 L
226.5 275.073 L
226.5 254.878 L
cp
f
GR
GS
[0.75 0 0 0.75 0 0] CT
2 setlinecap
10.0 ML
0.667 LW
N
203.921 275.073 M
203.921 254.878 L
226.5 254.878 L
226.5 275.073 L
203.921 275.073 L
203.921 275.073 L
S
GR
GS
[0.75 0 0 0.75 0 0] CT
1 1 0 RC
N
169.184 241.415 M
169.184 261.61 L
191.763 261.61 L
191.763 241.415 L
cp
f
GR
GS
[0.75 0 0 0.75 0 0] CT
2 setlinecap
10.0 ML
0.667 LW
N
169.184 261.61 M
169.184 241.415 L
191.763 241.415 L
191.763 261.61 L
169.184 261.61 L
169.184 261.61 L
S
GR
GS
[0.75 0 0 0.75 0 0] CT
1 GC
N
711 144 M
711 41 L
591 41 L
591 144 L
cp
f
GR
GS
[0.75 0 0 0.75 478.5 38.28659] CT
/Helvetica 12 F
GS
[1 0 0 1 0 0] CT
0 5 moveto 
1 -1 scale
(Makespan) t 
GR
GR
GS
[0.75 0 0 0.75 0 0] CT
1 GC
N
635 57.229 M
635 44.869 L
595 44.869 L
595 57.229 L
cp
f
GR
GS
[0.75 0 0 0.75 0 0] CT
10.0 ML
0.667 LW
N
595 57.229 M
595 44.869 L
635 44.869 L
635 57.229 L
cp
S
GR
GS
[0.75 0 0 0.75 478.5 50.72195] CT
/Helvetica 12 F
GS
[1 0 0 1 0 0] CT
0 5 moveto 
1 -1 scale
(Std Weiss) t 
GR
GR
GS
[0.75 0 0 0.75 0 0] CT
1 1 0 RC
N
635 73.809 M
635 61.449 L
595 61.449 L
595 73.809 L
cp
f
GR
GS
[0.75 0 0 0.75 0 0] CT
10.0 ML
0.667 LW
N
595 73.809 M
595 61.449 L
635 61.449 L
635 73.809 L
cp
S
GR
GS
[0.75 0 0 0.75 478.5 63.15732] CT
/Helvetica 12 F
GS
[1 0 0 1 0 0] CT
0 5 moveto 
1 -1 scale
(Weiss Matt) t 
GR
GR
GS
[0.75 0 0 0.75 0 0] CT
0 1 1 RC
N
635 90.39 M
635 78.03 L
595 78.03 L
595 90.39 L
cp
f
GR
GS
[0.75 0 0 0.75 0 0] CT
10.0 ML
0.667 LW
N
595 90.39 M
595 78.03 L
635 78.03 L
635 90.39 L
cp
S
GR
GS
[0.75 0 0 0.75 478.5 75.59268] CT
/Helvetica 12 F
GS
[1 0 0 1 0 0] CT
0 5 moveto 
1 -1 scale
(Super Weiss) t 
GR
GR
GS
[0.75 0 0 0.75 0 0] CT
0 1 0 RC
N
635 106.97 M
635 94.61 L
595 94.61 L
595 106.97 L
cp
f
GR
GS
[0.75 0 0 0.75 0 0] CT
10.0 ML
0.667 LW
N
595 106.97 M
595 94.61 L
635 94.61 L
635 106.97 L
cp
S
GR
GS
[0.75 0 0 0.75 478.5 88.02805] CT
/Helvetica 12 F
GS
[1 0 0 1 0 0] CT
0 5 moveto 
1 -1 scale
(Weiss Basis) t 
GR
GR
GS
[0.75 0 0 0.75 0 0] CT
0.576 0.439 0.859 RC
N
635 123.551 M
635 111.191 L
595 111.191 L
595 123.551 L
cp
f
GR
GS
[0.75 0 0 0.75 0 0] CT
10.0 ML
0.667 LW
N
595 123.551 M
595 111.191 L
635 111.191 L
635 123.551 L
cp
S
GR
GS
[0.75 0 0 0.75 478.5 100.46341] CT
/Helvetica 12 F
GS
[1 0 0 1 0 0] CT
0 5 moveto 
1 -1 scale
(Sum) t 
GR
GR
GS
[0.75 0 0 0.75 0 0] CT
1 0 1 RC
N
635 140.131 M
635 127.771 L
595 127.771 L
595 140.131 L
cp
f
GR
GS
[0.75 0 0 0.75 0 0] CT
10.0 ML
0.667 LW
N
595 140.131 M
595 127.771 L
635 127.771 L
635 140.131 L
cp
S
GR
GS
[0.75 0 0 0.75 0 0] CT
0.149 GC
10.0 ML
0.667 LW
N
591 144 M
591 41 L
711 41 L
711 144 L
cp
S
GR
%%Trailer
%%Pages: 1
%%EOF
