%!PS-Adobe-3.0 EPSF-3.0
%%Creator: (MATLAB, The Mathworks, Inc. Version 9.3.0.713579 \(R2017b\). Operating System: Windows 10)
%%Title: E:/iCloudDrive/Desktop/safire/NSGA2vsMOEADvsMOEADRS.eps
%%CreationDate: 2018-11-06T18:05:47
%%Pages: (atend)
%%BoundingBox: 0 0 657 279
%%LanguageLevel: 3
%%EndComments
%%BeginProlog
%%BeginResource: procset (Apache XML Graphics Std ProcSet) 1.2 0
%%Version: 1.2 0
%%Copyright: (Copyright 2001-2003,2010 The Apache Software Foundation. License terms: http://www.apache.org/licenses/LICENSE-2.0)
/bd{bind def}bind def
/ld{load def}bd
/GR/grestore ld
/GS/gsave ld
/RM/rmoveto ld
/C/curveto ld
/t/show ld
/L/lineto ld
/ML/setmiterlimit ld
/CT/concat ld
/f/fill ld
/N/newpath ld
/S/stroke ld
/CC/setcmykcolor ld
/A/ashow ld
/cp/closepath ld
/RC/setrgbcolor ld
/LJ/setlinejoin ld
/GC/setgray ld
/LW/setlinewidth ld
/M/moveto ld
/re {4 2 roll M
1 index 0 rlineto
0 exch rlineto
neg 0 rlineto
cp } bd
/_ctm matrix def
/_tm matrix def
/BT { _ctm currentmatrix pop matrix _tm copy pop 0 0 moveto } bd
/ET { _ctm setmatrix } bd
/iTm { _ctm setmatrix _tm concat } bd
/Tm { _tm astore pop iTm 0 0 moveto } bd
/ux 0.0 def
/uy 0.0 def
/F {
  /Tp exch def
  /Tf exch def
  Tf findfont Tp scalefont setfont
  /cf Tf def  /cs Tp def
} bd
/ULS {currentpoint /uy exch def /ux exch def} bd
/ULE {
  /Tcx currentpoint pop def
  gsave
  newpath
  cf findfont cs scalefont dup
  /FontMatrix get 0 get /Ts exch def /FontInfo get dup
  /UnderlinePosition get Ts mul /To exch def
  /UnderlineThickness get Ts mul /Tt exch def
  ux uy To add moveto  Tcx uy To add lineto
  Tt setlinewidth stroke
  grestore
} bd
/OLE {
  /Tcx currentpoint pop def
  gsave
  newpath
  cf findfont cs scalefont dup
  /FontMatrix get 0 get /Ts exch def /FontInfo get dup
  /UnderlinePosition get Ts mul /To exch def
  /UnderlineThickness get Ts mul /Tt exch def
  ux uy To add cs add moveto Tcx uy To add cs add lineto
  Tt setlinewidth stroke
  grestore
} bd
/SOE {
  /Tcx currentpoint pop def
  gsave
  newpath
  cf findfont cs scalefont dup
  /FontMatrix get 0 get /Ts exch def /FontInfo get dup
  /UnderlinePosition get Ts mul /To exch def
  /UnderlineThickness get Ts mul /Tt exch def
  ux uy To add cs 10 mul 26 idiv add moveto Tcx uy To add cs 10 mul 26 idiv add lineto
  Tt setlinewidth stroke
  grestore
} bd
/QT {
/Y22 exch store
/X22 exch store
/Y21 exch store
/X21 exch store
currentpoint
/Y21 load 2 mul add 3 div exch
/X21 load 2 mul add 3 div exch
/X21 load 2 mul /X22 load add 3 div
/Y21 load 2 mul /Y22 load add 3 div
/X22 load /Y22 load curveto
} bd
/SSPD {
dup length /d exch dict def
{
/v exch def
/k exch def
currentpagedevice k known {
/cpdv currentpagedevice k get def
v cpdv ne {
/upd false def
/nullv v type /nulltype eq def
/nullcpdv cpdv type /nulltype eq def
nullv nullcpdv or
{
/upd true def
} {
/sametype v type cpdv type eq def
sametype {
v type /arraytype eq {
/vlen v length def
/cpdvlen cpdv length def
vlen cpdvlen eq {
0 1 vlen 1 sub {
/i exch def
/obj v i get def
/cpdobj cpdv i get def
obj cpdobj ne {
/upd true def
exit
} if
} for
} {
/upd true def
} ifelse
} {
v type /dicttype eq {
v {
/dv exch def
/dk exch def
/cpddv cpdv dk get def
dv cpddv ne {
/upd true def
exit
} if
} forall
} {
/upd true def
} ifelse
} ifelse
} if
} ifelse
upd true eq {
d k v put
} if
} if
} if
} forall
d length 0 gt {
d setpagedevice
} if
} bd
/RE { % /NewFontName [NewEncodingArray] /FontName RE -
  findfont dup length dict begin
  {
    1 index /FID ne
    {def} {pop pop} ifelse
  } forall
  /Encoding exch def
  /FontName 1 index def
  currentdict definefont pop
  end
} bind def
%%EndResource
%%BeginResource: procset (Apache XML Graphics EPS ProcSet) 1.0 0
%%Version: 1.0 0
%%Copyright: (Copyright 2002-2003 The Apache Software Foundation. License terms: http://www.apache.org/licenses/LICENSE-2.0)
/BeginEPSF { %def
/b4_Inc_state save def         % Save state for cleanup
/dict_count countdictstack def % Count objects on dict stack
/op_count count 1 sub def      % Count objects on operand stack
userdict begin                 % Push userdict on dict stack
/showpage { } def              % Redefine showpage, { } = null proc
0 setgray 0 setlinecap         % Prepare graphics state
1 setlinewidth 0 setlinejoin
10 setmiterlimit [ ] 0 setdash newpath
/languagelevel where           % If level not equal to 1 then
{pop languagelevel             % set strokeadjust and
1 ne                           % overprint to their defaults.
{false setstrokeadjust false setoverprint
} if
} if
} bd
/EndEPSF { %def
count op_count sub {pop} repeat            % Clean up stacks
countdictstack dict_count sub {end} repeat
b4_Inc_state restore
} bd
%%EndResource
%FOPBeginFontDict
%%IncludeResource: font Courier-Oblique
%%IncludeResource: font Courier-BoldOblique
%%IncludeResource: font Courier-Bold
%%IncludeResource: font ZapfDingbats
%%IncludeResource: font Symbol
%%IncludeResource: font Helvetica
%%IncludeResource: font Helvetica-Oblique
%%IncludeResource: font Helvetica-Bold
%%IncludeResource: font Helvetica-BoldOblique
%%IncludeResource: font Times-Roman
%%IncludeResource: font Times-Italic
%%IncludeResource: font Times-Bold
%%IncludeResource: font Times-BoldItalic
%%IncludeResource: font Courier
%FOPEndFontDict
%%BeginResource: encoding WinAnsiEncoding
/WinAnsiEncoding [
/.notdef /.notdef /.notdef /.notdef /.notdef
/.notdef /.notdef /.notdef /.notdef /.notdef
/.notdef /.notdef /.notdef /.notdef /.notdef
/.notdef /.notdef /.notdef /.notdef /.notdef
/.notdef /.notdef /.notdef /.notdef /.notdef
/.notdef /.notdef /.notdef /.notdef /.notdef
/.notdef /.notdef /space /exclam /quotedbl
/numbersign /dollar /percent /ampersand /quotesingle
/parenleft /parenright /asterisk /plus /comma
/hyphen /period /slash /zero /one
/two /three /four /five /six
/seven /eight /nine /colon /semicolon
/less /equal /greater /question /at
/A /B /C /D /E
/F /G /H /I /J
/K /L /M /N /O
/P /Q /R /S /T
/U /V /W /X /Y
/Z /bracketleft /backslash /bracketright /asciicircum
/underscore /quoteleft /a /b /c
/d /e /f /g /h
/i /j /k /l /m
/n /o /p /q /r
/s /t /u /v /w
/x /y /z /braceleft /bar
/braceright /asciitilde /bullet /Euro /bullet
/quotesinglbase /florin /quotedblbase /ellipsis /dagger
/daggerdbl /circumflex /perthousand /Scaron /guilsinglleft
/OE /bullet /Zcaron /bullet /bullet
/quoteleft /quoteright /quotedblleft /quotedblright /bullet
/endash /emdash /asciitilde /trademark /scaron
/guilsinglright /oe /bullet /zcaron /Ydieresis
/space /exclamdown /cent /sterling /currency
/yen /brokenbar /section /dieresis /copyright
/ordfeminine /guillemotleft /logicalnot /sfthyphen /registered
/macron /degree /plusminus /twosuperior /threesuperior
/acute /mu /paragraph /middot /cedilla
/onesuperior /ordmasculine /guillemotright /onequarter /onehalf
/threequarters /questiondown /Agrave /Aacute /Acircumflex
/Atilde /Adieresis /Aring /AE /Ccedilla
/Egrave /Eacute /Ecircumflex /Edieresis /Igrave
/Iacute /Icircumflex /Idieresis /Eth /Ntilde
/Ograve /Oacute /Ocircumflex /Otilde /Odieresis
/multiply /Oslash /Ugrave /Uacute /Ucircumflex
/Udieresis /Yacute /Thorn /germandbls /agrave
/aacute /acircumflex /atilde /adieresis /aring
/ae /ccedilla /egrave /eacute /ecircumflex
/edieresis /igrave /iacute /icircumflex /idieresis
/eth /ntilde /ograve /oacute /ocircumflex
/otilde /odieresis /divide /oslash /ugrave
/uacute /ucircumflex /udieresis /yacute /thorn
/ydieresis
] def
%%EndResource
%FOPBeginFontReencode
/Courier-Oblique findfont
dup length dict begin
  {1 index /FID ne {def} {pop pop} ifelse} forall
  /Encoding WinAnsiEncoding def
  currentdict
end
/Courier-Oblique exch definefont pop
/Courier-BoldOblique findfont
dup length dict begin
  {1 index /FID ne {def} {pop pop} ifelse} forall
  /Encoding WinAnsiEncoding def
  currentdict
end
/Courier-BoldOblique exch definefont pop
/Courier-Bold findfont
dup length dict begin
  {1 index /FID ne {def} {pop pop} ifelse} forall
  /Encoding WinAnsiEncoding def
  currentdict
end
/Courier-Bold exch definefont pop
/Helvetica findfont
dup length dict begin
  {1 index /FID ne {def} {pop pop} ifelse} forall
  /Encoding WinAnsiEncoding def
  currentdict
end
/Helvetica exch definefont pop
/Helvetica-Oblique findfont
dup length dict begin
  {1 index /FID ne {def} {pop pop} ifelse} forall
  /Encoding WinAnsiEncoding def
  currentdict
end
/Helvetica-Oblique exch definefont pop
/Helvetica-Bold findfont
dup length dict begin
  {1 index /FID ne {def} {pop pop} ifelse} forall
  /Encoding WinAnsiEncoding def
  currentdict
end
/Helvetica-Bold exch definefont pop
/Helvetica-BoldOblique findfont
dup length dict begin
  {1 index /FID ne {def} {pop pop} ifelse} forall
  /Encoding WinAnsiEncoding def
  currentdict
end
/Helvetica-BoldOblique exch definefont pop
/Times-Roman findfont
dup length dict begin
  {1 index /FID ne {def} {pop pop} ifelse} forall
  /Encoding WinAnsiEncoding def
  currentdict
end
/Times-Roman exch definefont pop
/Times-Italic findfont
dup length dict begin
  {1 index /FID ne {def} {pop pop} ifelse} forall
  /Encoding WinAnsiEncoding def
  currentdict
end
/Times-Italic exch definefont pop
/Times-Bold findfont
dup length dict begin
  {1 index /FID ne {def} {pop pop} ifelse} forall
  /Encoding WinAnsiEncoding def
  currentdict
end
/Times-Bold exch definefont pop
/Times-BoldItalic findfont
dup length dict begin
  {1 index /FID ne {def} {pop pop} ifelse} forall
  /Encoding WinAnsiEncoding def
  currentdict
end
/Times-BoldItalic exch definefont pop
/Courier findfont
dup length dict begin
  {1 index /FID ne {def} {pop pop} ifelse} forall
  /Encoding WinAnsiEncoding def
  currentdict
end
/Courier exch definefont pop
%FOPEndFontReencode
%%EndProlog
%%Page: 1 1
%%PageBoundingBox: 0 0 657 279
%%BeginPageSetup
[1 0 0 -1 0 279] CT
%%EndPageSetup
GS
[0.75 0 0 0.75 0 0] CT
1 GC
N
0 0 876 372 re
f
GR
GS
[0.75 0 0 0.75 0 0] CT
1 GC
N
0 0 876 372 re
f
GR
GS
[0.75 0 0 0.75 0 0] CT
1 GC
N
114 330 M
793 330 L
793 28 L
114 28 L
cp
f
GR
GS
[0.75 0 0 0.75 0 0] CT
0.149 GC
2 setlinecap
1 LJ
0.667 LW
N
114 330 M
793 330 L
S
GR
GS
[0.75 0 0 0.75 0 0] CT
0.149 GC
2 setlinecap
1 LJ
0.667 LW
N
114 28 M
793 28 L
S
GR
GS
[0.75 0 0 0.75 0 0] CT
0.149 GC
2 setlinecap
1 LJ
0.667 LW
N
239.079 330 M
239.079 323.21 L
S
GR
GS
[0.75 0 0 0.75 0 0] CT
0.149 GC
2 setlinecap
1 LJ
0.667 LW
N
453.5 330 M
453.5 323.21 L
S
GR
GS
[0.75 0 0 0.75 0 0] CT
0.149 GC
2 setlinecap
1 LJ
0.667 LW
N
667.921 330 M
667.921 323.21 L
S
GR
GS
[0.75 0 0 0.75 0 0] CT
0.149 GC
2 setlinecap
1 LJ
0.667 LW
N
239.079 28 M
239.079 34.79 L
S
GR
GS
[0.75 0 0 0.75 0 0] CT
0.149 GC
2 setlinecap
1 LJ
0.667 LW
N
453.5 28 M
453.5 34.79 L
S
GR
GS
[0.75 0 0 0.75 0 0] CT
0.149 GC
2 setlinecap
1 LJ
0.667 LW
N
667.921 28 M
667.921 34.79 L
S
GR
GS
[0.75 0 0 0.75 179.30921 251.50001] CT
0.149 GC
N
-25.751 11.2 M
-25.751 10.747 L
-24.423 10.747 -24.423 9.981 QT
-24.423 2.856 L
-24.845 2.778 -25.751 2.778 QT
-25.751 2.325 L
-23.267 2.325 L
-23.204 2.325 -23.173 2.372 QT
-18.579 9.137 L
-18.579 3.544 L
-18.579 2.778 -19.923 2.778 QT
-19.923 2.325 L
-16.829 2.325 L
-16.829 2.778 L
-18.157 2.778 -18.157 3.544 QT
-18.157 11.091 L
-18.157 11.122 -18.212 11.161 QT
-18.267 11.2 -18.298 11.2 QT
-18.454 11.2 L
-18.517 11.2 -18.532 11.153 QT
-24.001 3.106 L
-24.001 9.981 L
-24.001 10.747 -22.657 10.747 QT
-22.657 11.2 L
-25.751 11.2 L
cp
f
GR
GS
[0.75 0 0 0.75 179.30921 251.50001] CT
0.149 GC
N
-15.423 11.387 M
-15.423 8.356 L
-15.423 8.247 -15.314 8.247 QT
-15.157 8.247 L
-15.111 8.247 -15.079 8.278 QT
-15.048 8.309 -15.048 8.356 QT
-15.048 9.622 -14.259 10.325 QT
-13.47 11.028 -12.189 11.028 QT
-11.736 11.028 -11.353 10.77 QT
-10.97 10.512 -10.759 10.091 QT
-10.548 9.669 -10.548 9.216 QT
-10.548 8.825 -10.712 8.45 QT
-10.876 8.075 -11.173 7.802 QT
-11.47 7.528 -11.845 7.434 QT
-13.532 7.028 L
-14.361 6.809 -14.892 6.122 QT
-15.423 5.434 -15.423 4.575 QT
-15.423 3.903 -15.079 3.309 QT
-14.736 2.716 -14.157 2.372 QT
-13.579 2.028 -12.907 2.028 QT
-11.611 2.028 -10.845 2.919 QT
-10.298 2.075 L
-10.267 2.028 -10.22 2.028 QT
-10.126 2.028 L
-10.095 2.028 -10.056 2.059 QT
-10.017 2.091 -10.017 2.137 QT
-10.017 5.153 L
-10.017 5.278 -10.126 5.278 QT
-10.282 5.278 L
-10.407 5.278 -10.407 5.153 QT
-10.407 4.825 -10.517 4.434 QT
-10.626 4.044 -10.821 3.677 QT
-11.017 3.309 -11.251 3.091 QT
-11.876 2.45 -12.907 2.45 QT
-13.345 2.45 -13.72 2.677 QT
-14.095 2.903 -14.321 3.294 QT
-14.548 3.684 -14.548 4.106 QT
-14.548 4.669 -14.204 5.122 QT
-13.861 5.575 -13.298 5.716 QT
-11.611 6.122 L
-11.189 6.231 -10.814 6.497 QT
-10.439 6.762 -10.196 7.106 QT
-9.954 7.45 -9.814 7.88 QT
-9.673 8.309 -9.673 8.762 QT
-9.673 9.466 -9.993 10.098 QT
-10.314 10.731 -10.9 11.106 QT
-11.486 11.481 -12.189 11.481 QT
-12.626 11.481 -13.071 11.387 QT
-13.517 11.294 -13.9 11.098 QT
-14.282 10.903 -14.595 10.591 QT
-15.142 11.45 L
-15.173 11.481 -15.236 11.481 QT
-15.314 11.481 L
-15.423 11.481 -15.423 11.387 QT
cp
f
GR
GS
[0.75 0 0 0.75 179.30921 251.50001] CT
0.149 GC
N
-5.766 9.809 M
-5.297 10.387 -4.617 10.708 QT
-3.938 11.028 -3.203 11.028 QT
-2.484 11.028 -1.891 10.661 QT
-1.297 10.294 -1.297 9.606 QT
-1.297 8.528 L
-1.297 8.106 -2.922 8.106 QT
-2.922 7.653 L
0.797 7.653 L
0.797 8.106 L
0.391 8.106 0.148 8.177 QT
-0.094 8.247 -0.094 8.528 QT
-0.094 11.091 L
-0.094 11.137 -0.125 11.169 QT
-0.156 11.2 -0.203 11.2 QT
-0.328 11.2 -0.609 10.911 QT
-0.891 10.622 -1.063 10.403 QT
-1.375 10.95 -2.055 11.216 QT
-2.734 11.481 -3.469 11.481 QT
-4.734 11.481 -5.773 10.833 QT
-6.813 10.184 -7.414 9.098 QT
-8.016 8.012 -8.016 6.762 QT
-8.016 5.841 -7.672 4.966 QT
-7.328 4.091 -6.703 3.434 QT
-6.078 2.778 -5.242 2.403 QT
-4.406 2.028 -3.469 2.028 QT
-2.797 2.028 -2.203 2.317 QT
-1.609 2.606 -1.125 3.137 QT
-0.375 2.075 L
-0.297 2.028 -0.281 2.028 QT
-0.188 2.028 L
-0.156 2.028 -0.125 2.059 QT
-0.094 2.091 -0.094 2.137 QT
-0.094 5.653 L
-0.094 5.762 -0.188 5.762 QT
-0.422 5.762 L
-0.547 5.762 -0.547 5.653 QT
-0.547 5.278 -0.695 4.817 QT
-0.844 4.356 -1.078 3.934 QT
-1.313 3.512 -1.609 3.2 QT
-2.344 2.497 -3.297 2.497 QT
-4.016 2.497 -4.672 2.817 QT
-5.328 3.137 -5.781 3.716 QT
-6.266 4.325 -6.445 5.098 QT
-6.625 5.872 -6.625 6.762 QT
-6.625 8.747 -5.766 9.809 QT
cp
f
GR
GS
[0.75 0 0 0.75 179.30921 251.50001] CT
0.149 GC
N
2.135 11.2 M
2.135 10.747 L
3.291 10.747 3.557 9.981 QT
6.291 2.028 L
6.322 1.887 6.494 1.887 QT
6.666 1.887 L
6.838 1.887 6.869 2.028 QT
9.729 10.325 L
9.838 10.606 10.182 10.677 QT
10.525 10.747 11.025 10.747 QT
11.025 11.2 L
7.4 11.2 L
7.4 10.747 L
8.479 10.747 8.479 10.387 QT
8.479 10.325 L
7.775 8.294 L
4.619 8.294 L
4.041 9.981 L
4.025 10.012 4.025 10.106 QT
4.025 10.434 4.338 10.591 QT
4.65 10.747 4.994 10.747 QT
4.994 11.2 L
2.135 11.2 L
cp
4.775 7.841 M
7.635 7.841 L
6.197 3.7 L
4.775 7.841 L
cp
f
GR
GS
[0.75 0 0 0.75 179.30921 251.50001] CT
0.149 GC
N
11.854 8.794 M
11.854 7.981 L
15.307 7.981 L
15.307 8.794 L
11.854 8.794 L
cp
f
GR
GS
[0.75 0 0 0.75 179.30921 251.50001] CT
0.149 GC
N
16.501 11.2 M
16.501 10.747 L
17.892 10.747 17.892 10.325 QT
17.892 3.184 L
17.892 2.778 16.501 2.778 QT
16.501 2.325 L
20.517 2.325 L
20.517 2.778 L
19.111 2.778 19.111 3.184 QT
19.111 10.325 L
19.111 10.747 20.517 10.747 QT
20.517 11.2 L
16.501 11.2 L
cp
f
GR
GS
[0.75 0 0 0.75 179.30921 251.50001] CT
0.149 GC
N
21.686 11.2 M
21.686 10.747 L
23.077 10.747 23.077 10.325 QT
23.077 3.184 L
23.077 2.778 21.686 2.778 QT
21.686 2.325 L
25.702 2.325 L
25.702 2.778 L
24.296 2.778 24.296 3.184 QT
24.296 10.325 L
24.296 10.747 25.702 10.747 QT
25.702 11.2 L
21.686 11.2 L
cp
f
GR
GS
[0.75 0 0 0.75 340.125 251.50001] CT
0.149 GC
N
-28.806 11.2 M
-28.806 10.747 L
-27.462 10.747 -27.462 9.981 QT
-27.462 3.184 L
-27.462 2.778 -28.806 2.778 QT
-28.806 2.325 L
-26.353 2.325 L
-26.181 2.325 -26.134 2.466 QT
-23.306 9.825 L
-20.478 2.466 L
-20.416 2.325 -20.259 2.325 QT
-17.806 2.325 L
-17.806 2.778 L
-19.15 2.778 -19.15 3.184 QT
-19.15 10.325 L
-19.15 10.747 -17.806 10.747 QT
-17.806 11.2 L
-21.587 11.2 L
-21.587 10.747 L
-20.259 10.747 -20.259 10.325 QT
-20.259 2.762 L
-23.447 11.059 L
-23.509 11.2 -23.666 11.2 QT
-23.837 11.2 -23.884 11.059 QT
-27.056 2.872 L
-27.056 9.981 L
-27.056 10.747 -25.712 10.747 QT
-25.712 11.2 L
-28.806 11.2 L
cp
f
GR
GS
[0.75 0 0 0.75 340.125 251.50001] CT
0.149 GC
N
-11.975 11.481 M
-13.209 11.481 -14.201 10.825 QT
-15.193 10.169 -15.748 9.083 QT
-16.303 7.997 -16.303 6.794 QT
-16.303 5.903 -15.982 5.036 QT
-15.662 4.169 -15.092 3.497 QT
-14.521 2.825 -13.717 2.427 QT
-12.912 2.028 -11.975 2.028 QT
-11.053 2.028 -10.248 2.427 QT
-9.443 2.825 -8.865 3.505 QT
-8.287 4.184 -7.975 5.028 QT
-7.662 5.872 -7.662 6.794 QT
-7.662 7.997 -8.217 9.083 QT
-8.771 10.169 -9.764 10.825 QT
-10.756 11.481 -11.975 11.481 QT
cp
-14.131 9.794 M
-13.756 10.387 -13.193 10.739 QT
-12.631 11.091 -11.975 11.091 QT
-11.553 11.091 -11.146 10.927 QT
-10.74 10.762 -10.404 10.458 QT
-10.068 10.153 -9.834 9.794 QT
-9.053 8.622 -9.053 6.591 QT
-9.053 4.716 -9.834 3.622 QT
-10.209 3.075 -10.779 2.747 QT
-11.35 2.419 -11.975 2.419 QT
-12.615 2.419 -13.186 2.747 QT
-13.756 3.075 -14.131 3.622 QT
-14.443 4.044 -14.607 4.52 QT
-14.771 4.997 -14.842 5.512 QT
-14.912 6.028 -14.912 6.591 QT
-14.912 7.169 -14.85 7.731 QT
-14.787 8.294 -14.607 8.833 QT
-14.428 9.372 -14.131 9.794 QT
cp
f
GR
GS
[0.75 0 0 0.75 340.125 251.50001] CT
0.149 GC
N
-6.26 11.2 M
-6.26 10.747 L
-4.932 10.747 -4.932 10.325 QT
-4.932 3.184 L
-4.932 2.778 -6.26 2.778 QT
-6.26 2.325 L
1.083 2.325 L
1.443 5.294 L
1.068 5.294 L
0.927 4.169 0.677 3.661 QT
0.427 3.153 -0.12 2.966 QT
-0.667 2.778 -1.776 2.778 QT
-3.057 2.778 L
-3.292 2.778 -3.424 2.794 QT
-3.557 2.809 -3.635 2.903 QT
-3.714 2.997 -3.714 3.184 QT
-3.714 6.356 L
-2.76 6.356 L
-2.089 6.356 -1.768 6.247 QT
-1.448 6.137 -1.323 5.825 QT
-1.198 5.512 -1.198 4.841 QT
-0.807 4.841 L
-0.807 8.341 L
-1.198 8.341 L
-1.198 7.684 -1.323 7.364 QT
-1.448 7.044 -1.768 6.934 QT
-2.089 6.825 -2.76 6.825 QT
-3.714 6.825 L
-3.714 10.325 L
-3.714 10.606 -3.557 10.677 QT
-3.401 10.747 -3.057 10.747 QT
-1.682 10.747 L
-0.776 10.747 -0.221 10.598 QT
0.333 10.45 0.646 10.122 QT
0.958 9.794 1.122 9.262 QT
1.286 8.731 1.427 7.794 QT
1.802 7.794 L
1.255 11.2 L
-6.26 11.2 L
cp
f
GR
GS
[0.75 0 0 0.75 340.125 251.50001] CT
0.149 GC
N
2.829 11.2 M
2.829 10.747 L
3.986 10.747 4.251 9.981 QT
6.986 2.028 L
7.017 1.887 7.189 1.887 QT
7.361 1.887 L
7.532 1.887 7.564 2.028 QT
10.423 10.325 L
10.532 10.606 10.876 10.677 QT
11.22 10.747 11.72 10.747 QT
11.72 11.2 L
8.095 11.2 L
8.095 10.747 L
9.173 10.747 9.173 10.387 QT
9.173 10.325 L
8.47 8.294 L
5.314 8.294 L
4.736 9.981 L
4.72 10.012 4.72 10.106 QT
4.72 10.434 5.032 10.591 QT
5.345 10.747 5.689 10.747 QT
5.689 11.2 L
2.829 11.2 L
cp
5.47 7.841 M
8.329 7.841 L
6.892 3.7 L
5.47 7.841 L
cp
f
GR
GS
[0.75 0 0 0.75 340.125 251.50001] CT
0.149 GC
N
13.142 14.184 M
13.142 14.153 13.157 14.137 QT
17.673 1.606 L
17.689 1.528 17.759 1.489 QT
17.829 1.45 17.907 1.45 QT
18.017 1.45 18.087 1.52 QT
18.157 1.591 18.157 1.716 QT
18.157 1.762 L
13.642 14.294 L
13.564 14.45 13.392 14.45 QT
13.282 14.45 13.212 14.372 QT
13.142 14.294 13.142 14.184 QT
cp
f
GR
GS
[0.75 0 0 0.75 340.125 251.50001] CT
0.149 GC
N
19.512 11.2 M
19.512 10.747 L
20.84 10.747 20.84 10.325 QT
20.84 3.184 L
20.84 2.778 19.512 2.778 QT
19.512 2.325 L
24.293 2.325 L
25.184 2.325 25.918 2.708 QT
26.652 3.091 27.176 3.731 QT
27.699 4.372 27.98 5.184 QT
28.262 5.997 28.262 6.841 QT
28.262 7.669 27.98 8.45 QT
27.699 9.231 27.16 9.856 QT
26.621 10.481 25.887 10.841 QT
25.152 11.2 24.293 11.2 QT
19.512 11.2 L
cp
22.012 10.325 M
22.012 10.606 22.168 10.677 QT
22.324 10.747 22.668 10.747 QT
23.965 10.747 L
24.621 10.747 25.223 10.458 QT
25.824 10.169 26.215 9.653 QT
26.637 9.106 26.777 8.427 QT
26.918 7.747 26.918 6.841 QT
26.918 5.903 26.777 5.192 QT
26.637 4.481 26.215 3.919 QT
25.84 3.372 25.238 3.075 QT
24.637 2.778 23.965 2.778 QT
22.668 2.778 L
22.434 2.778 22.309 2.794 QT
22.184 2.809 22.098 2.903 QT
22.012 2.997 22.012 3.184 QT
22.012 10.325 L
cp
f
GR
GS
[0.75 0 0 0.75 500.94081 251.50001] CT
0.149 GC
N
-39.64 11.2 M
-39.64 10.747 L
-38.296 10.747 -38.296 9.981 QT
-38.296 3.184 L
-38.296 2.778 -39.64 2.778 QT
-39.64 2.325 L
-37.186 2.325 L
-37.015 2.325 -36.968 2.466 QT
-34.14 9.825 L
-31.311 2.466 L
-31.249 2.325 -31.093 2.325 QT
-28.64 2.325 L
-28.64 2.778 L
-29.983 2.778 -29.983 3.184 QT
-29.983 10.325 L
-29.983 10.747 -28.64 10.747 QT
-28.64 11.2 L
-32.421 11.2 L
-32.421 10.747 L
-31.093 10.747 -31.093 10.325 QT
-31.093 2.762 L
-34.28 11.059 L
-34.343 11.2 -34.499 11.2 QT
-34.671 11.2 -34.718 11.059 QT
-37.89 2.872 L
-37.89 9.981 L
-37.89 10.747 -36.546 10.747 QT
-36.546 11.2 L
-39.64 11.2 L
cp
f
GR
GS
[0.75 0 0 0.75 500.94081 251.50001] CT
0.149 GC
N
-22.808 11.481 M
-24.042 11.481 -25.034 10.825 QT
-26.027 10.169 -26.581 9.083 QT
-27.136 7.997 -27.136 6.794 QT
-27.136 5.903 -26.816 5.036 QT
-26.495 4.169 -25.925 3.497 QT
-25.355 2.825 -24.55 2.427 QT
-23.745 2.028 -22.808 2.028 QT
-21.886 2.028 -21.081 2.427 QT
-20.277 2.825 -19.699 3.505 QT
-19.12 4.184 -18.808 5.028 QT
-18.495 5.872 -18.495 6.794 QT
-18.495 7.997 -19.05 9.083 QT
-19.605 10.169 -20.597 10.825 QT
-21.589 11.481 -22.808 11.481 QT
cp
-24.964 9.794 M
-24.589 10.387 -24.027 10.739 QT
-23.464 11.091 -22.808 11.091 QT
-22.386 11.091 -21.98 10.927 QT
-21.574 10.762 -21.238 10.458 QT
-20.902 10.153 -20.667 9.794 QT
-19.886 8.622 -19.886 6.591 QT
-19.886 4.716 -20.667 3.622 QT
-21.042 3.075 -21.613 2.747 QT
-22.183 2.419 -22.808 2.419 QT
-23.449 2.419 -24.019 2.747 QT
-24.589 3.075 -24.964 3.622 QT
-25.277 4.044 -25.441 4.52 QT
-25.605 4.997 -25.675 5.512 QT
-25.745 6.028 -25.745 6.591 QT
-25.745 7.169 -25.683 7.731 QT
-25.62 8.294 -25.441 8.833 QT
-25.261 9.372 -24.964 9.794 QT
cp
f
GR
GS
[0.75 0 0 0.75 500.94081 251.50001] CT
0.149 GC
N
-17.094 11.2 M
-17.094 10.747 L
-15.766 10.747 -15.766 10.325 QT
-15.766 3.184 L
-15.766 2.778 -17.094 2.778 QT
-17.094 2.325 L
-9.75 2.325 L
-9.391 5.294 L
-9.766 5.294 L
-9.906 4.169 -10.156 3.661 QT
-10.406 3.153 -10.953 2.966 QT
-11.5 2.778 -12.609 2.778 QT
-13.891 2.778 L
-14.125 2.778 -14.258 2.794 QT
-14.391 2.809 -14.469 2.903 QT
-14.547 2.997 -14.547 3.184 QT
-14.547 6.356 L
-13.594 6.356 L
-12.922 6.356 -12.602 6.247 QT
-12.281 6.137 -12.156 5.825 QT
-12.031 5.512 -12.031 4.841 QT
-11.641 4.841 L
-11.641 8.341 L
-12.031 8.341 L
-12.031 7.684 -12.156 7.364 QT
-12.281 7.044 -12.602 6.934 QT
-12.922 6.825 -13.594 6.825 QT
-14.547 6.825 L
-14.547 10.325 L
-14.547 10.606 -14.391 10.677 QT
-14.234 10.747 -13.891 10.747 QT
-12.516 10.747 L
-11.609 10.747 -11.055 10.598 QT
-10.5 10.45 -10.188 10.122 QT
-9.875 9.794 -9.711 9.262 QT
-9.547 8.731 -9.406 7.794 QT
-9.031 7.794 L
-9.578 11.2 L
-17.094 11.2 L
cp
f
GR
GS
[0.75 0 0 0.75 500.94081 251.50001] CT
0.149 GC
N
-8.004 11.2 M
-8.004 10.747 L
-6.848 10.747 -6.582 9.981 QT
-3.848 2.028 L
-3.817 1.887 -3.645 1.887 QT
-3.473 1.887 L
-3.301 1.887 -3.27 2.028 QT
-0.41 10.325 L
-0.301 10.606 0.043 10.677 QT
0.387 10.747 0.887 10.747 QT
0.887 11.2 L
-2.738 11.2 L
-2.738 10.747 L
-1.66 10.747 -1.66 10.387 QT
-1.66 10.325 L
-2.363 8.294 L
-5.52 8.294 L
-6.098 9.981 L
-6.113 10.012 -6.113 10.106 QT
-6.113 10.434 -5.801 10.591 QT
-5.488 10.747 -5.145 10.747 QT
-5.145 11.2 L
-8.004 11.2 L
cp
-5.363 7.841 M
-2.504 7.841 L
-3.942 3.7 L
-5.363 7.841 L
cp
f
GR
GS
[0.75 0 0 0.75 500.94081 251.50001] CT
0.149 GC
N
2.308 14.184 M
2.308 14.153 2.324 14.137 QT
6.84 1.606 L
6.855 1.528 6.926 1.489 QT
6.996 1.45 7.074 1.45 QT
7.183 1.45 7.254 1.52 QT
7.324 1.591 7.324 1.716 QT
7.324 1.762 L
2.808 14.294 L
2.73 14.45 2.558 14.45 QT
2.449 14.45 2.379 14.372 QT
2.308 14.294 2.308 14.184 QT
cp
f
GR
GS
[0.75 0 0 0.75 500.94081 251.50001] CT
0.149 GC
N
8.678 11.2 M
8.678 10.747 L
10.006 10.747 10.006 10.325 QT
10.006 3.184 L
10.006 2.778 8.678 2.778 QT
8.678 2.325 L
13.46 2.325 L
14.35 2.325 15.085 2.708 QT
15.819 3.091 16.342 3.731 QT
16.866 4.372 17.147 5.184 QT
17.428 5.997 17.428 6.841 QT
17.428 7.669 17.147 8.45 QT
16.866 9.231 16.327 9.856 QT
15.788 10.481 15.053 10.841 QT
14.319 11.2 13.46 11.2 QT
8.678 11.2 L
cp
11.178 10.325 M
11.178 10.606 11.335 10.677 QT
11.491 10.747 11.835 10.747 QT
13.131 10.747 L
13.788 10.747 14.389 10.458 QT
14.991 10.169 15.381 9.653 QT
15.803 9.106 15.944 8.427 QT
16.085 7.747 16.085 6.841 QT
16.085 5.903 15.944 5.192 QT
15.803 4.481 15.381 3.919 QT
15.006 3.372 14.405 3.075 QT
13.803 2.778 13.131 2.778 QT
11.835 2.778 L
11.6 2.778 11.475 2.794 QT
11.35 2.809 11.264 2.903 QT
11.178 2.997 11.178 3.184 QT
11.178 10.325 L
cp
f
GR
GS
[0.75 0 0 0.75 500.94081 251.50001] CT
0.149 GC
N
18.567 8.794 M
18.567 7.981 L
22.02 7.981 L
22.02 8.794 L
18.567 8.794 L
cp
f
GR
GS
[0.75 0 0 0.75 500.94081 251.50001] CT
0.149 GC
N
23.308 11.2 M
23.308 10.747 L
24.636 10.747 24.636 10.325 QT
24.636 3.184 L
24.636 2.778 23.308 2.778 QT
23.308 2.325 L
27.386 2.325 L
28.12 2.325 28.917 2.583 QT
29.714 2.841 30.253 3.38 QT
30.792 3.919 30.792 4.669 QT
30.792 5.216 30.472 5.645 QT
30.152 6.075 29.636 6.364 QT
29.12 6.653 28.589 6.778 QT
29.167 6.981 29.605 7.427 QT
30.042 7.872 30.136 8.45 QT
30.324 9.606 L
30.449 10.387 30.589 10.77 QT
30.73 11.153 31.199 11.153 QT
31.605 11.153 31.808 10.77 QT
32.011 10.387 32.011 9.95 QT
32.011 9.903 32.05 9.872 QT
32.089 9.841 32.136 9.841 QT
32.261 9.841 L
32.386 9.841 32.386 10.012 QT
32.386 10.356 32.245 10.7 QT
32.105 11.044 31.839 11.262 QT
31.574 11.481 31.214 11.481 QT
30.277 11.481 29.605 11.02 QT
28.933 10.559 28.933 9.653 QT
28.933 8.497 L
28.933 7.841 28.48 7.38 QT
28.027 6.919 27.37 6.919 QT
25.808 6.919 L
25.808 10.325 L
25.808 10.747 27.152 10.747 QT
27.152 11.2 L
23.308 11.2 L
cp
25.808 6.591 M
27.199 6.591 L
28.277 6.591 28.839 6.153 QT
29.402 5.716 29.402 4.669 QT
29.402 3.637 28.847 3.208 QT
28.292 2.778 27.199 2.778 QT
26.464 2.778 L
26.23 2.778 26.105 2.794 QT
25.98 2.809 25.894 2.903 QT
25.808 2.997 25.808 3.184 QT
25.808 6.591 L
cp
f
GR
GS
[0.75 0 0 0.75 500.94081 251.50001] CT
0.149 GC
N
33.42 11.387 M
33.42 8.356 L
33.42 8.247 33.529 8.247 QT
33.685 8.247 L
33.732 8.247 33.763 8.278 QT
33.795 8.309 33.795 8.356 QT
33.795 9.622 34.584 10.325 QT
35.373 11.028 36.654 11.028 QT
37.107 11.028 37.49 10.77 QT
37.873 10.512 38.084 10.091 QT
38.295 9.669 38.295 9.216 QT
38.295 8.825 38.131 8.45 QT
37.966 8.075 37.67 7.802 QT
37.373 7.528 36.998 7.434 QT
35.31 7.028 L
34.482 6.809 33.951 6.122 QT
33.42 5.434 33.42 4.575 QT
33.42 3.903 33.763 3.309 QT
34.107 2.716 34.685 2.372 QT
35.263 2.028 35.935 2.028 QT
37.232 2.028 37.998 2.919 QT
38.545 2.075 L
38.576 2.028 38.623 2.028 QT
38.716 2.028 L
38.748 2.028 38.787 2.059 QT
38.826 2.091 38.826 2.137 QT
38.826 5.153 L
38.826 5.278 38.716 5.278 QT
38.56 5.278 L
38.435 5.278 38.435 5.153 QT
38.435 4.825 38.326 4.434 QT
38.216 4.044 38.021 3.677 QT
37.826 3.309 37.591 3.091 QT
36.966 2.45 35.935 2.45 QT
35.498 2.45 35.123 2.677 QT
34.748 2.903 34.521 3.294 QT
34.295 3.684 34.295 4.106 QT
34.295 4.669 34.638 5.122 QT
34.982 5.575 35.545 5.716 QT
37.232 6.122 L
37.654 6.231 38.029 6.497 QT
38.404 6.762 38.646 7.106 QT
38.888 7.45 39.029 7.88 QT
39.17 8.309 39.17 8.762 QT
39.17 9.466 38.849 10.098 QT
38.529 10.731 37.943 11.106 QT
37.357 11.481 36.654 11.481 QT
36.216 11.481 35.771 11.387 QT
35.326 11.294 34.943 11.098 QT
34.56 10.903 34.248 10.591 QT
33.701 11.45 L
33.67 11.481 33.607 11.481 QT
33.529 11.481 L
33.42 11.481 33.42 11.387 QT
cp
f
GR
GS
[0.75 0 0 0.75 340.12525 264.49999] CT
0.149 GC
/Helvetica 14.667 F
GS
[1 0 0 1 0 0] CT
-107 15 moveto 
1 -1 scale
(Multi-objective Gentic Algorithms) t 
GR
GR
GS
[0.75 0 0 0.75 0 0] CT
0 0.235 1 RC
2 setlinecap
1 LJ
0.667 LW
N
114 330 M
114 28 L
S
GR
GS
[0.75 0 0 0.75 0 0] CT
0 0.235 1 RC
2 setlinecap
1 LJ
0.667 LW
N
114 330 M
120.79 330 L
S
GR
GS
[0.75 0 0 0.75 0 0] CT
0 0.235 1 RC
2 setlinecap
1 LJ
0.667 LW
N
114 269.6 M
120.79 269.6 L
S
GR
GS
[0.75 0 0 0.75 0 0] CT
0 0.235 1 RC
2 setlinecap
1 LJ
0.667 LW
N
114 209.2 M
120.79 209.2 L
S
GR
GS
[0.75 0 0 0.75 0 0] CT
0 0.235 1 RC
2 setlinecap
1 LJ
0.667 LW
N
114 148.8 M
120.79 148.8 L
S
GR
GS
[0.75 0 0 0.75 0 0] CT
0 0.235 1 RC
2 setlinecap
1 LJ
0.667 LW
N
114 88.4 M
120.79 88.4 L
S
GR
GS
[0.75 0 0 0.75 0 0] CT
0 0.235 1 RC
2 setlinecap
1 LJ
0.667 LW
N
114 28 M
120.79 28 L
S
GR
GS
[0.75 0 0 0.75 81.5 247.5] CT
0 0.235 1 RC
N
-3.417 3.481 M
-5.01 3.481 -5.581 2.169 QT
-6.151 0.856 -6.151 -0.941 QT
-6.151 -2.081 -5.948 -3.073 QT
-5.745 -4.066 -5.135 -4.761 QT
-4.526 -5.456 -3.417 -5.456 QT
-2.557 -5.456 -2.01 -5.042 QT
-1.464 -4.628 -1.182 -3.964 QT
-0.901 -3.3 -0.792 -2.542 QT
-0.682 -1.784 -0.682 -0.941 QT
-0.682 0.169 -0.893 1.145 QT
-1.104 2.122 -1.706 2.802 QT
-2.307 3.481 -3.417 3.481 QT
cp
-3.417 3.153 M
-2.698 3.153 -2.339 2.411 QT
-1.979 1.669 -1.901 0.762 QT
-1.823 -0.144 -1.823 -1.159 QT
-1.823 -2.128 -1.901 -2.956 QT
-1.979 -3.784 -2.331 -4.456 QT
-2.682 -5.128 -3.417 -5.128 QT
-4.151 -5.128 -4.51 -4.448 QT
-4.87 -3.769 -4.948 -2.948 QT
-5.026 -2.128 -5.026 -1.159 QT
-5.026 -0.425 -4.995 0.216 QT
-4.964 0.856 -4.807 1.536 QT
-4.651 2.216 -4.315 2.684 QT
-3.979 3.153 -3.417 3.153 QT
cp
f
GR
GS
[0.75 0 0 0.75 81.5 202.2] CT
0 0.235 1 RC
N
-19.359 3.2 M
-19.359 2.856 L
-19.359 2.825 -19.328 2.778 QT
-17.313 0.544 L
-16.844 0.044 -16.563 -0.292 QT
-16.281 -0.628 -16 -1.066 QT
-15.719 -1.503 -15.555 -1.956 QT
-15.391 -2.409 -15.391 -2.909 QT
-15.391 -3.441 -15.594 -3.933 QT
-15.797 -4.425 -16.188 -4.714 QT
-16.578 -5.003 -17.125 -5.003 QT
-17.688 -5.003 -18.141 -4.659 QT
-18.594 -4.316 -18.781 -3.784 QT
-18.719 -3.8 -18.641 -3.8 QT
-18.344 -3.8 -18.141 -3.605 QT
-17.938 -3.409 -17.938 -3.097 QT
-17.938 -2.8 -18.141 -2.589 QT
-18.344 -2.378 -18.641 -2.378 QT
-18.938 -2.378 -19.148 -2.589 QT
-19.359 -2.8 -19.359 -3.097 QT
-19.359 -3.581 -19.172 -4.011 QT
-18.984 -4.441 -18.641 -4.769 QT
-18.297 -5.097 -17.859 -5.277 QT
-17.422 -5.456 -16.938 -5.456 QT
-16.188 -5.456 -15.547 -5.144 QT
-14.906 -4.831 -14.531 -4.253 QT
-14.156 -3.675 -14.156 -2.909 QT
-14.156 -2.347 -14.406 -1.839 QT
-14.656 -1.331 -15.039 -0.917 QT
-15.422 -0.503 -16.031 0.028 QT
-16.641 0.559 -16.828 0.731 QT
-18.297 2.153 L
-17.047 2.153 L
-16.125 2.153 -15.508 2.137 QT
-14.891 2.122 -14.859 2.075 QT
-14.703 1.919 -14.547 0.887 QT
-14.156 0.887 L
-14.531 3.2 L
-19.359 3.2 L
cp
f
GR
GS
[0.75 0 0 0.75 81.5 202.2] CT
0 0.235 1 RC
N
-10.083 3.481 M
-11.677 3.481 -12.247 2.169 QT
-12.818 0.856 -12.818 -0.941 QT
-12.818 -2.081 -12.615 -3.073 QT
-12.411 -4.066 -11.802 -4.761 QT
-11.193 -5.456 -10.083 -5.456 QT
-9.224 -5.456 -8.677 -5.042 QT
-8.13 -4.628 -7.849 -3.964 QT
-7.568 -3.3 -7.458 -2.542 QT
-7.349 -1.784 -7.349 -0.941 QT
-7.349 0.169 -7.56 1.145 QT
-7.771 2.122 -8.372 2.802 QT
-8.974 3.481 -10.083 3.481 QT
cp
-10.083 3.153 M
-9.365 3.153 -9.005 2.411 QT
-8.646 1.669 -8.568 0.762 QT
-8.49 -0.144 -8.49 -1.159 QT
-8.49 -2.128 -8.568 -2.956 QT
-8.646 -3.784 -8.997 -4.456 QT
-9.349 -5.128 -10.083 -5.128 QT
-10.818 -5.128 -11.177 -4.448 QT
-11.536 -3.769 -11.615 -2.948 QT
-11.693 -2.128 -11.693 -1.159 QT
-11.693 -0.425 -11.661 0.216 QT
-11.63 0.856 -11.474 1.536 QT
-11.318 2.216 -10.982 2.684 QT
-10.646 3.153 -10.083 3.153 QT
cp
f
GR
GS
[0.75 0 0 0.75 81.5 202.2] CT
0 0.235 1 RC
N
/f-2026418800{-3.417 3.481 M
-5.01 3.481 -5.581 2.169 QT
-6.151 0.856 -6.151 -0.941 QT
-6.151 -2.081 -5.948 -3.073 QT
-5.745 -4.066 -5.135 -4.761 QT
-4.526 -5.456 -3.417 -5.456 QT
-2.557 -5.456 -2.01 -5.042 QT
-1.464 -4.628 -1.182 -3.964 QT
-0.901 -3.3 -0.792 -2.542 QT
-0.682 -1.784 -0.682 -0.941 QT
-0.682 0.169 -0.893 1.145 QT
-1.104 2.122 -1.706 2.802 QT
-2.307 3.481 -3.417 3.481 QT
cp
-3.417 3.153 M
-2.698 3.153 -2.339 2.411 QT
-1.979 1.669 -1.901 0.762 QT
-1.823 -0.144 -1.823 -1.159 QT
-1.823 -2.128 -1.901 -2.956 QT
-1.979 -3.784 -2.331 -4.456 QT
-2.682 -5.128 -3.417 -5.128 QT
-4.151 -5.128 -4.51 -4.448 QT
-4.87 -3.769 -4.948 -2.948 QT
-5.026 -2.128 -5.026 -1.159 QT
-5.026 -0.425 -4.995 0.216 QT
-4.964 0.856 -4.807 1.536 QT
-4.651 2.216 -4.315 2.684 QT
-3.979 3.153 -3.417 3.153 QT
cp}def
f-2026418800
f
GR
GS
[0.75 0 0 0.75 81.5 156.9] CT
0 0.235 1 RC
N
/f-1051101992{-19.641 1.059 M
-19.641 0.591 L
-15.625 -5.394 L
-15.578 -5.456 -15.484 -5.456 QT
-15.297 -5.456 L
-15.156 -5.456 -15.156 -5.316 QT
-15.156 0.591 L
-13.875 0.591 L
-13.875 1.059 L
-15.156 1.059 L
-15.156 2.325 L
-15.156 2.591 -14.773 2.669 QT
-14.391 2.747 -13.891 2.747 QT
-13.891 3.2 L
-17.469 3.2 L
-17.469 2.747 L
-16.969 2.747 -16.586 2.669 QT
-16.203 2.591 -16.203 2.325 QT
-16.203 1.059 L
-19.641 1.059 L
cp
-19.203 0.591 M
-16.125 0.591 L
-16.125 -4.003 L
-19.203 0.591 L
cp}def
f-1051101992
f
GR
GS
[0.75 0 0 0.75 81.5 156.9] CT
0 0.235 1 RC
N
/f660764968{-10.083 3.481 M
-11.677 3.481 -12.247 2.169 QT
-12.818 0.856 -12.818 -0.941 QT
-12.818 -2.081 -12.615 -3.073 QT
-12.411 -4.066 -11.802 -4.761 QT
-11.193 -5.456 -10.083 -5.456 QT
-9.224 -5.456 -8.677 -5.042 QT
-8.13 -4.628 -7.849 -3.964 QT
-7.568 -3.3 -7.458 -2.542 QT
-7.349 -1.784 -7.349 -0.941 QT
-7.349 0.169 -7.56 1.145 QT
-7.771 2.122 -8.372 2.802 QT
-8.974 3.481 -10.083 3.481 QT
cp
-10.083 3.153 M
-9.365 3.153 -9.005 2.411 QT
-8.646 1.669 -8.568 0.762 QT
-8.49 -0.144 -8.49 -1.159 QT
-8.49 -2.128 -8.568 -2.956 QT
-8.646 -3.784 -8.997 -4.456 QT
-9.349 -5.128 -10.083 -5.128 QT
-10.818 -5.128 -11.177 -4.448 QT
-11.536 -3.769 -11.615 -2.948 QT
-11.693 -2.128 -11.693 -1.159 QT
-11.693 -0.425 -11.661 0.216 QT
-11.63 0.856 -11.474 1.536 QT
-11.318 2.216 -10.982 2.684 QT
-10.646 3.153 -10.083 3.153 QT
cp}def
f660764968
f
GR
GS
[0.75 0 0 0.75 81.5 156.9] CT
0 0.235 1 RC
N
f-2026418800
f
GR
GS
[0.75 0 0 0.75 81.5 111.6] CT
0 0.235 1 RC
N
/f-1068478890{-16.75 3.481 M
-17.563 3.481 -18.102 3.052 QT
-18.641 2.622 -18.93 1.942 QT
-19.219 1.262 -19.336 0.512 QT
-19.453 -0.238 -19.453 -1.003 QT
-19.453 -2.034 -19.055 -3.066 QT
-18.656 -4.097 -17.875 -4.777 QT
-17.094 -5.456 -16.031 -5.456 QT
-15.594 -5.456 -15.203 -5.292 QT
-14.813 -5.128 -14.594 -4.8 QT
-14.375 -4.472 -14.375 -4.003 QT
-14.375 -3.738 -14.563 -3.558 QT
-14.75 -3.378 -15.016 -3.378 QT
-15.266 -3.378 -15.445 -3.558 QT
-15.625 -3.738 -15.625 -4.003 QT
-15.625 -4.253 -15.445 -4.441 QT
-15.266 -4.628 -15.016 -4.628 QT
-14.938 -4.628 L
-15.109 -4.863 -15.406 -4.972 QT
-15.703 -5.081 -16.031 -5.081 QT
-16.422 -5.081 -16.758 -4.909 QT
-17.094 -4.738 -17.359 -4.448 QT
-17.625 -4.159 -17.805 -3.808 QT
-17.984 -3.456 -18.078 -3.003 QT
-18.172 -2.55 -18.203 -2.159 QT
-18.234 -1.769 -18.234 -1.175 QT
-18 -1.706 -17.578 -2.042 QT
-17.156 -2.378 -16.641 -2.378 QT
-16.063 -2.378 -15.586 -2.144 QT
-15.109 -1.909 -14.766 -1.495 QT
-14.422 -1.081 -14.242 -0.55 QT
-14.063 -0.019 -14.063 0.528 QT
-14.063 1.294 -14.398 1.981 QT
-14.734 2.669 -15.352 3.075 QT
-15.969 3.481 -16.75 3.481 QT
cp
-16.75 3.075 M
-16.25 3.075 -15.945 2.848 QT
-15.641 2.622 -15.5 2.239 QT
-15.359 1.856 -15.32 1.473 QT
-15.281 1.091 -15.281 0.528 QT
-15.281 -0.206 -15.352 -0.722 QT
-15.422 -1.238 -15.734 -1.636 QT
-16.047 -2.034 -16.688 -2.034 QT
-17.219 -2.034 -17.555 -1.683 QT
-17.891 -1.331 -18.047 -0.784 QT
-18.203 -0.238 -18.203 0.262 QT
-18.203 0.434 -18.188 0.528 QT
-18.188 0.544 -18.195 0.552 QT
-18.203 0.559 -18.203 0.591 QT
-18.203 1.137 -18.086 1.708 QT
-17.969 2.278 -17.648 2.677 QT
-17.328 3.075 -16.75 3.075 QT
cp}def
f-1068478890
f
GR
GS
[0.75 0 0 0.75 81.5 111.6] CT
0 0.235 1 RC
N
f660764968
f
GR
GS
[0.75 0 0 0.75 81.5 111.6] CT
0 0.235 1 RC
N
f-2026418800
f
GR
GS
[0.75 0 0 0.75 81.5 66.3] CT
0 0.235 1 RC
N
/f-1401505698{-19.453 1.231 M
-19.453 0.45 -18.938 -0.152 QT
-18.422 -0.753 -17.625 -1.159 QT
-18.109 -1.472 L
-18.547 -1.753 -18.828 -2.238 QT
-19.109 -2.722 -19.109 -3.269 QT
-19.109 -3.878 -18.781 -4.386 QT
-18.453 -4.894 -17.906 -5.175 QT
-17.359 -5.456 -16.75 -5.456 QT
-16.172 -5.456 -15.633 -5.222 QT
-15.094 -4.988 -14.75 -4.55 QT
-14.406 -4.113 -14.406 -3.503 QT
-14.406 -3.066 -14.609 -2.691 QT
-14.813 -2.316 -15.172 -2.019 QT
-15.531 -1.722 -15.938 -1.519 QT
-15.203 -1.034 L
-14.688 -0.706 -14.375 -0.159 QT
-14.063 0.387 -14.063 0.997 QT
-14.063 1.7 -14.438 2.278 QT
-14.813 2.856 -15.438 3.169 QT
-16.063 3.481 -16.75 3.481 QT
-17.422 3.481 -18.047 3.208 QT
-18.672 2.934 -19.063 2.419 QT
-19.453 1.903 -19.453 1.231 QT
cp
-18.75 1.231 M
-18.75 1.747 -18.469 2.169 QT
-18.188 2.591 -17.719 2.833 QT
-17.25 3.075 -16.75 3.075 QT
-16 3.075 -15.383 2.63 QT
-14.766 2.184 -14.766 1.466 QT
-14.766 1.216 -14.859 0.973 QT
-14.953 0.731 -15.133 0.528 QT
-15.313 0.325 -15.531 0.2 QT
-17.266 -0.925 L
-17.672 -0.722 -18.016 -0.386 QT
-18.359 -0.05 -18.555 0.356 QT
-18.75 0.762 -18.75 1.231 QT
cp
-17.859 -2.738 M
-16.281 -1.722 L
-15.734 -2.05 -15.383 -2.495 QT
-15.031 -2.941 -15.031 -3.503 QT
-15.031 -3.941 -15.281 -4.308 QT
-15.531 -4.675 -15.922 -4.878 QT
-16.313 -5.081 -16.766 -5.081 QT
-17.156 -5.081 -17.555 -4.933 QT
-17.953 -4.784 -18.211 -4.48 QT
-18.469 -4.175 -18.469 -3.769 QT
-18.469 -3.159 -17.859 -2.738 QT
cp}def
f-1401505698
f
GR
GS
[0.75 0 0 0.75 81.5 66.3] CT
0 0.235 1 RC
N
f660764968
f
GR
GS
[0.75 0 0 0.75 81.5 66.3] CT
0 0.235 1 RC
N
f-2026418800
f
GR
GS
[0.75 0 0 0.75 81.5 21] CT
0 0.235 1 RC
N
/f582687895{-25.464 3.2 M
-25.464 2.747 L
-23.839 2.747 -23.839 2.325 QT
-23.839 -4.488 L
-24.51 -4.175 -25.542 -4.175 QT
-25.542 -4.628 L
-23.948 -4.628 -23.135 -5.456 QT
-22.948 -5.456 L
-22.901 -5.456 -22.862 -5.425 QT
-22.823 -5.394 -22.823 -5.347 QT
-22.823 2.325 L
-22.823 2.747 -21.198 2.747 QT
-21.198 3.2 L
-25.464 3.2 L
cp}def
f582687895
f
GR
GS
[0.75 0 0 0.75 81.5 21] CT
0 0.235 1 RC
N
/f-399607053{-16.75 3.481 M
-18.344 3.481 -18.914 2.169 QT
-19.484 0.856 -19.484 -0.941 QT
-19.484 -2.081 -19.281 -3.073 QT
-19.078 -4.066 -18.469 -4.761 QT
-17.859 -5.456 -16.75 -5.456 QT
-15.891 -5.456 -15.344 -5.042 QT
-14.797 -4.628 -14.516 -3.964 QT
-14.234 -3.3 -14.125 -2.542 QT
-14.016 -1.784 -14.016 -0.941 QT
-14.016 0.169 -14.227 1.145 QT
-14.438 2.122 -15.039 2.802 QT
-15.641 3.481 -16.75 3.481 QT
cp
-16.75 3.153 M
-16.031 3.153 -15.672 2.411 QT
-15.313 1.669 -15.234 0.762 QT
-15.156 -0.144 -15.156 -1.159 QT
-15.156 -2.128 -15.234 -2.956 QT
-15.313 -3.784 -15.664 -4.456 QT
-16.016 -5.128 -16.75 -5.128 QT
-17.484 -5.128 -17.844 -4.448 QT
-18.203 -3.769 -18.281 -2.948 QT
-18.359 -2.128 -18.359 -1.159 QT
-18.359 -0.425 -18.328 0.216 QT
-18.297 0.856 -18.141 1.536 QT
-17.984 2.216 -17.648 2.684 QT
-17.313 3.153 -16.75 3.153 QT
cp}def
f-399607053
f
GR
GS
[0.75 0 0 0.75 81.5 21] CT
0 0.235 1 RC
N
f660764968
f
GR
GS
[0.75 0 0 0.75 81.5 21] CT
0 0.235 1 RC
N
f-2026418800
f
GR
GS
[0 -0.75 0.75 0 58.49994 134.24989] CT
0 0.235 1 RC
/Helvetica 14.667 F
GS
[1 0 0 1 0 0] CT
-53 -4 moveto 
1 -1 scale
(Makespan \(min\)) t 
GR
GR
GS
[0.75 0 0 0.75 0 0] CT
2 setlinecap
1 LJ
0.667 LW
N
793 330 M
793 28 L
S
GR
GS
[0.75 0 0 0.75 0 0] CT
2 setlinecap
1 LJ
0.667 LW
N
793 322.634 M
786.21 322.634 L
S
GR
GS
[0.75 0 0 0.75 0 0] CT
2 setlinecap
1 LJ
0.667 LW
N
793 285.805 M
786.21 285.805 L
S
GR
GS
[0.75 0 0 0.75 0 0] CT
2 setlinecap
1 LJ
0.667 LW
N
793 248.976 M
786.21 248.976 L
S
GR
GS
[0.75 0 0 0.75 0 0] CT
2 setlinecap
1 LJ
0.667 LW
N
793 212.146 M
786.21 212.146 L
S
GR
GS
[0.75 0 0 0.75 0 0] CT
2 setlinecap
1 LJ
0.667 LW
N
793 175.317 M
786.21 175.317 L
S
GR
GS
[0.75 0 0 0.75 0 0] CT
2 setlinecap
1 LJ
0.667 LW
N
793 138.488 M
786.21 138.488 L
S
GR
GS
[0.75 0 0 0.75 0 0] CT
2 setlinecap
1 LJ
0.667 LW
N
793 101.659 M
786.21 101.659 L
S
GR
GS
[0.75 0 0 0.75 0 0] CT
2 setlinecap
1 LJ
0.667 LW
N
793 64.829 M
786.21 64.829 L
S
GR
GS
[0.75 0 0 0.75 0 0] CT
2 setlinecap
1 LJ
0.667 LW
N
793 28 M
786.21 28 L
S
GR
GS
[0.75 0 0 0.75 598.74998 241.97562] CT
N
/f1462615791{3.25 3.481 M
1.656 3.481 1.086 2.169 QT
0.516 0.856 0.516 -0.941 QT
0.516 -2.081 0.719 -3.073 QT
0.922 -4.066 1.531 -4.761 QT
2.141 -5.456 3.25 -5.456 QT
4.109 -5.456 4.656 -5.042 QT
5.203 -4.628 5.484 -3.964 QT
5.766 -3.3 5.875 -2.542 QT
5.984 -1.784 5.984 -0.941 QT
5.984 0.169 5.773 1.145 QT
5.563 2.122 4.961 2.802 QT
4.359 3.481 3.25 3.481 QT
cp
3.25 3.153 M
3.969 3.153 4.328 2.411 QT
4.688 1.669 4.766 0.762 QT
4.844 -0.144 4.844 -1.159 QT
4.844 -2.128 4.766 -2.956 QT
4.688 -3.784 4.336 -4.456 QT
3.984 -5.128 3.25 -5.128 QT
2.516 -5.128 2.156 -4.448 QT
1.797 -3.769 1.719 -2.948 QT
1.641 -2.128 1.641 -1.159 QT
1.641 -0.425 1.672 0.216 QT
1.703 0.856 1.859 1.536 QT
2.016 2.216 2.352 2.684 QT
2.688 3.153 3.25 3.153 QT
cp}def
f1462615791
f
GR
GS
[0.75 0 0 0.75 598.74998 214.35365] CT
N
/f615335308{1.125 1.716 M
1.266 2.106 1.539 2.419 QT
1.813 2.731 2.195 2.903 QT
2.578 3.075 2.984 3.075 QT
3.922 3.075 4.273 2.341 QT
4.625 1.606 4.625 0.575 QT
4.625 0.122 4.609 -0.183 QT
4.594 -0.488 4.531 -0.784 QT
4.406 -1.238 4.102 -1.581 QT
3.797 -1.925 3.359 -1.925 QT
2.922 -1.925 2.609 -1.792 QT
2.297 -1.659 2.102 -1.48 QT
1.906 -1.3 1.75 -1.105 QT
1.594 -0.909 1.563 -0.894 QT
1.422 -0.894 L
1.391 -0.894 1.336 -0.933 QT
1.281 -0.972 1.281 -1.019 QT
1.281 -5.363 L
1.281 -5.394 1.328 -5.425 QT
1.375 -5.456 1.422 -5.456 QT
1.453 -5.456 L
2.328 -5.034 3.313 -5.034 QT
4.281 -5.034 5.172 -5.456 QT
5.219 -5.456 L
5.25 -5.456 5.289 -5.425 QT
5.328 -5.394 5.328 -5.363 QT
5.328 -5.238 L
5.328 -5.175 5.313 -5.175 QT
4.859 -4.581 4.188 -4.253 QT
3.516 -3.925 2.813 -3.925 QT
2.281 -3.925 1.734 -4.066 QT
1.734 -1.613 L
2.172 -1.956 2.508 -2.105 QT
2.844 -2.253 3.375 -2.253 QT
4.094 -2.253 4.664 -1.847 QT
5.234 -1.441 5.539 -0.777 QT
5.844 -0.113 5.844 0.591 QT
5.844 1.372 5.461 2.036 QT
5.078 2.7 4.414 3.091 QT
3.75 3.481 2.984 3.481 QT
2.344 3.481 1.805 3.153 QT
1.266 2.825 0.953 2.27 QT
0.641 1.716 0.641 1.075 QT
0.641 0.794 0.836 0.606 QT
1.031 0.419 1.313 0.419 QT
1.594 0.419 1.789 0.606 QT
1.984 0.794 1.984 1.075 QT
1.984 1.356 1.789 1.552 QT
1.594 1.747 1.313 1.747 QT
1.266 1.747 1.211 1.739 QT
1.156 1.731 1.125 1.716 QT
cp}def
f615335308
f
GR
GS
[0.75 0 0 0.75 598.74998 214.35365] CT
N
/f167239034{9.917 3.481 M
8.323 3.481 7.753 2.169 QT
7.182 0.856 7.182 -0.941 QT
7.182 -2.081 7.385 -3.073 QT
7.589 -4.066 8.198 -4.761 QT
8.807 -5.456 9.917 -5.456 QT
10.776 -5.456 11.323 -5.042 QT
11.87 -4.628 12.151 -3.964 QT
12.432 -3.3 12.542 -2.542 QT
12.651 -1.784 12.651 -0.941 QT
12.651 0.169 12.44 1.145 QT
12.229 2.122 11.628 2.802 QT
11.026 3.481 9.917 3.481 QT
cp
9.917 3.153 M
10.635 3.153 10.995 2.411 QT
11.354 1.669 11.432 0.762 QT
11.51 -0.144 11.51 -1.159 QT
11.51 -2.128 11.432 -2.956 QT
11.354 -3.784 11.003 -4.456 QT
10.651 -5.128 9.917 -5.128 QT
9.182 -5.128 8.823 -4.448 QT
8.464 -3.769 8.385 -2.948 QT
8.307 -2.128 8.307 -1.159 QT
8.307 -0.425 8.339 0.216 QT
8.37 0.856 8.526 1.536 QT
8.682 2.216 9.018 2.684 QT
9.354 3.153 9.917 3.153 QT
cp}def
f167239034
f
GR
GS
[0.75 0 0 0.75 598.74998 186.73171] CT
N
/f1726952457{1.203 3.2 M
1.203 2.747 L
2.828 2.747 2.828 2.325 QT
2.828 -4.488 L
2.156 -4.175 1.125 -4.175 QT
1.125 -4.628 L
2.719 -4.628 3.531 -5.456 QT
3.719 -5.456 L
3.766 -5.456 3.805 -5.425 QT
3.844 -5.394 3.844 -5.347 QT
3.844 2.325 L
3.844 2.747 5.469 2.747 QT
5.469 3.2 L
1.203 3.2 L
cp}def
f1726952457
f
GR
GS
[0.75 0 0 0.75 598.74998 186.73171] CT
N
f167239034
f
GR
GS
[0.75 0 0 0.75 598.74998 186.73171] CT
N
/f350487604{16.583 3.481 M
14.99 3.481 14.419 2.169 QT
13.849 0.856 13.849 -0.941 QT
13.849 -2.081 14.052 -3.073 QT
14.255 -4.066 14.865 -4.761 QT
15.474 -5.456 16.583 -5.456 QT
17.443 -5.456 17.99 -5.042 QT
18.536 -4.628 18.818 -3.964 QT
19.099 -3.3 19.208 -2.542 QT
19.318 -1.784 19.318 -0.941 QT
19.318 0.169 19.107 1.145 QT
18.896 2.122 18.294 2.802 QT
17.693 3.481 16.583 3.481 QT
cp
16.583 3.153 M
17.302 3.153 17.661 2.411 QT
18.021 1.669 18.099 0.762 QT
18.177 -0.144 18.177 -1.159 QT
18.177 -2.128 18.099 -2.956 QT
18.021 -3.784 17.669 -4.456 QT
17.318 -5.128 16.583 -5.128 QT
15.849 -5.128 15.49 -4.448 QT
15.13 -3.769 15.052 -2.948 QT
14.974 -2.128 14.974 -1.159 QT
14.974 -0.425 15.005 0.216 QT
15.036 0.856 15.193 1.536 QT
15.349 2.216 15.685 2.684 QT
16.021 3.153 16.583 3.153 QT
cp}def
f350487604
f
GR
GS
[0.75 0 0 0.75 598.74998 159.10976] CT
N
f1726952457
f
GR
GS
[0.75 0 0 0.75 598.74998 159.10976] CT
N
/f106181819{7.792 1.716 M
7.932 2.106 8.206 2.419 QT
8.479 2.731 8.862 2.903 QT
9.245 3.075 9.651 3.075 QT
10.589 3.075 10.94 2.341 QT
11.292 1.606 11.292 0.575 QT
11.292 0.122 11.276 -0.183 QT
11.26 -0.488 11.198 -0.784 QT
11.073 -1.238 10.768 -1.581 QT
10.464 -1.925 10.026 -1.925 QT
9.589 -1.925 9.276 -1.792 QT
8.964 -1.659 8.768 -1.48 QT
8.573 -1.3 8.417 -1.105 QT
8.26 -0.909 8.229 -0.894 QT
8.089 -0.894 L
8.057 -0.894 8.003 -0.933 QT
7.948 -0.972 7.948 -1.019 QT
7.948 -5.363 L
7.948 -5.394 7.995 -5.425 QT
8.042 -5.456 8.089 -5.456 QT
8.12 -5.456 L
8.995 -5.034 9.979 -5.034 QT
10.948 -5.034 11.839 -5.456 QT
11.885 -5.456 L
11.917 -5.456 11.956 -5.425 QT
11.995 -5.394 11.995 -5.363 QT
11.995 -5.238 L
11.995 -5.175 11.979 -5.175 QT
11.526 -4.581 10.854 -4.253 QT
10.182 -3.925 9.479 -3.925 QT
8.948 -3.925 8.401 -4.066 QT
8.401 -1.613 L
8.839 -1.956 9.174 -2.105 QT
9.51 -2.253 10.042 -2.253 QT
10.76 -2.253 11.331 -1.847 QT
11.901 -1.441 12.206 -0.777 QT
12.51 -0.113 12.51 0.591 QT
12.51 1.372 12.128 2.036 QT
11.745 2.7 11.081 3.091 QT
10.417 3.481 9.651 3.481 QT
9.01 3.481 8.471 3.153 QT
7.932 2.825 7.62 2.27 QT
7.307 1.716 7.307 1.075 QT
7.307 0.794 7.503 0.606 QT
7.698 0.419 7.979 0.419 QT
8.26 0.419 8.456 0.606 QT
8.651 0.794 8.651 1.075 QT
8.651 1.356 8.456 1.552 QT
8.26 1.747 7.979 1.747 QT
7.932 1.747 7.878 1.739 QT
7.823 1.731 7.792 1.716 QT
cp}def
f106181819
f
GR
GS
[0.75 0 0 0.75 598.74998 159.10976] CT
N
f350487604
f
GR
GS
[0.75 0 0 0.75 598.74998 131.48781] CT
N
/f775622464{0.641 3.2 M
0.641 2.856 L
0.641 2.825 0.672 2.778 QT
2.688 0.544 L
3.156 0.044 3.438 -0.292 QT
3.719 -0.628 4 -1.066 QT
4.281 -1.503 4.445 -1.956 QT
4.609 -2.409 4.609 -2.909 QT
4.609 -3.441 4.406 -3.933 QT
4.203 -4.425 3.813 -4.714 QT
3.422 -5.003 2.875 -5.003 QT
2.313 -5.003 1.859 -4.659 QT
1.406 -4.316 1.219 -3.784 QT
1.281 -3.8 1.359 -3.8 QT
1.656 -3.8 1.859 -3.605 QT
2.063 -3.409 2.063 -3.097 QT
2.063 -2.8 1.859 -2.589 QT
1.656 -2.378 1.359 -2.378 QT
1.063 -2.378 0.852 -2.589 QT
0.641 -2.8 0.641 -3.097 QT
0.641 -3.581 0.828 -4.011 QT
1.016 -4.441 1.359 -4.769 QT
1.703 -5.097 2.141 -5.277 QT
2.578 -5.456 3.063 -5.456 QT
3.813 -5.456 4.453 -5.144 QT
5.094 -4.831 5.469 -4.253 QT
5.844 -3.675 5.844 -2.909 QT
5.844 -2.347 5.594 -1.839 QT
5.344 -1.331 4.961 -0.917 QT
4.578 -0.503 3.969 0.028 QT
3.359 0.559 3.172 0.731 QT
1.703 2.153 L
2.953 2.153 L
3.875 2.153 4.492 2.137 QT
5.109 2.122 5.141 2.075 QT
5.297 1.919 5.453 0.887 QT
5.844 0.887 L
5.469 3.2 L
0.641 3.2 L
cp}def
f775622464
f
GR
GS
[0.75 0 0 0.75 598.74998 131.48781] CT
N
f167239034
f
GR
GS
[0.75 0 0 0.75 598.74998 131.48781] CT
N
f350487604
f
GR
GS
[0.75 0 0 0.75 598.74998 103.86586] CT
N
f775622464
f
GR
GS
[0.75 0 0 0.75 598.74998 103.86586] CT
N
f106181819
f
GR
GS
[0.75 0 0 0.75 598.74998 103.86586] CT
N
f350487604
f
GR
GS
[0.75 0 0 0.75 598.74998 76.2439] CT
N
/f529299638{1.234 2.2 M
1.547 2.637 2.063 2.856 QT
2.578 3.075 3.156 3.075 QT
3.922 3.075 4.234 2.427 QT
4.547 1.778 4.547 0.966 QT
4.547 0.591 4.484 0.223 QT
4.422 -0.144 4.258 -0.456 QT
4.094 -0.769 3.82 -0.964 QT
3.547 -1.159 3.156 -1.159 QT
2.281 -1.159 L
2.172 -1.159 2.172 -1.269 QT
2.172 -1.394 L
2.172 -1.488 2.281 -1.488 QT
3 -1.55 L
3.453 -1.55 3.758 -1.894 QT
4.063 -2.238 4.203 -2.73 QT
4.344 -3.222 4.344 -3.659 QT
4.344 -4.284 4.055 -4.683 QT
3.766 -5.081 3.156 -5.081 QT
2.672 -5.081 2.219 -4.894 QT
1.766 -4.706 1.5 -4.331 QT
1.531 -4.331 1.547 -4.339 QT
1.563 -4.347 1.594 -4.347 QT
1.875 -4.347 2.07 -4.144 QT
2.266 -3.941 2.266 -3.644 QT
2.266 -3.363 2.07 -3.159 QT
1.875 -2.956 1.594 -2.956 QT
1.297 -2.956 1.094 -3.159 QT
0.891 -3.363 0.891 -3.644 QT
0.891 -4.206 1.227 -4.62 QT
1.563 -5.034 2.094 -5.245 QT
2.625 -5.456 3.156 -5.456 QT
3.563 -5.456 4 -5.339 QT
4.438 -5.222 4.789 -5.003 QT
5.141 -4.784 5.367 -4.441 QT
5.594 -4.097 5.594 -3.659 QT
5.594 -3.113 5.352 -2.652 QT
5.109 -2.191 4.68 -1.855 QT
4.25 -1.519 3.75 -1.347 QT
4.313 -1.238 4.82 -0.925 QT
5.328 -0.613 5.633 -0.113 QT
5.938 0.387 5.938 0.95 QT
5.938 1.669 5.547 2.247 QT
5.156 2.825 4.516 3.153 QT
3.875 3.481 3.156 3.481 QT
2.547 3.481 1.938 3.255 QT
1.328 3.028 0.938 2.559 QT
0.547 2.091 0.547 1.45 QT
0.547 1.122 0.766 0.911 QT
0.984 0.7 1.297 0.7 QT
1.516 0.7 1.688 0.794 QT
1.859 0.887 1.961 1.067 QT
2.063 1.247 2.063 1.45 QT
2.063 1.762 1.836 1.981 QT
1.609 2.2 1.297 2.2 QT
1.234 2.2 L
cp}def
f529299638
f
GR
GS
[0.75 0 0 0.75 598.74998 76.2439] CT
N
f167239034
f
GR
GS
[0.75 0 0 0.75 598.74998 76.2439] CT
N
f350487604
f
GR
GS
[0.75 0 0 0.75 598.74998 48.62195] CT
N
f529299638
f
GR
GS
[0.75 0 0 0.75 598.74998 48.62195] CT
N
f106181819
f
GR
GS
[0.75 0 0 0.75 598.74998 48.62195] CT
N
f350487604
f
GR
GS
[0.75 0 0 0.75 598.74998 21] CT
N
/f2049150242{0.359 1.059 M
0.359 0.591 L
4.375 -5.394 L
4.422 -5.456 4.516 -5.456 QT
4.703 -5.456 L
4.844 -5.456 4.844 -5.316 QT
4.844 0.591 L
6.125 0.591 L
6.125 1.059 L
4.844 1.059 L
4.844 2.325 L
4.844 2.591 5.227 2.669 QT
5.609 2.747 6.109 2.747 QT
6.109 3.2 L
2.531 3.2 L
2.531 2.747 L
3.031 2.747 3.414 2.669 QT
3.797 2.591 3.797 2.325 QT
3.797 1.059 L
0.359 1.059 L
cp
0.797 0.591 M
3.875 0.591 L
3.875 -4.003 L
0.797 0.591 L
cp}def
f2049150242
f
GR
GS
[0.75 0 0 0.75 598.74998 21] CT
N
f167239034
f
GR
GS
[0.75 0 0 0.75 598.74998 21] CT
N
f350487604
f
GR
GS
[0 -0.75 0.75 0 616.75003 134.24989] CT
/Helvetica 14.667 F
GS
[1 0 0 1 0 0] CT
-73 15 moveto 
1 -1 scale
(Discrepancy scores \(t\)) t 
GR
GR
GS
[0.75 0 0 0.75 0 0] CT
N
114 28 M
794 28 L
794 331 L
114 331 L
114 28 L
cp
clip
0 0 1 RC
[10 6] 0 setdash
2 LJ
0.667 LW
N
149.737 130.68 M
149.737 76.32 L
S
GR
GS
[0.75 0 0 0.75 0 0] CT
N
114 28 M
794 28 L
794 331 L
114 331 L
114 28 L
cp
clip
0 0 1 RC
[10 6] 0 setdash
2 LJ
0.667 LW
N
149.737 194.1 M
149.737 175.98 L
S
GR
GS
[0.75 0 0 0.75 0 0] CT
N
114 28 M
794 28 L
794 331 L
114 331 L
114 28 L
cp
clip
0 0 1 RC
1 LJ
0.667 LW
N
143.93 76.32 M
155.544 76.32 L
S
GR
GS
[0.75 0 0 0.75 0 0] CT
N
114 28 M
794 28 L
794 331 L
114 331 L
114 28 L
cp
clip
0 0 1 RC
1 LJ
0.667 LW
N
143.93 194.1 M
155.544 194.1 L
S
GR
GS
[0.75 0 0 0.75 0 0] CT
0 0 1 RC
1 LJ
0.667 LW
N
138.122 175.98 M
138.122 130.68 L
161.351 130.68 L
161.351 175.98 L
138.122 175.98 L
S
GR
GS
[0.75 0 0 0.75 0 0] CT
N
114 28 M
794 28 L
794 331 L
114 331 L
114 28 L
cp
clip
1 0 0 RC
1 LJ
0.667 LW
N
138.122 148.8 M
161.351 148.8 L
S
GR
GS
[0.75 0 0 0.75 112.30264 36.855] CT
1 0 0 RC
10.0 ML
N
0 -4 M
0 4 L
-4 0 M
4 0 L
S
GR
GS
[0.75 0 0 0.75 0 0] CT
N
114 28 M
794 28 L
794 331 L
114 331 L
114 28 L
cp
clip
0 0 1 RC
[10 6] 0 setdash
2 LJ
0.667 LW
N
364.158 139.74 M
364.158 76.32 L
S
GR
GS
[0.75 0 0 0.75 0 0] CT
N
114 28 M
794 28 L
794 331 L
114 331 L
114 28 L
cp
clip
0 0 1 RC
[10 6] 0 setdash
2 LJ
0.667 LW
N
364.158 203.16 M
364.158 185.04 L
S
GR
GS
[0.75 0 0 0.75 0 0] CT
N
114 28 M
794 28 L
794 331 L
114 331 L
114 28 L
cp
clip
0 0 1 RC
1 LJ
0.667 LW
N
358.351 76.32 M
369.965 76.32 L
S
GR
GS
[0.75 0 0 0.75 0 0] CT
N
114 28 M
794 28 L
794 331 L
114 331 L
114 28 L
cp
clip
0 0 1 RC
1 LJ
0.667 LW
N
358.351 203.16 M
369.965 203.16 L
S
GR
GS
[0.75 0 0 0.75 0 0] CT
0 0 1 RC
1 LJ
0.667 LW
N
352.543 185.04 M
352.543 139.74 L
375.772 139.74 L
375.772 185.04 L
352.543 185.04 L
S
GR
GS
[0.75 0 0 0.75 0 0] CT
N
114 28 M
794 28 L
794 331 L
114 331 L
114 28 L
cp
clip
1 0 0 RC
1 LJ
0.667 LW
N
352.543 166.92 M
375.772 166.92 L
S
GR
GS
[0.75 0 0 0.75 273.11842 50.445] CT
1 0 0 RC
10.0 ML
N
0 -4 M
0 4 L
-4 0 M
4 0 L
S
GR
GS
[0.75 0 0 0.75 273.11842 43.65] CT
1 0 0 RC
10.0 ML
N
0 -4 M
0 4 L
-4 0 M
4 0 L
S
GR
GS
[0.75 0 0 0.75 273.11842 36.855] CT
1 0 0 RC
10.0 ML
N
0 -4 M
0 4 L
-4 0 M
4 0 L
S
GR
GS
[0.75 0 0 0.75 0 0] CT
N
114 28 M
794 28 L
794 331 L
114 331 L
114 28 L
cp
clip
0 0 1 RC
[10 6] 0 setdash
2 LJ
0.667 LW
N
578.579 268.845 M
578.579 266.58 L
S
GR
GS
[0.75 0 0 0.75 0 0] CT
N
114 28 M
794 28 L
794 331 L
114 331 L
114 28 L
cp
clip
0 0 1 RC
[10 6] 0 setdash
2 LJ
0.667 LW
N
578.579 275.64 M
578.579 273.375 L
S
GR
GS
[0.75 0 0 0.75 0 0] CT
N
114 28 M
794 28 L
794 331 L
114 331 L
114 28 L
cp
clip
0 0 1 RC
1 LJ
0.667 LW
N
572.772 266.58 M
584.386 266.58 L
S
GR
GS
[0.75 0 0 0.75 0 0] CT
N
114 28 M
794 28 L
794 331 L
114 331 L
114 28 L
cp
clip
0 0 1 RC
1 LJ
0.667 LW
N
572.772 275.64 M
584.386 275.64 L
S
GR
GS
[0.75 0 0 0.75 0 0] CT
0 0 1 RC
1 LJ
0.667 LW
N
566.964 273.375 M
566.964 268.845 L
590.193 268.845 L
590.193 273.375 L
566.964 273.375 L
S
GR
GS
[0.75 0 0 0.75 0 0] CT
N
114 28 M
794 28 L
794 331 L
114 331 L
114 28 L
cp
clip
1 0 0 RC
1 LJ
0.667 LW
N
566.964 271.11 M
590.193 271.11 L
S
GR
GS
[0.75 0 0 0.75 0 0] CT
N
114 28 M
794 28 L
794 331 L
114 331 L
114 28 L
cp
clip
[10 6] 0 setdash
2 LJ
0.667 LW
N
185.474 260.024 M
185.474 234.244 L
S
GR
GS
[0.75 0 0 0.75 0 0] CT
N
114 28 M
794 28 L
794 331 L
114 331 L
114 28 L
cp
clip
[10 6] 0 setdash
2 LJ
0.667 LW
N
221.211 274.756 M
221.211 256.341 L
S
GR
GS
[0.75 0 0 0.75 0 0] CT
N
114 28 M
794 28 L
794 331 L
114 331 L
114 28 L
cp
clip
[10 6] 0 setdash
2 LJ
0.667 LW
N
256.947 285.068 M
256.947 268.127 L
S
GR
GS
[0.75 0 0 0.75 0 0] CT
N
114 28 M
794 28 L
794 331 L
114 331 L
114 28 L
cp
clip
[10 6] 0 setdash
2 LJ
0.667 LW
N
292.684 293.171 M
292.684 266.654 L
S
GR
GS
[0.75 0 0 0.75 0 0] CT
N
114 28 M
794 28 L
794 331 L
114 331 L
114 28 L
cp
clip
[10 6] 0 setdash
2 LJ
0.667 LW
N
328.421 174.58 M
328.421 154.693 L
S
GR
GS
[0.75 0 0 0.75 0 0] CT
N
114 28 M
794 28 L
794 331 L
114 331 L
114 28 L
cp
clip
[10 6] 0 setdash
2 LJ
0.667 LW
N
185.474 307.902 M
185.474 283.043 L
S
GR
GS
[0.75 0 0 0.75 0 0] CT
N
114 28 M
794 28 L
794 331 L
114 331 L
114 28 L
cp
clip
[10 6] 0 setdash
2 LJ
0.667 LW
N
221.211 315.268 M
221.211 296.854 L
S
GR
GS
[0.75 0 0 0.75 0 0] CT
N
114 28 M
794 28 L
794 331 L
114 331 L
114 28 L
cp
clip
[10 6] 0 setdash
2 LJ
0.667 LW
N
256.947 315.268 M
256.947 300.537 L
S
GR
GS
[0.75 0 0 0.75 0 0] CT
N
114 28 M
794 28 L
794 331 L
114 331 L
114 28 L
cp
clip
[10 6] 0 setdash
2 LJ
0.667 LW
N
292.684 319.688 M
292.684 310.849 L
S
GR
GS
[0.75 0 0 0.75 0 0] CT
N
114 28 M
794 28 L
794 331 L
114 331 L
114 28 L
cp
clip
[10 6] 0 setdash
2 LJ
0.667 LW
N
328.421 220.985 M
328.421 193.732 L
S
GR
GS
[0.75 0 0 0.75 0 0] CT
N
114 28 M
794 28 L
794 331 L
114 331 L
114 28 L
cp
clip
1 LJ
0.667 LW
N
179.666 234.244 M
191.281 234.244 L
S
GR
GS
[0.75 0 0 0.75 0 0] CT
N
114 28 M
794 28 L
794 331 L
114 331 L
114 28 L
cp
clip
1 LJ
0.667 LW
N
215.403 256.341 M
227.018 256.341 L
S
GR
GS
[0.75 0 0 0.75 0 0] CT
N
114 28 M
794 28 L
794 331 L
114 331 L
114 28 L
cp
clip
1 LJ
0.667 LW
N
251.14 268.127 M
262.755 268.127 L
S
GR
GS
[0.75 0 0 0.75 0 0] CT
N
114 28 M
794 28 L
794 331 L
114 331 L
114 28 L
cp
clip
1 LJ
0.667 LW
N
286.877 266.654 M
298.491 266.654 L
S
GR
GS
[0.75 0 0 0.75 0 0] CT
N
114 28 M
794 28 L
794 331 L
114 331 L
114 28 L
cp
clip
1 LJ
0.667 LW
N
322.614 154.693 M
334.228 154.693 L
S
GR
GS
[0.75 0 0 0.75 0 0] CT
N
114 28 M
794 28 L
794 331 L
114 331 L
114 28 L
cp
clip
1 LJ
0.667 LW
N
179.666 307.902 M
191.281 307.902 L
S
GR
GS
[0.75 0 0 0.75 0 0] CT
N
114 28 M
794 28 L
794 331 L
114 331 L
114 28 L
cp
clip
1 LJ
0.667 LW
N
215.403 315.268 M
227.018 315.268 L
S
GR
GS
[0.75 0 0 0.75 0 0] CT
N
114 28 M
794 28 L
794 331 L
114 331 L
114 28 L
cp
clip
1 LJ
0.667 LW
N
251.14 315.268 M
262.755 315.268 L
S
GR
GS
[0.75 0 0 0.75 0 0] CT
N
114 28 M
794 28 L
794 331 L
114 331 L
114 28 L
cp
clip
1 LJ
0.667 LW
N
286.877 319.688 M
298.491 319.688 L
S
GR
GS
[0.75 0 0 0.75 0 0] CT
N
114 28 M
794 28 L
794 331 L
114 331 L
114 28 L
cp
clip
1 LJ
0.667 LW
N
322.614 220.985 M
334.228 220.985 L
S
GR
GS
[0.75 0 0 0.75 0 0] CT
0 0 1 RC
1 LJ
0.667 LW
N
173.859 283.043 M
173.859 260.024 L
197.088 260.024 L
197.088 283.043 L
173.859 283.043 L
S
GR
GS
[0.75 0 0 0.75 0 0] CT
0 0 1 RC
1 LJ
0.667 LW
N
209.596 296.854 M
209.596 274.756 L
232.825 274.756 L
232.825 296.854 L
209.596 296.854 L
S
GR
GS
[0.75 0 0 0.75 0 0] CT
0 0 1 RC
1 LJ
0.667 LW
N
245.333 300.537 M
245.333 285.068 L
268.562 285.068 L
268.562 300.537 L
245.333 300.537 L
S
GR
GS
[0.75 0 0 0.75 0 0] CT
0 0 1 RC
1 LJ
0.667 LW
N
281.07 310.849 M
281.07 293.171 L
304.299 293.171 L
304.299 310.849 L
281.07 310.849 L
S
GR
GS
[0.75 0 0 0.75 0 0] CT
0 0 1 RC
1 LJ
0.667 LW
N
316.807 193.732 M
316.807 174.58 L
340.036 174.58 L
340.036 193.732 L
316.807 193.732 L
S
GR
GS
[0.75 0 0 0.75 0 0] CT
N
114 28 M
794 28 L
794 331 L
114 331 L
114 28 L
cp
clip
1 0 0 RC
1 LJ
0.667 LW
N
173.859 267.39 M
197.088 267.39 L
S
GR
GS
[0.75 0 0 0.75 0 0] CT
N
114 28 M
794 28 L
794 331 L
114 331 L
114 28 L
cp
clip
1 0 0 RC
1 LJ
0.667 LW
N
209.596 285.805 M
232.825 285.805 L
S
GR
GS
[0.75 0 0 0.75 0 0] CT
N
114 28 M
794 28 L
794 331 L
114 331 L
114 28 L
cp
clip
1 0 0 RC
1 LJ
0.667 LW
N
245.333 294.644 M
268.562 294.644 L
S
GR
GS
[0.75 0 0 0.75 0 0] CT
N
114 28 M
794 28 L
794 331 L
114 331 L
114 28 L
cp
clip
1 0 0 RC
1 LJ
0.667 LW
N
281.07 302.01 M
304.299 302.01 L
S
GR
GS
[0.75 0 0 0.75 0 0] CT
N
114 28 M
794 28 L
794 331 L
114 331 L
114 28 L
cp
clip
1 0 0 RC
1 LJ
0.667 LW
N
316.807 184.156 M
340.036 184.156 L
S
GR
GS
[0.75 0 0 0.75 246.31579 168.50122] CT
1 0 0 RC
10.0 ML
N
0 -4 M
0 4 L
-4 0 M
4 0 L
S
GR
GS
[0.75 0 0 0.75 246.31579 106.07561] CT
1 0 0 RC
10.0 ML
N
0 -4 M
0 4 L
-4 0 M
4 0 L
S
GR
GS
[0.75 0 0 0.75 0 0] CT
N
114 28 M
794 28 L
794 331 L
114 331 L
114 28 L
cp
clip
[10 6] 0 setdash
2 LJ
0.667 LW
N
399.895 263.707 M
399.895 230.561 L
S
GR
GS
[0.75 0 0 0.75 0 0] CT
N
114 28 M
794 28 L
794 331 L
114 331 L
114 28 L
cp
clip
[10 6] 0 setdash
2 LJ
0.667 LW
N
435.632 278.439 M
435.632 248.976 L
S
GR
GS
[0.75 0 0 0.75 0 0] CT
N
114 28 M
794 28 L
794 331 L
114 331 L
114 28 L
cp
clip
[10 6] 0 setdash
2 LJ
0.667 LW
N
471.368 288.751 M
471.368 271.073 L
S
GR
GS
[0.75 0 0 0.75 0 0] CT
N
114 28 M
794 28 L
794 331 L
114 331 L
114 28 L
cp
clip
[10 6] 0 setdash
2 LJ
0.667 LW
N
507.105 288.751 M
507.105 275.493 L
S
GR
GS
[0.75 0 0 0.75 0 0] CT
N
114 28 M
794 28 L
794 331 L
114 331 L
114 28 L
cp
clip
[10 6] 0 setdash
2 LJ
0.667 LW
N
542.842 182.683 M
542.842 155.429 L
S
GR
GS
[0.75 0 0 0.75 0 0] CT
N
114 28 M
794 28 L
794 331 L
114 331 L
114 28 L
cp
clip
[10 6] 0 setdash
2 LJ
0.667 LW
N
399.895 315.268 M
399.895 285.805 L
S
GR
GS
[0.75 0 0 0.75 0 0] CT
N
114 28 M
794 28 L
794 331 L
114 331 L
114 28 L
cp
clip
[10 6] 0 setdash
2 LJ
0.667 LW
N
435.632 322.634 M
435.632 300.537 L
S
GR
GS
[0.75 0 0 0.75 0 0] CT
N
114 28 M
794 28 L
794 331 L
114 331 L
114 28 L
cp
clip
[10 6] 0 setdash
2 LJ
0.667 LW
N
471.368 321.161 M
471.368 304.22 L
S
GR
GS
[0.75 0 0 0.75 0 0] CT
N
114 28 M
794 28 L
794 331 L
114 331 L
114 28 L
cp
clip
[10 6] 0 setdash
2 LJ
0.667 LW
N
507.105 319.688 M
507.105 315.268 L
S
GR
GS
[0.75 0 0 0.75 0 0] CT
N
114 28 M
794 28 L
794 331 L
114 331 L
114 28 L
cp
clip
[10 6] 0 setdash
2 LJ
0.667 LW
N
542.842 220.249 M
542.842 203.307 L
S
GR
GS
[0.75 0 0 0.75 0 0] CT
N
114 28 M
794 28 L
794 331 L
114 331 L
114 28 L
cp
clip
1 LJ
0.667 LW
N
394.087 230.561 M
405.702 230.561 L
S
GR
GS
[0.75 0 0 0.75 0 0] CT
N
114 28 M
794 28 L
794 331 L
114 331 L
114 28 L
cp
clip
1 LJ
0.667 LW
N
429.824 248.976 M
441.439 248.976 L
S
GR
GS
[0.75 0 0 0.75 0 0] CT
N
114 28 M
794 28 L
794 331 L
114 331 L
114 28 L
cp
clip
1 LJ
0.667 LW
N
465.561 271.073 M
477.176 271.073 L
S
GR
GS
[0.75 0 0 0.75 0 0] CT
N
114 28 M
794 28 L
794 331 L
114 331 L
114 28 L
cp
clip
1 LJ
0.667 LW
N
501.298 275.493 M
512.913 275.493 L
S
GR
GS
[0.75 0 0 0.75 0 0] CT
N
114 28 M
794 28 L
794 331 L
114 331 L
114 28 L
cp
clip
1 LJ
0.667 LW
N
537.035 155.429 M
548.649 155.429 L
S
GR
GS
[0.75 0 0 0.75 0 0] CT
N
114 28 M
794 28 L
794 331 L
114 331 L
114 28 L
cp
clip
1 LJ
0.667 LW
N
394.087 315.268 M
405.702 315.268 L
S
GR
GS
[0.75 0 0 0.75 0 0] CT
N
114 28 M
794 28 L
794 331 L
114 331 L
114 28 L
cp
clip
1 LJ
0.667 LW
N
429.824 322.634 M
441.439 322.634 L
S
GR
GS
[0.75 0 0 0.75 0 0] CT
N
114 28 M
794 28 L
794 331 L
114 331 L
114 28 L
cp
clip
1 LJ
0.667 LW
N
465.561 321.161 M
477.176 321.161 L
S
GR
GS
[0.75 0 0 0.75 0 0] CT
N
114 28 M
794 28 L
794 331 L
114 331 L
114 28 L
cp
clip
1 LJ
0.667 LW
N
501.298 319.688 M
512.913 319.688 L
S
GR
GS
[0.75 0 0 0.75 0 0] CT
N
114 28 M
794 28 L
794 331 L
114 331 L
114 28 L
cp
clip
1 LJ
0.667 LW
N
537.035 220.249 M
548.649 220.249 L
S
GR
GS
[0.75 0 0 0.75 0 0] CT
0 0 1 RC
1 LJ
0.667 LW
N
388.28 285.805 M
388.28 263.707 L
411.509 263.707 L
411.509 285.805 L
388.28 285.805 L
S
GR
GS
[0.75 0 0 0.75 0 0] CT
0 0 1 RC
1 LJ
0.667 LW
N
424.017 300.537 M
424.017 278.439 L
447.246 278.439 L
447.246 300.537 L
424.017 300.537 L
S
GR
GS
[0.75 0 0 0.75 0 0] CT
0 0 1 RC
1 LJ
0.667 LW
N
459.754 304.22 M
459.754 288.751 L
482.983 288.751 L
482.983 304.22 L
459.754 304.22 L
S
GR
GS
[0.75 0 0 0.75 0 0] CT
0 0 1 RC
1 LJ
0.667 LW
N
495.491 315.268 M
495.491 288.751 L
518.72 288.751 L
518.72 315.268 L
495.491 315.268 L
S
GR
GS
[0.75 0 0 0.75 0 0] CT
0 0 1 RC
1 LJ
0.667 LW
N
531.228 203.307 M
531.228 182.683 L
554.457 182.683 L
554.457 203.307 L
531.228 203.307 L
S
GR
GS
[0.75 0 0 0.75 0 0] CT
N
114 28 M
794 28 L
794 331 L
114 331 L
114 28 L
cp
clip
1 0 0 RC
1 LJ
0.667 LW
N
388.28 274.756 M
411.509 274.756 L
S
GR
GS
[0.75 0 0 0.75 0 0] CT
N
114 28 M
794 28 L
794 331 L
114 331 L
114 28 L
cp
clip
1 0 0 RC
1 LJ
0.667 LW
N
424.017 289.488 M
447.246 289.488 L
S
GR
GS
[0.75 0 0 0.75 0 0] CT
N
114 28 M
794 28 L
794 331 L
114 331 L
114 28 L
cp
clip
1 0 0 RC
1 LJ
0.667 LW
N
459.754 294.644 M
482.983 294.644 L
S
GR
GS
[0.75 0 0 0.75 0 0] CT
N
114 28 M
794 28 L
794 331 L
114 331 L
114 28 L
cp
clip
1 0 0 RC
1 LJ
0.667 LW
N
495.491 302.01 M
518.72 302.01 L
S
GR
GS
[0.75 0 0 0.75 0 0] CT
N
114 28 M
794 28 L
794 331 L
114 331 L
114 28 L
cp
clip
1 0 0 RC
1 LJ
0.667 LW
N
531.228 192.995 M
554.457 192.995 L
S
GR
GS
[0.75 0 0 0.75 299.92106 170.15854] CT
1 0 0 RC
10.0 ML
N
0 -4 M
0 4 L
-4 0 M
4 0 L
S
GR
GS
[0.75 0 0 0.75 353.52631 196.67562] CT
1 0 0 RC
10.0 ML
N
0 -4 M
0 4 L
-4 0 M
4 0 L
S
GR
GS
[0.75 0 0 0.75 353.52631 192.2561] CT
1 0 0 RC
10.0 ML
N
0 -4 M
0 4 L
-4 0 M
4 0 L
S
GR
GS
[0.75 0 0 0.75 407.13158 180.10244] CT
1 0 0 RC
10.0 ML
N
0 -4 M
0 4 L
-4 0 M
4 0 L
S
GR
GS
[0.75 0 0 0.75 407.13158 113.25731] CT
1 0 0 RC
10.0 ML
N
0 -4 M
0 4 L
-4 0 M
4 0 L
S
GR
GS
[0.75 0 0 0.75 407.13158 103.86586] CT
1 0 0 RC
10.0 ML
N
0 -4 M
0 4 L
-4 0 M
4 0 L
S
GR
GS
[0.75 0 0 0.75 0 0] CT
N
114 28 M
794 28 L
794 331 L
114 331 L
114 28 L
cp
clip
[10 6] 0 setdash
2 LJ
0.667 LW
N
614.316 271.073 M
614.316 248.976 L
S
GR
GS
[0.75 0 0 0.75 0 0] CT
N
114 28 M
794 28 L
794 331 L
114 331 L
114 28 L
cp
clip
[10 6] 0 setdash
2 LJ
0.667 LW
N
650.053 276.598 M
650.053 248.976 L
S
GR
GS
[0.75 0 0 0.75 0 0] CT
N
114 28 M
794 28 L
794 331 L
114 331 L
114 28 L
cp
clip
[10 6] 0 setdash
2 LJ
0.667 LW
N
685.789 219.512 M
685.789 160.585 L
S
GR
GS
[0.75 0 0 0.75 0 0] CT
N
114 28 M
794 28 L
794 331 L
114 331 L
114 28 L
cp
clip
[10 6] 0 setdash
2 LJ
0.667 LW
N
721.526 285.805 M
721.526 263.707 L
S
GR
GS
[0.75 0 0 0.75 0 0] CT
N
114 28 M
794 28 L
794 331 L
114 331 L
114 28 L
cp
clip
[10 6] 0 setdash
2 LJ
0.667 LW
N
757.263 116.39 M
757.263 116.39 L
S
GR
GS
[0.75 0 0 0.75 0 0] CT
N
114 28 M
794 28 L
794 331 L
114 331 L
114 28 L
cp
clip
[10 6] 0 setdash
2 LJ
0.667 LW
N
614.316 322.634 M
614.316 317.11 L
S
GR
GS
[0.75 0 0 0.75 0 0] CT
N
114 28 M
794 28 L
794 331 L
114 331 L
114 28 L
cp
clip
[10 6] 0 setdash
2 LJ
0.667 LW
N
650.053 322.634 M
650.053 318.951 L
S
GR
GS
[0.75 0 0 0.75 0 0] CT
N
114 28 M
794 28 L
794 331 L
114 331 L
114 28 L
cp
clip
[10 6] 0 setdash
2 LJ
0.667 LW
N
685.789 321.161 M
685.789 318.215 L
S
GR
GS
[0.75 0 0 0.75 0 0] CT
N
114 28 M
794 28 L
794 331 L
114 331 L
114 28 L
cp
clip
[10 6] 0 setdash
2 LJ
0.667 LW
N
721.526 319.688 M
721.526 319.688 L
S
GR
GS
[0.75 0 0 0.75 0 0] CT
N
114 28 M
794 28 L
794 331 L
114 331 L
114 28 L
cp
clip
[10 6] 0 setdash
2 LJ
0.667 LW
N
757.263 318.215 M
757.263 274.756 L
S
GR
GS
[0.75 0 0 0.75 0 0] CT
N
114 28 M
794 28 L
794 331 L
114 331 L
114 28 L
cp
clip
1 LJ
0.667 LW
N
608.509 248.976 M
620.123 248.976 L
S
GR
GS
[0.75 0 0 0.75 0 0] CT
N
114 28 M
794 28 L
794 331 L
114 331 L
114 28 L
cp
clip
1 LJ
0.667 LW
N
644.245 248.976 M
655.86 248.976 L
S
GR
GS
[0.75 0 0 0.75 0 0] CT
N
114 28 M
794 28 L
794 331 L
114 331 L
114 28 L
cp
clip
1 LJ
0.667 LW
N
679.982 160.585 M
691.597 160.585 L
S
GR
GS
[0.75 0 0 0.75 0 0] CT
N
114 28 M
794 28 L
794 331 L
114 331 L
114 28 L
cp
clip
1 LJ
0.667 LW
N
715.719 263.707 M
727.334 263.707 L
S
GR
GS
[0.75 0 0 0.75 0 0] CT
N
114 28 M
794 28 L
794 331 L
114 331 L
114 28 L
cp
clip
1 LJ
0.667 LW
N
751.456 116.39 M
763.07 116.39 L
S
GR
GS
[0.75 0 0 0.75 0 0] CT
N
114 28 M
794 28 L
794 331 L
114 331 L
114 28 L
cp
clip
1 LJ
0.667 LW
N
608.509 322.634 M
620.123 322.634 L
S
GR
GS
[0.75 0 0 0.75 0 0] CT
N
114 28 M
794 28 L
794 331 L
114 331 L
114 28 L
cp
clip
1 LJ
0.667 LW
N
644.245 322.634 M
655.86 322.634 L
S
GR
GS
[0.75 0 0 0.75 0 0] CT
N
114 28 M
794 28 L
794 331 L
114 331 L
114 28 L
cp
clip
1 LJ
0.667 LW
N
679.982 321.161 M
691.597 321.161 L
S
GR
GS
[0.75 0 0 0.75 0 0] CT
N
114 28 M
794 28 L
794 331 L
114 331 L
114 28 L
cp
clip
1 LJ
0.667 LW
N
715.719 319.688 M
727.334 319.688 L
S
GR
GS
[0.75 0 0 0.75 0 0] CT
N
114 28 M
794 28 L
794 331 L
114 331 L
114 28 L
cp
clip
1 LJ
0.667 LW
N
751.456 318.215 M
763.07 318.215 L
S
GR
GS
[0.75 0 0 0.75 0 0] CT
0 0 1 RC
1 LJ
0.667 LW
N
602.701 317.11 M
602.701 271.073 L
625.93 271.073 L
625.93 317.11 L
602.701 317.11 L
S
GR
GS
[0.75 0 0 0.75 0 0] CT
0 0 1 RC
1 LJ
0.667 LW
N
638.438 318.951 M
638.438 276.598 L
661.667 276.598 L
661.667 318.951 L
638.438 318.951 L
S
GR
GS
[0.75 0 0 0.75 0 0] CT
0 0 1 RC
1 LJ
0.667 LW
N
674.175 318.215 M
674.175 219.512 L
697.404 219.512 L
697.404 318.215 L
674.175 318.215 L
S
GR
GS
[0.75 0 0 0.75 0 0] CT
0 0 1 RC
1 LJ
0.667 LW
N
709.912 319.688 M
709.912 285.805 L
733.141 285.805 L
733.141 319.688 L
709.912 319.688 L
S
GR
GS
[0.75 0 0 0.75 0 0] CT
0 0 1 RC
1 LJ
0.667 LW
N
745.649 274.756 M
745.649 116.39 L
768.878 116.39 L
768.878 274.756 L
745.649 274.756 L
S
GR
GS
[0.75 0 0 0.75 0 0] CT
N
114 28 M
794 28 L
794 331 L
114 331 L
114 28 L
cp
clip
1 0 0 RC
1 LJ
0.667 LW
N
602.701 302.378 M
625.93 302.378 L
S
GR
GS
[0.75 0 0 0.75 0 0] CT
N
114 28 M
794 28 L
794 331 L
114 331 L
114 28 L
cp
clip
1 0 0 RC
1 LJ
0.667 LW
N
638.438 309.744 M
661.667 309.744 L
S
GR
GS
[0.75 0 0 0.75 0 0] CT
N
114 28 M
794 28 L
794 331 L
114 331 L
114 28 L
cp
clip
1 0 0 RC
1 LJ
0.667 LW
N
674.175 296.854 M
697.404 296.854 L
S
GR
GS
[0.75 0 0 0.75 0 0] CT
N
114 28 M
794 28 L
794 331 L
114 331 L
114 28 L
cp
clip
1 0 0 RC
1 LJ
0.667 LW
N
709.912 313.795 M
733.141 313.795 L
S
GR
GS
[0.75 0 0 0.75 0 0] CT
N
114 28 M
794 28 L
794 331 L
114 331 L
114 28 L
cp
clip
1 0 0 RC
1 LJ
0.667 LW
N
745.649 173.844 M
768.878 173.844 L
S
GR
GS
[0.75 0 0 0.75 0 0] CT
1 0 1 RC
N
745.649 116.39 M
745.649 274.756 L
768.878 274.756 L
768.878 116.39 L
cp
f
GR
GS
[0.75 0 0 0.75 0 0] CT
2 setlinecap
10.0 ML
0.667 LW
N
745.649 274.756 M
745.649 116.39 L
768.878 116.39 L
768.878 274.756 L
745.649 274.756 L
745.649 274.756 L
S
GR
GS
[0.75 0 0 0.75 0 0] CT
0.576 0.439 0.859 RC
N
709.912 285.805 M
709.912 319.688 L
733.141 319.688 L
733.141 285.805 L
cp
f
GR
GS
[0.75 0 0 0.75 0 0] CT
2 setlinecap
10.0 ML
0.667 LW
N
709.912 319.688 M
709.912 285.805 L
733.141 285.805 L
733.141 319.688 L
709.912 319.688 L
709.912 319.688 L
S
GR
GS
[0.75 0 0 0.75 0 0] CT
0 1 0 RC
N
674.175 219.512 M
674.175 318.215 L
697.404 318.215 L
697.404 219.512 L
cp
f
GR
GS
[0.75 0 0 0.75 0 0] CT
2 setlinecap
10.0 ML
0.667 LW
N
674.175 318.215 M
674.175 219.512 L
697.404 219.512 L
697.404 318.215 L
674.175 318.215 L
674.175 318.215 L
S
GR
GS
[0.75 0 0 0.75 0 0] CT
0 1 1 RC
N
638.438 276.598 M
638.438 318.951 L
661.667 318.951 L
661.667 276.598 L
cp
f
GR
GS
[0.75 0 0 0.75 0 0] CT
2 setlinecap
10.0 ML
0.667 LW
N
638.438 318.951 M
638.438 276.598 L
661.667 276.598 L
661.667 318.951 L
638.438 318.951 L
638.438 318.951 L
S
GR
GS
[0.75 0 0 0.75 0 0] CT
1 1 0 RC
N
602.701 271.073 M
602.701 317.11 L
625.93 317.11 L
625.93 271.073 L
cp
f
GR
GS
[0.75 0 0 0.75 0 0] CT
2 setlinecap
10.0 ML
0.667 LW
N
602.701 317.11 M
602.701 271.073 L
625.93 271.073 L
625.93 317.11 L
602.701 317.11 L
602.701 317.11 L
S
GR
GS
[0.75 0 0 0.75 0 0] CT
1 0 1 RC
N
531.228 182.683 M
531.228 203.307 L
554.457 203.307 L
554.457 182.683 L
cp
f
GR
GS
[0.75 0 0 0.75 0 0] CT
2 setlinecap
10.0 ML
0.667 LW
N
531.228 203.307 M
531.228 182.683 L
554.457 182.683 L
554.457 203.307 L
531.228 203.307 L
531.228 203.307 L
S
GR
GS
[0.75 0 0 0.75 0 0] CT
0.576 0.439 0.859 RC
N
495.491 288.751 M
495.491 315.268 L
518.72 315.268 L
518.72 288.751 L
cp
f
GR
GS
[0.75 0 0 0.75 0 0] CT
2 setlinecap
10.0 ML
0.667 LW
N
495.491 315.268 M
495.491 288.751 L
518.72 288.751 L
518.72 315.268 L
495.491 315.268 L
495.491 315.268 L
S
GR
GS
[0.75 0 0 0.75 0 0] CT
0 1 0 RC
N
459.754 288.751 M
459.754 304.22 L
482.983 304.22 L
482.983 288.751 L
cp
f
GR
GS
[0.75 0 0 0.75 0 0] CT
2 setlinecap
10.0 ML
0.667 LW
N
459.754 304.22 M
459.754 288.751 L
482.983 288.751 L
482.983 304.22 L
459.754 304.22 L
459.754 304.22 L
S
GR
GS
[0.75 0 0 0.75 0 0] CT
0 1 1 RC
N
424.017 278.439 M
424.017 300.537 L
447.246 300.537 L
447.246 278.439 L
cp
f
GR
GS
[0.75 0 0 0.75 0 0] CT
2 setlinecap
10.0 ML
0.667 LW
N
424.017 300.537 M
424.017 278.439 L
447.246 278.439 L
447.246 300.537 L
424.017 300.537 L
424.017 300.537 L
S
GR
GS
[0.75 0 0 0.75 0 0] CT
1 1 0 RC
N
388.28 263.707 M
388.28 285.805 L
411.509 285.805 L
411.509 263.707 L
cp
f
GR
GS
[0.75 0 0 0.75 0 0] CT
2 setlinecap
10.0 ML
0.667 LW
N
388.28 285.805 M
388.28 263.707 L
411.509 263.707 L
411.509 285.805 L
388.28 285.805 L
388.28 285.805 L
S
GR
GS
[0.75 0 0 0.75 0 0] CT
1 0 1 RC
N
316.807 174.58 M
316.807 193.732 L
340.036 193.732 L
340.036 174.58 L
cp
f
GR
GS
[0.75 0 0 0.75 0 0] CT
2 setlinecap
10.0 ML
0.667 LW
N
316.807 193.732 M
316.807 174.58 L
340.036 174.58 L
340.036 193.732 L
316.807 193.732 L
316.807 193.732 L
S
GR
GS
[0.75 0 0 0.75 0 0] CT
0.576 0.439 0.859 RC
N
281.07 293.171 M
281.07 310.849 L
304.299 310.849 L
304.299 293.171 L
cp
f
GR
GS
[0.75 0 0 0.75 0 0] CT
2 setlinecap
10.0 ML
0.667 LW
N
281.07 310.849 M
281.07 293.171 L
304.299 293.171 L
304.299 310.849 L
281.07 310.849 L
281.07 310.849 L
S
GR
GS
[0.75 0 0 0.75 0 0] CT
0 1 0 RC
N
245.333 285.068 M
245.333 300.537 L
268.562 300.537 L
268.562 285.068 L
cp
f
GR
GS
[0.75 0 0 0.75 0 0] CT
2 setlinecap
10.0 ML
0.667 LW
N
245.333 300.537 M
245.333 285.068 L
268.562 285.068 L
268.562 300.537 L
245.333 300.537 L
245.333 300.537 L
S
GR
GS
[0.75 0 0 0.75 0 0] CT
0 1 1 RC
N
209.596 274.756 M
209.596 296.854 L
232.825 296.854 L
232.825 274.756 L
cp
f
GR
GS
[0.75 0 0 0.75 0 0] CT
2 setlinecap
10.0 ML
0.667 LW
N
209.596 296.854 M
209.596 274.756 L
232.825 274.756 L
232.825 296.854 L
209.596 296.854 L
209.596 296.854 L
S
GR
GS
[0.75 0 0 0.75 0 0] CT
1 1 0 RC
N
173.859 260.024 M
173.859 283.043 L
197.088 283.043 L
197.088 260.024 L
cp
f
GR
GS
[0.75 0 0 0.75 0 0] CT
2 setlinecap
10.0 ML
0.667 LW
N
173.859 283.043 M
173.859 260.024 L
197.088 260.024 L
197.088 283.043 L
173.859 283.043 L
173.859 283.043 L
S
GR
GS
[0.75 0 0 0.75 0 0] CT
1 GC
N
739 146 M
739 43 L
593 43 L
593 146 L
cp
f
GR
GS
[0.75 0 0 0.75 480 39.78659] CT
/Helvetica 12 F
GS
[1 0 0 1 0 0] CT
0 5 moveto 
1 -1 scale
(Makespan) t 
GR
GR
GS
[0.75 0 0 0.75 0 0] CT
1 GC
N
637 59.229 M
637 46.869 L
597 46.869 L
597 59.229 L
cp
f
GR
GS
[0.75 0 0 0.75 0 0] CT
10.0 ML
0.667 LW
N
597 59.229 M
597 46.869 L
637 46.869 L
637 59.229 L
cp
S
GR
GS
[0.75 0 0 0.75 480 52.22195] CT
/Helvetica 12 F
GS
[1 0 0 1 0 0] CT
0 5 moveto 
1 -1 scale
(Std Weiss) t 
GR
GR
GS
[0.75 0 0 0.75 0 0] CT
1 1 0 RC
N
637 75.809 M
637 63.449 L
597 63.449 L
597 75.809 L
cp
f
GR
GS
[0.75 0 0 0.75 0 0] CT
10.0 ML
0.667 LW
N
597 75.809 M
597 63.449 L
637 63.449 L
637 75.809 L
cp
S
GR
GS
[0.75 0 0 0.75 480 64.65732] CT
/Helvetica 12 F
GS
[1 0 0 1 0 0] CT
0 5 moveto 
1 -1 scale
(Weiss Matt) t 
GR
GR
GS
[0.75 0 0 0.75 0 0] CT
0 1 1 RC
N
637 92.39 M
637 80.03 L
597 80.03 L
597 92.39 L
cp
f
GR
GS
[0.75 0 0 0.75 0 0] CT
10.0 ML
0.667 LW
N
597 92.39 M
597 80.03 L
637 80.03 L
637 92.39 L
cp
S
GR
GS
[0.75 0 0 0.75 480 77.09268] CT
/Helvetica 12 F
GS
[1 0 0 1 0 0] CT
0 5 moveto 
1 -1 scale
(Super Weiss) t 
GR
GR
GS
[0.75 0 0 0.75 0 0] CT
0 1 0 RC
N
637 108.97 M
637 96.61 L
597 96.61 L
597 108.97 L
cp
f
GR
GS
[0.75 0 0 0.75 0 0] CT
10.0 ML
0.667 LW
N
597 108.97 M
597 96.61 L
637 96.61 L
637 108.97 L
cp
S
GR
GS
[0.75 0 0 0.75 480 89.52805] CT
/Helvetica 12 F
GS
[1 0 0 1 0 0] CT
0 5 moveto 
1 -1 scale
(Weiss Basis) t 
GR
GR
GS
[0.75 0 0 0.75 0 0] CT
0.576 0.439 0.859 RC
N
637 125.551 M
637 113.191 L
597 113.191 L
597 125.551 L
cp
f
GR
GS
[0.75 0 0 0.75 0 0] CT
10.0 ML
0.667 LW
N
597 125.551 M
597 113.191 L
637 113.191 L
637 125.551 L
cp
S
GR
GS
[0.75 0 0 0.75 480 101.96341] CT
/Helvetica 12 F
GS
[1 0 0 1 0 0] CT
0 5 moveto 
1 -1 scale
(Discrepancy Sum) t 
GR
GR
GS
[0.75 0 0 0.75 0 0] CT
1 0 1 RC
N
637 142.131 M
637 129.771 L
597 129.771 L
597 142.131 L
cp
f
GR
GS
[0.75 0 0 0.75 0 0] CT
10.0 ML
0.667 LW
N
597 142.131 M
597 129.771 L
637 129.771 L
637 142.131 L
cp
S
GR
GS
[0.75 0 0 0.75 0 0] CT
0.149 GC
10.0 ML
0.667 LW
N
593 146 M
593 43 L
739 43 L
739 146 L
cp
S
GR
%%Trailer
%%Pages: 1
%%EOF
