%!PS-Adobe-3.0 EPSF-3.0
%%Creator: (MATLAB, The Mathworks, Inc. Version 9.3.0.713579 \(R2017b\). Operating System: Windows 10)
%%Title: (C:/Users/zhaos/Desktop/safire/ICMST results/ona.eps)
%%CreationDate: 2019-03-26T20:37:44
%%Pages: (atend)
%%BoundingBox: 0 0 450 188
%%LanguageLevel: 3
%%EndComments
%%BeginProlog
%%BeginResource: procset (Apache XML Graphics Std ProcSet) 1.2 0
%%Version: 1.2 0
%%Copyright: (Copyright 2001-2003,2010 The Apache Software Foundation. License terms: http://www.apache.org/licenses/LICENSE-2.0)
/bd{bind def}bind def
/ld{load def}bd
/GR/grestore ld
/GS/gsave ld
/RM/rmoveto ld
/C/curveto ld
/t/show ld
/L/lineto ld
/ML/setmiterlimit ld
/CT/concat ld
/f/fill ld
/N/newpath ld
/S/stroke ld
/CC/setcmykcolor ld
/A/ashow ld
/cp/closepath ld
/RC/setrgbcolor ld
/LJ/setlinejoin ld
/GC/setgray ld
/LW/setlinewidth ld
/M/moveto ld
/re {4 2 roll M
1 index 0 rlineto
0 exch rlineto
neg 0 rlineto
cp } bd
/_ctm matrix def
/_tm matrix def
/BT { _ctm currentmatrix pop matrix _tm copy pop 0 0 moveto } bd
/ET { _ctm setmatrix } bd
/iTm { _ctm setmatrix _tm concat } bd
/Tm { _tm astore pop iTm 0 0 moveto } bd
/ux 0.0 def
/uy 0.0 def
/F {
  /Tp exch def
  /Tf exch def
  Tf findfont Tp scalefont setfont
  /cf Tf def  /cs Tp def
} bd
/ULS {currentpoint /uy exch def /ux exch def} bd
/ULE {
  /Tcx currentpoint pop def
  gsave
  newpath
  cf findfont cs scalefont dup
  /FontMatrix get 0 get /Ts exch def /FontInfo get dup
  /UnderlinePosition get Ts mul /To exch def
  /UnderlineThickness get Ts mul /Tt exch def
  ux uy To add moveto  Tcx uy To add lineto
  Tt setlinewidth stroke
  grestore
} bd
/OLE {
  /Tcx currentpoint pop def
  gsave
  newpath
  cf findfont cs scalefont dup
  /FontMatrix get 0 get /Ts exch def /FontInfo get dup
  /UnderlinePosition get Ts mul /To exch def
  /UnderlineThickness get Ts mul /Tt exch def
  ux uy To add cs add moveto Tcx uy To add cs add lineto
  Tt setlinewidth stroke
  grestore
} bd
/SOE {
  /Tcx currentpoint pop def
  gsave
  newpath
  cf findfont cs scalefont dup
  /FontMatrix get 0 get /Ts exch def /FontInfo get dup
  /UnderlinePosition get Ts mul /To exch def
  /UnderlineThickness get Ts mul /Tt exch def
  ux uy To add cs 10 mul 26 idiv add moveto Tcx uy To add cs 10 mul 26 idiv add lineto
  Tt setlinewidth stroke
  grestore
} bd
/QT {
/Y22 exch store
/X22 exch store
/Y21 exch store
/X21 exch store
currentpoint
/Y21 load 2 mul add 3 div exch
/X21 load 2 mul add 3 div exch
/X21 load 2 mul /X22 load add 3 div
/Y21 load 2 mul /Y22 load add 3 div
/X22 load /Y22 load curveto
} bd
/SSPD {
dup length /d exch dict def
{
/v exch def
/k exch def
currentpagedevice k known {
/cpdv currentpagedevice k get def
v cpdv ne {
/upd false def
/nullv v type /nulltype eq def
/nullcpdv cpdv type /nulltype eq def
nullv nullcpdv or
{
/upd true def
} {
/sametype v type cpdv type eq def
sametype {
v type /arraytype eq {
/vlen v length def
/cpdvlen cpdv length def
vlen cpdvlen eq {
0 1 vlen 1 sub {
/i exch def
/obj v i get def
/cpdobj cpdv i get def
obj cpdobj ne {
/upd true def
exit
} if
} for
} {
/upd true def
} ifelse
} {
v type /dicttype eq {
v {
/dv exch def
/dk exch def
/cpddv cpdv dk get def
dv cpddv ne {
/upd true def
exit
} if
} forall
} {
/upd true def
} ifelse
} ifelse
} if
} ifelse
upd true eq {
d k v put
} if
} if
} if
} forall
d length 0 gt {
d setpagedevice
} if
} bd
/RE { % /NewFontName [NewEncodingArray] /FontName RE -
  findfont dup length dict begin
  {
    1 index /FID ne
    {def} {pop pop} ifelse
  } forall
  /Encoding exch def
  /FontName 1 index def
  currentdict definefont pop
  end
} bind def
%%EndResource
%%BeginResource: procset (Apache XML Graphics EPS ProcSet) 1.0 0
%%Version: 1.0 0
%%Copyright: (Copyright 2002-2003 The Apache Software Foundation. License terms: http://www.apache.org/licenses/LICENSE-2.0)
/BeginEPSF { %def
/b4_Inc_state save def         % Save state for cleanup
/dict_count countdictstack def % Count objects on dict stack
/op_count count 1 sub def      % Count objects on operand stack
userdict begin                 % Push userdict on dict stack
/showpage { } def              % Redefine showpage, { } = null proc
0 setgray 0 setlinecap         % Prepare graphics state
1 setlinewidth 0 setlinejoin
10 setmiterlimit [ ] 0 setdash newpath
/languagelevel where           % If level not equal to 1 then
{pop languagelevel             % set strokeadjust and
1 ne                           % overprint to their defaults.
{false setstrokeadjust false setoverprint
} if
} if
} bd
/EndEPSF { %def
count op_count sub {pop} repeat            % Clean up stacks
countdictstack dict_count sub {end} repeat
b4_Inc_state restore
} bd
%%EndResource
%FOPBeginFontDict
%%IncludeResource: font Courier-Oblique
%%IncludeResource: font Courier-BoldOblique
%%IncludeResource: font Courier-Bold
%%IncludeResource: font ZapfDingbats
%%IncludeResource: font Symbol
%%IncludeResource: font Helvetica
%%IncludeResource: font Helvetica-Oblique
%%IncludeResource: font Helvetica-Bold
%%IncludeResource: font Helvetica-BoldOblique
%%IncludeResource: font Times-Roman
%%IncludeResource: font Times-Italic
%%IncludeResource: font Times-Bold
%%IncludeResource: font Times-BoldItalic
%%IncludeResource: font Courier
%FOPEndFontDict
%%BeginResource: encoding WinAnsiEncoding
/WinAnsiEncoding [
/.notdef /.notdef /.notdef /.notdef /.notdef
/.notdef /.notdef /.notdef /.notdef /.notdef
/.notdef /.notdef /.notdef /.notdef /.notdef
/.notdef /.notdef /.notdef /.notdef /.notdef
/.notdef /.notdef /.notdef /.notdef /.notdef
/.notdef /.notdef /.notdef /.notdef /.notdef
/.notdef /.notdef /space /exclam /quotedbl
/numbersign /dollar /percent /ampersand /quotesingle
/parenleft /parenright /asterisk /plus /comma
/hyphen /period /slash /zero /one
/two /three /four /five /six
/seven /eight /nine /colon /semicolon
/less /equal /greater /question /at
/A /B /C /D /E
/F /G /H /I /J
/K /L /M /N /O
/P /Q /R /S /T
/U /V /W /X /Y
/Z /bracketleft /backslash /bracketright /asciicircum
/underscore /quoteleft /a /b /c
/d /e /f /g /h
/i /j /k /l /m
/n /o /p /q /r
/s /t /u /v /w
/x /y /z /braceleft /bar
/braceright /asciitilde /bullet /Euro /bullet
/quotesinglbase /florin /quotedblbase /ellipsis /dagger
/daggerdbl /circumflex /perthousand /Scaron /guilsinglleft
/OE /bullet /Zcaron /bullet /bullet
/quoteleft /quoteright /quotedblleft /quotedblright /bullet
/endash /emdash /asciitilde /trademark /scaron
/guilsinglright /oe /bullet /zcaron /Ydieresis
/space /exclamdown /cent /sterling /currency
/yen /brokenbar /section /dieresis /copyright
/ordfeminine /guillemotleft /logicalnot /sfthyphen /registered
/macron /degree /plusminus /twosuperior /threesuperior
/acute /mu /paragraph /middot /cedilla
/onesuperior /ordmasculine /guillemotright /onequarter /onehalf
/threequarters /questiondown /Agrave /Aacute /Acircumflex
/Atilde /Adieresis /Aring /AE /Ccedilla
/Egrave /Eacute /Ecircumflex /Edieresis /Igrave
/Iacute /Icircumflex /Idieresis /Eth /Ntilde
/Ograve /Oacute /Ocircumflex /Otilde /Odieresis
/multiply /Oslash /Ugrave /Uacute /Ucircumflex
/Udieresis /Yacute /Thorn /germandbls /agrave
/aacute /acircumflex /atilde /adieresis /aring
/ae /ccedilla /egrave /eacute /ecircumflex
/edieresis /igrave /iacute /icircumflex /idieresis
/eth /ntilde /ograve /oacute /ocircumflex
/otilde /odieresis /divide /oslash /ugrave
/uacute /ucircumflex /udieresis /yacute /thorn
/ydieresis
] def
%%EndResource
%FOPBeginFontReencode
/Courier-Oblique findfont
dup length dict begin
  {1 index /FID ne {def} {pop pop} ifelse} forall
  /Encoding WinAnsiEncoding def
  currentdict
end
/Courier-Oblique exch definefont pop
/Courier-BoldOblique findfont
dup length dict begin
  {1 index /FID ne {def} {pop pop} ifelse} forall
  /Encoding WinAnsiEncoding def
  currentdict
end
/Courier-BoldOblique exch definefont pop
/Courier-Bold findfont
dup length dict begin
  {1 index /FID ne {def} {pop pop} ifelse} forall
  /Encoding WinAnsiEncoding def
  currentdict
end
/Courier-Bold exch definefont pop
/Helvetica findfont
dup length dict begin
  {1 index /FID ne {def} {pop pop} ifelse} forall
  /Encoding WinAnsiEncoding def
  currentdict
end
/Helvetica exch definefont pop
/Helvetica-Oblique findfont
dup length dict begin
  {1 index /FID ne {def} {pop pop} ifelse} forall
  /Encoding WinAnsiEncoding def
  currentdict
end
/Helvetica-Oblique exch definefont pop
/Helvetica-Bold findfont
dup length dict begin
  {1 index /FID ne {def} {pop pop} ifelse} forall
  /Encoding WinAnsiEncoding def
  currentdict
end
/Helvetica-Bold exch definefont pop
/Helvetica-BoldOblique findfont
dup length dict begin
  {1 index /FID ne {def} {pop pop} ifelse} forall
  /Encoding WinAnsiEncoding def
  currentdict
end
/Helvetica-BoldOblique exch definefont pop
/Times-Roman findfont
dup length dict begin
  {1 index /FID ne {def} {pop pop} ifelse} forall
  /Encoding WinAnsiEncoding def
  currentdict
end
/Times-Roman exch definefont pop
/Times-Italic findfont
dup length dict begin
  {1 index /FID ne {def} {pop pop} ifelse} forall
  /Encoding WinAnsiEncoding def
  currentdict
end
/Times-Italic exch definefont pop
/Times-Bold findfont
dup length dict begin
  {1 index /FID ne {def} {pop pop} ifelse} forall
  /Encoding WinAnsiEncoding def
  currentdict
end
/Times-Bold exch definefont pop
/Times-BoldItalic findfont
dup length dict begin
  {1 index /FID ne {def} {pop pop} ifelse} forall
  /Encoding WinAnsiEncoding def
  currentdict
end
/Times-BoldItalic exch definefont pop
/Courier findfont
dup length dict begin
  {1 index /FID ne {def} {pop pop} ifelse} forall
  /Encoding WinAnsiEncoding def
  currentdict
end
/Courier exch definefont pop
%FOPEndFontReencode
%%EndProlog
%%Page: 1 1
%%PageBoundingBox: 0 0 450 188
%%BeginPageSetup
[1 0 0 -1 0 188] CT
%%EndPageSetup
GS
[0.75 0 0 0.75 0 0.5] CT
1 GC
N
0 0 600 250 re
f
GR
GS
[0.75 0 0 0.75 0 0.5] CT
1 GC
N
0 0 600 250 re
f
GR
GS
[0.75 0 0 0.75 0 0.5] CT
1 GC
N
78 206 M
543 206 L
543 19 L
78 19 L
cp
f
GR
GS
[0.75 0 0 0.75 0 0.5] CT
0.149 GC
2 setlinecap
1 LJ
0.667 LW
N
78 206 M
543 206 L
S
GR
GS
[0.75 0 0 0.75 0 0.5] CT
0.149 GC
2 setlinecap
1 LJ
0.667 LW
N
78 206 M
78 201.35 L
S
GR
GS
[0.75 0 0 0.75 0 0.5] CT
0.149 GC
2 setlinecap
1 LJ
0.667 LW
N
129.667 206 M
129.667 201.35 L
S
GR
GS
[0.75 0 0 0.75 0 0.5] CT
0.149 GC
2 setlinecap
1 LJ
0.667 LW
N
181.333 206 M
181.333 201.35 L
S
GR
GS
[0.75 0 0 0.75 0 0.5] CT
0.149 GC
2 setlinecap
1 LJ
0.667 LW
N
233 206 M
233 201.35 L
S
GR
GS
[0.75 0 0 0.75 0 0.5] CT
0.149 GC
2 setlinecap
1 LJ
0.667 LW
N
284.667 206 M
284.667 201.35 L
S
GR
GS
[0.75 0 0 0.75 0 0.5] CT
0.149 GC
2 setlinecap
1 LJ
0.667 LW
N
336.333 206 M
336.333 201.35 L
S
GR
GS
[0.75 0 0 0.75 0 0.5] CT
0.149 GC
2 setlinecap
1 LJ
0.667 LW
N
388 206 M
388 201.35 L
S
GR
GS
[0.75 0 0 0.75 0 0.5] CT
0.149 GC
2 setlinecap
1 LJ
0.667 LW
N
439.667 206 M
439.667 201.35 L
S
GR
GS
[0.75 0 0 0.75 0 0.5] CT
0.149 GC
2 setlinecap
1 LJ
0.667 LW
N
491.333 206 M
491.333 201.35 L
S
GR
GS
[0.75 0 0 0.75 0 0.5] CT
0.149 GC
2 setlinecap
1 LJ
0.667 LW
N
543 206 M
543 201.35 L
S
GR
GS
[0.75 0 0 0.75 58.5 159.00002] CT
0.149 GC
/Helvetica 13.333 F
GS
[1 0 0 1 0 0] CT
-13 14 moveto 
1 -1 scale
(4.25) t 
GR
GR
GS
[0.75 0 0 0.75 97.25 159.00002] CT
0.149 GC
/Helvetica 13.333 F
GS
[1 0 0 1 0 0] CT
-9.5 14 moveto 
1 -1 scale
(4.3) t 
GR
GR
GS
[0.75 0 0 0.75 136 159.00002] CT
0.149 GC
/Helvetica 13.333 F
GS
[1 0 0 1 0 0] CT
-13 14 moveto 
1 -1 scale
(4.35) t 
GR
GR
GS
[0.75 0 0 0.75 174.75 159.00002] CT
0.149 GC
/Helvetica 13.333 F
GS
[1 0 0 1 0 0] CT
-9.5 14 moveto 
1 -1 scale
(4.4) t 
GR
GR
GS
[0.75 0 0 0.75 213.49999 159.00002] CT
0.149 GC
/Helvetica 13.333 F
GS
[1 0 0 1 0 0] CT
-13 14 moveto 
1 -1 scale
(4.45) t 
GR
GR
GS
[0.75 0 0 0.75 252.25001 159.00002] CT
0.149 GC
/Helvetica 13.333 F
GS
[1 0 0 1 0 0] CT
-9.5 14 moveto 
1 -1 scale
(4.5) t 
GR
GR
GS
[0.75 0 0 0.75 291 159.00002] CT
0.149 GC
/Helvetica 13.333 F
GS
[1 0 0 1 0 0] CT
-13 14 moveto 
1 -1 scale
(4.55) t 
GR
GR
GS
[0.75 0 0 0.75 329.74999 159.00002] CT
0.149 GC
/Helvetica 13.333 F
GS
[1 0 0 1 0 0] CT
-9.5 14 moveto 
1 -1 scale
(4.6) t 
GR
GR
GS
[0.75 0 0 0.75 368.50001 159.00002] CT
0.149 GC
/Helvetica 13.333 F
GS
[1 0 0 1 0 0] CT
-13 14 moveto 
1 -1 scale
(4.65) t 
GR
GR
GS
[0.75 0 0 0.75 407.25 159.00002] CT
0.149 GC
/Helvetica 13.333 F
GS
[1 0 0 1 0 0] CT
-9.5 14 moveto 
1 -1 scale
(4.7) t 
GR
GR
GS
[0.75 0 0 0.75 232.8753 172.24999] CT
0.149 GC
/Helvetica 16 F
GS
[1 0 0 1 0 0] CT
-57.5 17 moveto 
1 -1 scale
(Makespan \(min\)) t 
GR
GR
GS
[0.75 0 0 0.75 383.25 185] CT
0.149 GC
N
1.906 -0.375 M
1.906 -0.469 1.969 -0.563 QT
4.672 -3.25 L
1.969 -5.953 L
1.906 -6.016 1.906 -6.125 QT
1.906 -6.219 1.984 -6.305 QT
2.063 -6.391 2.172 -6.391 QT
2.266 -6.391 2.375 -6.297 QT
5.063 -3.609 L
7.734 -6.297 L
7.844 -6.391 7.922 -6.391 QT
8.031 -6.391 8.109 -6.313 QT
8.188 -6.234 8.188 -6.125 QT
8.188 -6.016 8.125 -5.953 QT
5.422 -3.25 L
8.125 -0.563 L
8.188 -0.469 8.188 -0.375 QT
8.188 -0.266 8.109 -0.188 QT
8.031 -0.109 7.922 -0.109 QT
7.828 -0.109 7.734 -0.203 QT
5.063 -2.891 L
2.375 -0.203 L
2.266 -0.109 2.172 -0.109 QT
2.063 -0.109 1.984 -0.195 QT
1.906 -0.281 1.906 -0.375 QT
cp
f
GR
GS
[0.75 0 0 0.75 391.5 185] CT
0.149 GC
/Helvetica 13.333 F
GS
[1 0 0 1 0 0] CT
0 0 moveto 
1 -1 scale
(10) t 
GR
GR
GS
[0.75 0 0 0.75 402.75 180.5] CT
0.149 GC
/Helvetica 10.667 F
GS
[1 0 0 1 0 0] CT
0 0 moveto 
1 -1 scale
(4) t 
GR
GR
GS
[0.75 0 0 0.75 0 0.5] CT
0.149 GC
2 setlinecap
1 LJ
0.667 LW
N
78 206 M
78 19 L
S
GR
GS
[0.75 0 0 0.75 0 0.5] CT
0.149 GC
2 setlinecap
1 LJ
0.667 LW
N
78 206 M
82.65 206 L
S
GR
GS
[0.75 0 0 0.75 0 0.5] CT
0.149 GC
2 setlinecap
1 LJ
0.667 LW
N
78 159.25 M
82.65 159.25 L
S
GR
GS
[0.75 0 0 0.75 0 0.5] CT
0.149 GC
2 setlinecap
1 LJ
0.667 LW
N
78 112.5 M
82.65 112.5 L
S
GR
GS
[0.75 0 0 0.75 0 0.5] CT
0.149 GC
2 setlinecap
1 LJ
0.667 LW
N
78 65.75 M
82.65 65.75 L
S
GR
GS
[0.75 0 0 0.75 0 0.5] CT
0.149 GC
2 setlinecap
1 LJ
0.667 LW
N
78 19 M
82.65 19 L
S
GR
GS
[0.75 0 0 0.75 54.49997 155.00001] CT
0.149 GC
/Helvetica 13.333 F
GS
[1 0 0 1 0 0] CT
-19 5.5 moveto 
1 -1 scale
(1.8) t 
GR
GR
GS
[0.75 0 0 0.75 54.49997 119.93751] CT
0.149 GC
/Helvetica 13.333 F
GS
[1 0 0 1 0 0] CT
-19 5.5 moveto 
1 -1 scale
(1.9) t 
GR
GR
GS
[0.75 0 0 0.75 54.49997 84.875] CT
0.149 GC
/Helvetica 13.333 F
GS
[1 0 0 1 0 0] CT
-8 5.5 moveto 
1 -1 scale
(2) t 
GR
GR
GS
[0.75 0 0 0.75 54.49997 49.81253] CT
0.149 GC
/Helvetica 13.333 F
GS
[1 0 0 1 0 0] CT
-19 5.5 moveto 
1 -1 scale
(2.1) t 
GR
GR
GS
[0.75 0 0 0.75 54.49997 14.74998] CT
0.149 GC
/Helvetica 13.333 F
GS
[1 0 0 1 0 0] CT
-19 5.5 moveto 
1 -1 scale
(2.2) t 
GR
GR
GS
[0 -0.75 0.75 0 37.24986 84.87491] CT
0.149 GC
/Helvetica 16 F
GS
[1 0 0 1 0 0] CT
-25 -4 moveto 
1 -1 scale
(Quality) t 
GR
GR
GS
[0.75 0 0 0.75 80.975 42.80004] CT
0 0.447 0.741 RC
N
3.659 0 M
3.659 -2.021 2.021 -3.659 0 -3.659 C
-2.021 -3.659 -3.659 -2.021 -3.659 0 C
-3.659 2.021 -2.021 3.659 0 3.659 C
2.021 3.659 3.659 2.021 3.659 0 C
f
GR
GS
[0.75 0 0 0.75 80.975 42.80004] CT
0 0.447 0.741 RC
10.0 ML
N
3.659 0 M
3.659 -2.021 2.021 -3.659 0 -3.659 C
-2.021 -3.659 -3.659 -2.021 -3.659 0 C
-3.659 2.021 -2.021 3.659 0 3.659 C
2.021 3.659 3.659 2.021 3.659 0 C
S
GR
GS
[0.75 0 0 0.75 92.2125 46.30629] CT
0 0.447 0.741 RC
N
/f-328651288{3.659 0 M
3.659 -2.021 2.021 -3.659 0 -3.659 C
-2.021 -3.659 -3.659 -2.021 -3.659 0 C
-3.659 2.021 -2.021 3.659 0 3.659 C
2.021 3.659 3.659 2.021 3.659 0 C}def
f-328651288
f
GR
GS
[0.75 0 0 0.75 92.2125 46.30629] CT
0 0.447 0.741 RC
10.0 ML
N
3.659 0 M
3.659 -2.021 2.021 -3.659 0 -3.659 C
-2.021 -3.659 -3.659 -2.021 -3.659 0 C
-3.659 2.021 -2.021 3.659 0 3.659 C
2.021 3.659 3.659 2.021 3.659 0 C
S
GR
GS
[0.75 0 0 0.75 92.9875 49.81253] CT
0 0.447 0.741 RC
N
f-328651288
f
GR
GS
[0.75 0 0 0.75 92.9875 49.81253] CT
0 0.447 0.741 RC
10.0 ML
N
3.659 0 M
3.659 -2.021 2.021 -3.659 0 -3.659 C
-2.021 -3.659 -3.659 -2.021 -3.659 0 C
-3.659 2.021 -2.021 3.659 0 3.659 C
2.021 3.659 3.659 2.021 3.659 0 C
S
GR
GS
[0.75 0 0 0.75 105.77501 53.31878] CT
0 0.447 0.741 RC
N
f-328651288
f
GR
GS
[0.75 0 0 0.75 105.77501 53.31878] CT
0 0.447 0.741 RC
10.0 ML
N
3.659 0 M
3.659 -2.021 2.021 -3.659 0 -3.659 C
-2.021 -3.659 -3.659 -2.021 -3.659 0 C
-3.659 2.021 -2.021 3.659 0 3.659 C
2.021 3.659 3.659 2.021 3.659 0 C
S
GR
GS
[0.75 0 0 0.75 146.38499 63.83752] CT
0 0.447 0.741 RC
N
f-328651288
f
GR
GS
[0.75 0 0 0.75 146.38499 63.83752] CT
0 0.447 0.741 RC
10.0 ML
N
3.659 0 M
3.659 -2.021 2.021 -3.659 0 -3.659 C
-2.021 -3.659 -3.659 -2.021 -3.659 0 C
-3.659 2.021 -2.021 3.659 0 3.659 C
2.021 3.659 3.659 2.021 3.659 0 C
S
GR
GS
[0.75 0 0 0.75 147.16 81.36875] CT
0 0.447 0.741 RC
N
f-328651288
f
GR
GS
[0.75 0 0 0.75 147.16 81.36875] CT
0 0.447 0.741 RC
10.0 ML
N
3.659 0 M
3.659 -2.021 2.021 -3.659 0 -3.659 C
-2.021 -3.659 -3.659 -2.021 -3.659 0 C
-3.659 2.021 -2.021 3.659 0 3.659 C
2.021 3.659 3.659 2.021 3.659 0 C
S
GR
GS
[0.75 0 0 0.75 159.1725 84.875] CT
0 0.447 0.741 RC
N
f-328651288
f
GR
GS
[0.75 0 0 0.75 159.1725 84.875] CT
0 0.447 0.741 RC
10.0 ML
N
3.659 0 M
3.659 -2.021 2.021 -3.659 0 -3.659 C
-2.021 -3.659 -3.659 -2.021 -3.659 0 C
-3.659 2.021 -2.021 3.659 0 3.659 C
2.021 3.659 3.659 2.021 3.659 0 C
S
GR
GS
[0.75 0 0 0.75 184.4375 91.88749] CT
0 0.447 0.741 RC
N
f-328651288
f
GR
GS
[0.75 0 0 0.75 184.4375 91.88749] CT
0 0.447 0.741 RC
10.0 ML
N
3.659 0 M
3.659 -2.021 2.021 -3.659 0 -3.659 C
-2.021 -3.659 -3.659 -2.021 -3.659 0 C
-3.659 2.021 -2.021 3.659 0 3.659 C
2.021 3.659 3.659 2.021 3.659 0 C
S
GR
GS
[0.75 0 0 0.75 214.12001 98.89999] CT
0 0.447 0.741 RC
N
f-328651288
f
GR
GS
[0.75 0 0 0.75 214.12001 98.89999] CT
0 0.447 0.741 RC
10.0 ML
N
3.659 0 M
3.659 -2.021 2.021 -3.659 0 -3.659 C
-2.021 -3.659 -3.659 -2.021 -3.659 0 C
-3.659 2.021 -2.021 3.659 0 3.659 C
2.021 3.659 3.659 2.021 3.659 0 C
S
GR
GS
[0.75 0 0 0.75 229.07751 112.92502] CT
0 0.447 0.741 RC
N
f-328651288
f
GR
GS
[0.75 0 0 0.75 229.07751 112.92502] CT
0 0.447 0.741 RC
10.0 ML
N
3.659 0 M
3.659 -2.021 2.021 -3.659 0 -3.659 C
-2.021 -3.659 -3.659 -2.021 -3.659 0 C
-3.659 2.021 -2.021 3.659 0 3.659 C
2.021 3.659 3.659 2.021 3.659 0 C
S
GR
GS
[0.75 0 0 0.75 264.5725 130.45625] CT
0 0.447 0.741 RC
N
f-328651288
f
GR
GS
[0.75 0 0 0.75 264.5725 130.45625] CT
0 0.447 0.741 RC
10.0 ML
N
3.659 0 M
3.659 -2.021 2.021 -3.659 0 -3.659 C
-2.021 -3.659 -3.659 -2.021 -3.659 0 C
-3.659 2.021 -2.021 3.659 0 3.659 C
2.021 3.659 3.659 2.021 3.659 0 C
S
GR
GS
[0.75 0 0 0.75 307.50751 137.46874] CT
0 0.447 0.741 RC
N
f-328651288
f
GR
GS
[0.75 0 0 0.75 307.50751 137.46874] CT
0 0.447 0.741 RC
10.0 ML
N
3.659 0 M
3.659 -2.021 2.021 -3.659 0 -3.659 C
-2.021 -3.659 -3.659 -2.021 -3.659 0 C
-3.659 2.021 -2.021 3.659 0 3.659 C
2.021 3.659 3.659 2.021 3.659 0 C
S
GR
GS
[0.75 0 0 0.75 375.5525 147.98748] CT
0 0.447 0.741 RC
N
f-328651288
f
GR
GS
[0.75 0 0 0.75 375.5525 147.98748] CT
0 0.447 0.741 RC
10.0 ML
N
3.659 0 M
3.659 -2.021 2.021 -3.659 0 -3.659 C
-2.021 -3.659 -3.659 -2.021 -3.659 0 C
-3.659 2.021 -2.021 3.659 0 3.659 C
2.021 3.659 3.659 2.021 3.659 0 C
S
GR
GS
[0.75 0 0 0.75 402.44499 151.49377] CT
0 0.447 0.741 RC
N
f-328651288
f
GR
GS
[0.75 0 0 0.75 402.44499 151.49377] CT
0 0.447 0.741 RC
10.0 ML
N
3.659 0 M
3.659 -2.021 2.021 -3.659 0 -3.659 C
-2.021 -3.659 -3.659 -2.021 -3.659 0 C
-3.659 2.021 -2.021 3.659 0 3.659 C
2.021 3.659 3.659 2.021 3.659 0 C
S
GR
%%Trailer
%%Pages: 1
%%EOF
